{
    "1461777499785465856": {
        "id": "1461777499785465856",
        "type": "pin",
        "state": "normal",
        "url": "https://www.zhihu.com/pin/1461777499785465856",
        "viewPermission": "all",
        "sourcePinId": 0,
        "created": 1641294914,
        "updated": 1641294914,
        "isDeleted": false,
        "selfCreate": false,
        "commentPermission": "all",
        "canTop": false,
        "isTop": false,
        "isAdminCloseRepin": false,
        "adminClosedComment": false,
        "meetReactionGuideConditions": false,
        "likeCount": 0,
        "commentCount": 2,
        "repinCount": 4,
        "reactionCount": 30,
        "favoriteCount": 0,
        "pageViewCount": null,
        "content": [
            {
                "content": "<a href=\"https://link.zhihu.com/?target=https%3A//ci-ic.org/blog/2022/01/03/cpi-maoist-red-salutes-to-member-of-the-central-committee-martyr-comrade-chintanda/\" data-icon-type=\"link\" data-original-url=\"https://ci-ic.org/blog/2022/01/03/cpi-maoist-red-salutes-to-member-of-the-central-committee-martyr-comrade-chintanda/\" class=\"external\">链接</a><br>故 中委Narendra Sinh (Ashoda, Chintanda)同志出身中农，青年时&#34;爬宝塔&#34;进了大学。照深被奴化教育毒害的目光看，似乎是可以谋个位子，搞个人势力，美名其曰″利用合法伪装，打入等待大战″了。但他并不愿作这样的&#34;合法进步学者&#34;，而走上了当局所谓&#34;城里的纳萨巴里巩布分子&#34;道路。从P外的劳工结团的″单干户″，到终于找到了P。从反击袭扰农校的土匪，到参加游击战争。在宣教等战线为捍卫P的路线贡献了力量。入狱被害，身心摧残，而坚持gm气节，保守了P的秘密。<br>目下卌五年来有这样不屈，默默到死的；转向者也有不少，何也？刑求或招安都不是投降的借口，外因是通过内因起作用的。根本还在于是像Chintanda同志一样，坚持自觉无产阶级的斗争，执行批评和自我批评，联系实际联系群众；还是死保资产阶级的世界观和路线，资产阶级名利思想、保命哲学。打击敌人的，自然不是纯之又纯的战士，会受到旧上层建筑的响，但P必须按照P的基本路线，Chair提的gm接班人5个条件不断教育人。特别是警惕和清除🌸一类个人野心家、阴谋家和两面派，才能真正团结犯了错误并认真改正的人。",
                "foldType": "raw",
                "ownText": "<a href=\"https://link.zhihu.com/?target=https%3A//ci-ic.org/blog/2022/01/03/cpi-maoist-red-salutes-to-member-of-the-central-committee-martyr-comrade-chintanda/\" data-icon-type=\"link\" data-original-url=\"https://ci-ic.org/blog/2022/01/03/cpi-maoist-red-salutes-to-member-of-the-central-committee-martyr-comrade-chintanda/\" class=\"external\">链接</a><br>故 中委Narendra Sinh (Ashoda, Chintanda)同志出身中农，青年时&#34;爬宝塔&#34;进了大学。照深被奴化教育毒害的目光看，似乎是可以谋个位子，搞个人势力，美名其曰″利用合法伪装，打入等待大战″了。但他并不愿作这样的&#34;合法进步学者&#34;，而走上了当局所谓&#34;城里的纳萨巴里巩布分子&#34;道路。从P外的劳工结团的″单干户″，到终于找到了P。从反击袭扰农校的土匪，到参加游击战争。在宣教等战线为捍卫P的路线贡献了力量。入狱被害，身心摧残，而坚持gm气节，保守了P的秘密。<br>目下卌五年来有这样不屈，默默到死的；转向者也有不少，何也？刑求或招安都不是投降的借口，外因是通过内因起作用的。根本还在于是像Chintanda同志一样，坚持自觉无产阶级的斗争，执行批评和自我批评，联系实际联系群众；还是死保资产阶级的世界观和路线，资产阶级名利思想、保命哲学。打击敌人的，自然不是纯之又纯的战士，会受到旧上层建筑的响，但P必须按照P的基本路线，Chair提的gm接班人5个条件不断教育人。特别是警惕和清除🌸一类个人野心家、阴谋家和两面派，才能真正团结犯了错误并认真改正的人。",
                "type": "text",
                "textLinkType": "none"
            }
        ],
        "excerptTitle": "链接 故 中委Narendra Sinh (Ashoda, Chi…",
        "contentHtml": "<div><a href=\"https://link.zhihu.com/?target=https%3A//ci-ic.org/blog/2022/01/03/cpi-maoist-red-salutes-to-member-of-the-central-committee-martyr-comrade-chintanda/\" data-icon-type=\"link\" data-original-url=\"https://ci-ic.org/blog/2022/01/03/cpi-maoist-red-salutes-to-member-of-the-central-committee-martyr-comrade-chintanda/\" class=\"external\">链接</a><br/>故 中委Narendra Sinh (Ashoda, Chintanda)同志出身中农，青年时&#34;爬宝塔&#34;进了大学。照深被奴化教育毒害的目光看，似乎是可以谋个位子，搞个人势力，美名其曰″利用合法伪装，打入等待大战″了。但他并不愿作这样的&#34;合法进步学者&#34;，而走上了当局所谓&#34;城里的纳萨巴里巩布分子&#34;道路。从P外的劳工结团的″单干户″，到终于找到了P。从反击袭扰农校的土匪，到参加游击战争。在宣教等战线为捍卫P的路线贡献了力量。入狱被害，身心摧残，而坚持gm气节，保守了P的秘密。<br/>目下卌五年来有这样不屈，默默到死的；转向者也有不少，何也？刑求或招安都不是投降的借口，外因是通过内因起作用的。根本还在于是像Chintanda同志一样，坚持自觉无产阶级的斗争，执行批评和自我批评，联系实际联系群众；还是死保资产阶级的世界观和路线，资产阶级名利思想、保命哲学。打击敌人的，自然不是纯之又纯的战士，会受到旧上层建筑的响，但P必须按照P的基本路线，Chair提的gm接班人5个条件不断教育人。特别是警惕和清除🌸一类个人野心家、阴谋家和两面派，才能真正团结犯了错误并认真改正的人。</div>",
        "virtuals": {
            "isLiked": false,
            "isFavorited": false,
            "reactionType": "like"
        },
        "reactionRelation": {
            "like": 0,
            "vote": 0
        },
        "topReactions": {
            "like": 30
        },
        "comments": [],
        "author": "gong-ge-cheng-52",
        "likers": [],
        "tags": [],
        "tagSpecials": {},
        "topics": null,
        "questions": null,
        "reactionInstruction": {},
        "regulateInfo": {
            "isRegulating": false
        },
        "longThreshold": [
            {
                "width": 1,
                "height": 3
            },
            {
                "width": 3,
                "height": 1
            }
        ]
    },
    "1461762907637325827": {
        "id": "1461762907637325827",
        "type": "pin",
        "state": "normal",
        "url": "https://www.zhihu.com/pin/1461762907637325827",
        "viewPermission": "all",
        "sourcePinId": 0,
        "created": 1641291435,
        "updated": 1641291435,
        "isDeleted": false,
        "selfCreate": false,
        "commentPermission": "all",
        "canTop": false,
        "isTop": false,
        "isAdminCloseRepin": false,
        "adminClosedComment": false,
        "meetReactionGuideConditions": false,
        "likeCount": 0,
        "commentCount": 0,
        "repinCount": 0,
        "reactionCount": 15,
        "favoriteCount": 0,
        "pageViewCount": null,
        "content": [
            {
                "content": "列宁《再论工会、目前局势及托洛茨基和布哈林的错误》第五节《政治和经济。辩证法和折衷主义》节段:<br>        现在重新提出这样初步的、属于起码常识的问题，当然是很奇怪的。但遗憾的是，托洛茨基和布哈林迫使我们不得不这样做。他们两人责难我，说我把问题“偷换”了，或者说我是“从政治上”看问题，而他们是“从经济上”看问题的。布哈林甚至把这点放进他的提纲里，并且企图把自己说成“凌驾于”争论双方“之上”。他说：我正在把双方统一起来。<br>        这种理论错误令人吃惊。我在自己的发言里曾经重复说过，政治是经济的集中表现，因为我在以前就听到过这种对我“从政治上”看问题的非难，听到过这种非常荒谬的、完全不应当由一个马克思主义者讲出来的话。政治同经济相比不能不占首位。不肯定这一点，就是忘记了马克思主义的最起码的常识。<br>        我的政治估计可能不正确。如果是这样，就请指出并且加以证明。可是，如果说（或者只是间接地表达了这种思想）从政治上看问题和“从经济上”看问题有同等的价值，“二者”都可以采用，这就是忘记了马克思主义的最起码的常识。<br>        换句话说，从政治上看问题，意思就是说：如果对待工会的态度不正确，就会使苏维埃政权灭亡，使无产阶级专政灭亡（在俄国这样的农民国家里，如果由于党的错误而造成党和工会的分裂，那就会使苏维埃政权遭到灭亡）。可以（而且应当）从本质上来检查这种考虑，就是说，来分析、研究、判断这样看问题究竟对不对。而如果说：我“尊重”你从政治上看问题的态度，“但是”，这只是从政治上看问题，而我们“还”需要“从经济上”看问题，这就等于说：我“尊重”你所说的采取这种步骤就是自取灭亡这种见解，但是，也请您权衡一下，是否丰衣足食要比饥寒交迫好些。<br>        布哈林宣传把从政治上看问题和从经济上看问题结合起来，这样就在理论上堕落到折衷主义立场上去了。<br>        托洛茨基和布哈林把事情说成这样：我们所关心的是提高生产，而你们所关心的只是形式上的民主。这样说是不对的，因为全部问题就在于（从马克思主义的观点来看，也只能在于）：一个阶级如果不从政治上正确地处理问题，就不能维持它的统治，因而也就不能完解决它的生产任务。",
                "foldType": "raw",
                "ownText": "列宁《再论工会、目前局势及托洛茨基和布哈林的错误》第五节《政治和经济。辩证法和折衷主义》节段:<br>        现在重新提出这样初步的、属于起码常识的问题，当然是很奇怪的。但遗憾的是，托洛茨基和布哈林迫使我们不得不这样做。他们两人责难我，说我把问题“偷换”了，或者说我是“从政治上”看问题，而他们是“从经济上”看问题的。布哈林甚至把这点放进他的提纲里，并且企图把自己说成“凌驾于”争论双方“之上”。他说：我正在把双方统一起来。<br>        这种理论错误令人吃惊。我在自己的发言里曾经重复说过，政治是经济的集中表现，因为我在以前就听到过这种对我“从政治上”看问题的非难，听到过这种非常荒谬的、完全不应当由一个马克思主义者讲出来的话。政治同经济相比不能不占首位。不肯定这一点，就是忘记了马克思主义的最起码的常识。<br>        我的政治估计可能不正确。如果是这样，就请指出并且加以证明。可是，如果说（或者只是间接地表达了这种思想）从政治上看问题和“从经济上”看问题有同等的价值，“二者”都可以采用，这就是忘记了马克思主义的最起码的常识。<br>        换句话说，从政治上看问题，意思就是说：如果对待工会的态度不正确，就会使苏维埃政权灭亡，使无产阶级专政灭亡（在俄国这样的农民国家里，如果由于党的错误而造成党和工会的分裂，那就会使苏维埃政权遭到灭亡）。可以（而且应当）从本质上来检查这种考虑，就是说，来分析、研究、判断这样看问题究竟对不对。而如果说：我“尊重”你从政治上看问题的态度，“但是”，这只是从政治上看问题，而我们“还”需要“从经济上”看问题，这就等于说：我“尊重”你所说的采取这种步骤就是自取灭亡这种见解，但是，也请您权衡一下，是否丰衣足食要比饥寒交迫好些。<br>        布哈林宣传把从政治上看问题和从经济上看问题结合起来，这样就在理论上堕落到折衷主义立场上去了。<br>        托洛茨基和布哈林把事情说成这样：我们所关心的是提高生产，而你们所关心的只是形式上的民主。这样说是不对的，因为全部问题就在于（从马克思主义的观点来看，也只能在于）：一个阶级如果不从政治上正确地处理问题，就不能维持它的统治，因而也就不能完解决它的生产任务。",
                "type": "text",
                "textLinkType": "none"
            }
        ],
        "excerptTitle": "列宁《再论工会、目前局势及托洛茨基和布…",
        "contentHtml": "<div>列宁《再论工会、目前局势及托洛茨基和布哈林的错误》第五节《政治和经济。辩证法和折衷主义》节段:<br/>        现在重新提出这样初步的、属于起码常识的问题，当然是很奇怪的。但遗憾的是，托洛茨基和布哈林迫使我们不得不这样做。他们两人责难我，说我把问题“偷换”了，或者说我是“从政治上”看问题，而他们是“从经济上”看问题的。布哈林甚至把这点放进他的提纲里，并且企图把自己说成“凌驾于”争论双方“之上”。他说：我正在把双方统一起来。<br/>        这种理论错误令人吃惊。我在自己的发言里曾经重复说过，政治是经济的集中表现，因为我在以前就听到过这种对我“从政治上”看问题的非难，听到过这种非常荒谬的、完全不应当由一个马克思主义者讲出来的话。政治同经济相比不能不占首位。不肯定这一点，就是忘记了马克思主义的最起码的常识。<br/>        我的政治估计可能不正确。如果是这样，就请指出并且加以证明。可是，如果说（或者只是间接地表达了这种思想）从政治上看问题和“从经济上”看问题有同等的价值，“二者”都可以采用，这就是忘记了马克思主义的最起码的常识。<br/>        换句话说，从政治上看问题，意思就是说：如果对待工会的态度不正确，就会使苏维埃政权灭亡，使无产阶级专政灭亡（在俄国这样的农民国家里，如果由于党的错误而造成党和工会的分裂，那就会使苏维埃政权遭到灭亡）。可以（而且应当）从本质上来检查这种考虑，就是说，来分析、研究、判断这样看问题究竟对不对。而如果说：我“尊重”你从政治上看问题的态度，“但是”，这只是从政治上看问题，而我们“还”需要“从经济上”看问题，这就等于说：我“尊重”你所说的采取这种步骤就是自取灭亡这种见解，但是，也请您权衡一下，是否丰衣足食要比饥寒交迫好些。<br/>        布哈林宣传把从政治上看问题和从经济上看问题结合起来，这样就在理论上堕落到折衷主义立场上去了。<br/>        托洛茨基和布哈林把事情说成这样：我们所关心的是提高生产，而你们所关心的只是形式上的民主。这样说是不对的，因为全部问题就在于（从马克思主义的观点来看，也只能在于）：一个阶级如果不从政治上正确地处理问题，就不能维持它的统治，因而也就不能完解决它的生产任务。</div>",
        "virtuals": {
            "isLiked": false,
            "isFavorited": false,
            "reactionType": "like"
        },
        "reactionRelation": {
            "like": 0,
            "vote": 0
        },
        "topReactions": {
            "like": 15
        },
        "comments": [],
        "author": "gong-ge-cheng-52",
        "likers": [],
        "tags": [],
        "tagSpecials": {},
        "topics": null,
        "questions": null,
        "reactionInstruction": {},
        "regulateInfo": {
            "isRegulating": false
        },
        "longThreshold": [
            {
                "width": 1,
                "height": 3
            },
            {
                "width": 3,
                "height": 1
            }
        ]
    },
    "1459861067685466112": {
        "id": "1459861067685466112",
        "type": "pin",
        "state": "normal",
        "url": "https://www.zhihu.com/pin/1459861067685466112",
        "viewPermission": "all",
        "sourcePinId": 0,
        "created": 1640838001,
        "updated": 1640838001,
        "isDeleted": false,
        "selfCreate": false,
        "commentPermission": "all",
        "canTop": false,
        "isTop": false,
        "isAdminCloseRepin": false,
        "adminClosedComment": false,
        "meetReactionGuideConditions": false,
        "likeCount": 0,
        "commentCount": 2,
        "repinCount": 0,
        "reactionCount": 18,
        "favoriteCount": 0,
        "pageViewCount": null,
        "content": [
            {
                "content": "P内资一书germinalbooks。wordpress。com译本完成度高(可惜利用的是比较早、没有加注的底本，少了几段文字)。对ChairM著作引文似不是直接套用PekingReview的成句，而是有重译(如&#34;管理也是社教&#34;在massline。org\\PekingReview\\PR1976\\PR1976-27。pdf第六页《在斗争中建设P》译作Management itself is a matter of socialist education)。<br>可能是过于重视译文的&#34;自然&#34;，对原文一些细节处理有瑕疵。如第一章，列宁&#34;没有来得及【在实际上】解决这些问题。&#34;译为&#34;was unable to solve these issues.&#34;，这就缩小了列宁理论上解决这个问题的创见的意义，也体现不了P内资问题上斯大林有错误，但实践上是多迈了一步。列宁分析主要是着手一般P内外资的产生，但对某些具体的集团、司令部，没有斯大林那样完成的分析与斗争。斯大林实践上解决一大批P内资集团问题，但认识不完全，有外因论、形而上学。后来有改进，承认经济基础和上层建筑矛盾，看到P内资分子的不断产生，提出过渡的一系列重大问题，但没有形成无专下继革的理论就去世了。对19代态度，也就是对苏联无专实践的态度，是一块试金石。",
                "foldType": "raw",
                "ownText": "P内资一书germinalbooks。wordpress。com译本完成度高(可惜利用的是比较早、没有加注的底本，少了几段文字)。对ChairM著作引文似不是直接套用PekingReview的成句，而是有重译(如&#34;管理也是社教&#34;在massline。org\\PekingReview\\PR1976\\PR1976-27。pdf第六页《在斗争中建设P》译作Management itself is a matter of socialist education)。<br>可能是过于重视译文的&#34;自然&#34;，对原文一些细节处理有瑕疵。如第一章，列宁&#34;没有来得及【在实际上】解决这些问题。&#34;译为&#34;was unable to solve these issues.&#34;，这就缩小了列宁理论上解决这个问题的创见的意义，也体现不了P内资问题上斯大林有错误，但实践上是多迈了一步。列宁分析主要是着手一般P内外资的产生，但对某些具体的集团、司令部，没有斯大林那样完成的分析与斗争。斯大林实践上解决一大批P内资集团问题，但认识不完全，有外因论、形而上学。后来有改进，承认经济基础和上层建筑矛盾，看到P内资分子的不断产生，提出过渡的一系列重大问题，但没有形成无专下继革的理论就去世了。对19代态度，也就是对苏联无专实践的态度，是一块试金石。",
                "type": "text",
                "textLinkType": "none"
            }
        ],
        "excerptTitle": "P内资一书germinalbooks",
        "contentHtml": "<div>P内资一书germinalbooks。wordpress。com译本完成度高(可惜利用的是比较早、没有加注的底本，少了几段文字)。对ChairM著作引文似不是直接套用PekingReview的成句，而是有重译(如&#34;管理也是社教&#34;在massline。org\\PekingReview\\PR1976\\PR1976-27。pdf第六页《在斗争中建设P》译作Management itself is a matter of socialist education)。<br/>可能是过于重视译文的&#34;自然&#34;，对原文一些细节处理有瑕疵。如第一章，列宁&#34;没有来得及【在实际上】解决这些问题。&#34;译为&#34;was unable to solve these issues.&#34;，这就缩小了列宁理论上解决这个问题的创见的意义，也体现不了P内资问题上斯大林有错误，但实践上是多迈了一步。列宁分析主要是着手一般P内外资的产生，但对某些具体的集团、司令部，没有斯大林那样完成的分析与斗争。斯大林实践上解决一大批P内资集团问题，但认识不完全，有外因论、形而上学。后来有改进，承认经济基础和上层建筑矛盾，看到P内资分子的不断产生，提出过渡的一系列重大问题，但没有形成无专下继革的理论就去世了。对19代态度，也就是对苏联无专实践的态度，是一块试金石。</div>",
        "virtuals": {
            "isLiked": false,
            "isFavorited": false
        },
        "reactionRelation": {
            "like": 0,
            "vote": 0
        },
        "topReactions": {
            "like": 18
        },
        "comments": [],
        "author": "gong-ge-cheng-52",
        "likers": [],
        "tags": [],
        "tagSpecials": {},
        "topics": null,
        "questions": null,
        "reactionInstruction": {},
        "regulateInfo": {
            "isRegulating": false
        },
        "longThreshold": [
            {
                "width": 1,
                "height": 3
            },
            {
                "width": 3,
                "height": 1
            }
        ]
    },
    "1459452617704964096": {
        "id": "1459452617704964096",
        "type": "pin",
        "state": "normal",
        "url": "https://www.zhihu.com/pin/1459452617704964096",
        "viewPermission": "all",
        "sourcePinId": 1459438420979978200,
        "created": 1640740619,
        "updated": 1640740619,
        "isDeleted": false,
        "selfCreate": false,
        "commentPermission": "all",
        "canTop": false,
        "isTop": false,
        "isAdminCloseRepin": false,
        "adminClosedComment": false,
        "meetReactionGuideConditions": false,
        "likeCount": 0,
        "commentCount": 0,
        "repinCount": 0,
        "reactionCount": 8,
        "favoriteCount": 0,
        "pageViewCount": null,
        "content": [
            {
                "content": "",
                "foldType": "raw",
                "ownText": "",
                "type": "text",
                "textLinkType": "none"
            }
        ],
        "excerptTitle": "[转发内容]",
        "contentHtml": "<div></div>",
        "virtuals": {
            "isLiked": false,
            "isFavorited": false
        },
        "reactionRelation": {
            "like": 0,
            "vote": 0
        },
        "topReactions": {
            "like": 8
        },
        "comments": [],
        "author": "gong-ge-cheng-52",
        "likers": [],
        "tags": [],
        "tagSpecials": {},
        "topics": null,
        "questions": null,
        "originPin": {
            "id": "1459438420979978240",
            "type": "pin",
            "state": "normal",
            "url": "https://www.zhihu.com/pin/1459438420979978240",
            "viewPermission": "all",
            "sourcePinId": 0,
            "created": 1640737234,
            "updated": 1640737234,
            "isDeleted": false,
            "selfCreate": false,
            "commentPermission": "all",
            "canTop": false,
            "isTop": false,
            "isAdminCloseRepin": false,
            "adminClosedComment": false,
            "meetReactionGuideConditions": false,
            "likeCount": 0,
            "commentCount": 1,
            "repinCount": 1,
            "reactionCount": 12,
            "favoriteCount": 0,
            "pageViewCount": null,
            "content": [
                {
                    "content": "菲律宾民族民主阵线谴责菲律宾陆军在尼格罗斯西部省的假遭遇中谋杀新人民军领导人<br>巴亚尼·奥布雷罗|发言人| 民族民主阵线-尼格罗斯岛地区|菲律宾民族民主阵线<br>2021年12月28日<br>新闻稿<br>民族民主阵线（NDF）——尼格罗斯抨击菲律宾军队第94步兵营（94IB）对弗洛雷塔“卡·凯利”塞巴洛斯实施残酷酷刑，然后“打捞”她和她的同伴威尔弗雷多·富恩特斯，去年12月14日，军方在西尼格罗斯省的希马伊兰市腹地，宣布这两人是军队和新人民军（NPA）在一次假遭遇中的伤亡。<br>据民族民主阵线-尼格罗斯发言人卡·巴亚尼·奥布雷罗（Ka Bayani Obrero）称，他们收到报告称，Ceballos的尸体颈部有创伤，胸部有刺伤，手臂有裂伤。富恩特斯的遗体也显示出遭受酷刑的迹象。<br>奥布雷罗说，卡·凯利和富恩特斯去年12月9日在前往卡班卡兰市的途中被94IB分子绑架。据估计，他们是在下午4点左右被捕的，这是她的同志们最后一次与她联系。<br>“她被一个嗜血无情的敌人控制了三五天，”奥布雷罗说，“我们无法想象她因伤口而遭受的折磨。”<br>民族民主阵线发言人补充说，卡·凯利是一名负责任的党干部，尽管面临风险和困难，她在执行革命任务时始终勇敢无畏。<br>“在敌人的审问下，她连一英寸都不会动，”奥布雷罗说。<br>他补充说，卡·凯利因捍卫农民的耕作权，反对专制地主，帮助南尼格罗斯的家庭和人权侵犯和法外处决受害者寻求正义，并成功地扩大了对革命运动的支持，甚至达到了尼格罗斯上层阶级，而赢得了敌人的愤怒。<br>奥布雷罗证实，卡凯利是农民领袖亚历山大·塞巴洛斯（Alexander Ceballos）的妹妹，这是杜特尔特政权在内格罗斯岛发生的一百多起法外处决案件中的第一起。<br>退出战斗<br>与此同时，在早些时候的一份声明中，新人民军尼格罗斯岛阿波利纳里奥·加特迈坦司令部（AGC-NPA）发言人卡·胡安尼托·马格巴努阿谴责94IB在抓获卡·凯利时虐待卡·凯利，违反了国际人道主义法。<br>马格巴努阿说：“卡·凯利无论如何都没有战斗能力，她应该有权获得对她的生命、尊严、人权、政治信仰以及道德和身体完整的尊重。她应该得到人道的对待。”。<br>AGC-NPA指出佛罗里达“Ka Kely”CEBARBUS是2021年内尼格罗斯中的第十个革命者，去年3月24日在吉林南干市与Ka Jekjek和Ka JK一起违反了战斗的权利，去年4月17日在希诺巴安的Ka Michael和Ka肯肯，去年8月20日在西莱市的Ka Ella，Ka Monet，Ka Brod。Ka Huawei和Ka Simo去年9月30日在马纳普拉。<br>参考：<br><br>卡·巴亚尼·奥布雷罗<br><br>NDF黑人发言人<br><br>卡·胡安尼托·马格巴努阿<br><br>AGC-NPA发言人",
                    "foldType": "raw",
                    "ownText": "菲律宾民族民主阵线谴责菲律宾陆军在尼格罗斯西部省的假遭遇中谋杀新人民军领导人<br>巴亚尼·奥布雷罗|发言人| 民族民主阵线-尼格罗斯岛地区|菲律宾民族民主阵线<br>2021年12月28日<br>新闻稿<br>民族民主阵线（NDF）——尼格罗斯抨击菲律宾军队第94步兵营（94IB）对弗洛雷塔“卡·凯利”塞巴洛斯实施残酷酷刑，然后“打捞”她和她的同伴威尔弗雷多·富恩特斯，去年12月14日，军方在西尼格罗斯省的希马伊兰市腹地，宣布这两人是军队和新人民军（NPA）在一次假遭遇中的伤亡。<br>据民族民主阵线-尼格罗斯发言人卡·巴亚尼·奥布雷罗（Ka Bayani Obrero）称，他们收到报告称，Ceballos的尸体颈部有创伤，胸部有刺伤，手臂有裂伤。富恩特斯的遗体也显示出遭受酷刑的迹象。<br>奥布雷罗说，卡·凯利和富恩特斯去年12月9日在前往卡班卡兰市的途中被94IB分子绑架。据估计，他们是在下午4点左右被捕的，这是她的同志们最后一次与她联系。<br>“她被一个嗜血无情的敌人控制了三五天，”奥布雷罗说，“我们无法想象她因伤口而遭受的折磨。”<br>民族民主阵线发言人补充说，卡·凯利是一名负责任的党干部，尽管面临风险和困难，她在执行革命任务时始终勇敢无畏。<br>“在敌人的审问下，她连一英寸都不会动，”奥布雷罗说。<br>他补充说，卡·凯利因捍卫农民的耕作权，反对专制地主，帮助南尼格罗斯的家庭和人权侵犯和法外处决受害者寻求正义，并成功地扩大了对革命运动的支持，甚至达到了尼格罗斯上层阶级，而赢得了敌人的愤怒。<br>奥布雷罗证实，卡凯利是农民领袖亚历山大·塞巴洛斯（Alexander Ceballos）的妹妹，这是杜特尔特政权在内格罗斯岛发生的一百多起法外处决案件中的第一起。<br>退出战斗<br>与此同时，在早些时候的一份声明中，新人民军尼格罗斯岛阿波利纳里奥·加特迈坦司令部（AGC-NPA）发言人卡·胡安尼托·马格巴努阿谴责94IB在抓获卡·凯利时虐待卡·凯利，违反了国际人道主义法。<br>马格巴努阿说：“卡·凯利无论如何都没有战斗能力，她应该有权获得对她的生命、尊严、人权、政治信仰以及道德和身体完整的尊重。她应该得到人道的对待。”。<br>AGC-NPA指出佛罗里达“Ka Kely”CEBARBUS是2021年内尼格罗斯中的第十个革命者，去年3月24日在吉林南干市与Ka Jekjek和Ka JK一起违反了战斗的权利，去年4月17日在希诺巴安的Ka Michael和Ka肯肯，去年8月20日在西莱市的Ka Ella，Ka Monet，Ka Brod。Ka Huawei和Ka Simo去年9月30日在马纳普拉。<br>参考：<br><br>卡·巴亚尼·奥布雷罗<br><br>NDF黑人发言人<br><br>卡·胡安尼托·马格巴努阿<br><br>AGC-NPA发言人",
                    "type": "text",
                    "textLinkType": "none"
                }
            ],
            "excerptTitle": "菲律宾民族民主阵线谴责菲律宾陆军在尼格…",
            "contentHtml": "<div>菲律宾民族民主阵线谴责菲律宾陆军在尼格罗斯西部省的假遭遇中谋杀新人民军领导人<br/>巴亚尼·奥布雷罗|发言人| 民族民主阵线-尼格罗斯岛地区|菲律宾民族民主阵线<br/>2021年12月28日<br/>新闻稿<br/>民族民主阵线（NDF）——尼格罗斯抨击菲律宾军队第94步兵营（94IB）对弗洛雷塔“卡·凯利”塞巴洛斯实施残酷酷刑，然后“打捞”她和她的同伴威尔弗雷多·富恩特斯，去年12月14日，军方在西尼格罗斯省的希马伊兰市腹地，宣布这两人是军队和新人民军（NPA）在一次假遭遇中的伤亡。<br/>据民族民主阵线-尼格罗斯发言人卡·巴亚尼·奥布雷罗（Ka Bayani Obrero）称，他们收到报告称，Ceballos的尸体颈部有创伤，胸部有刺伤，手臂有裂伤。富恩特斯的遗体也显示出遭受酷刑的迹象。<br/>奥布雷罗说，卡·凯利和富恩特斯去年12月9日在前往卡班卡兰市的途中被94IB分子绑架。据估计，他们是在下午4点左右被捕的，这是她的同志们最后一次与她联系。<br/>“她被一个嗜血无情的敌人控制了三五天，”奥布雷罗说，“我们无法想象她因伤口而遭受的折磨。”<br/>民族民主阵线发言人补充说，卡·凯利是一名负责任的党干部，尽管面临风险和困难，她在执行革命任务时始终勇敢无畏。<br/>“在敌人的审问下，她连一英寸都不会动，”奥布雷罗说。<br/>他补充说，卡·凯利因捍卫农民的耕作权，反对专制地主，帮助南尼格罗斯的家庭和人权侵犯和法外处决受害者寻求正义，并成功地扩大了对革命运动的支持，甚至达到了尼格罗斯上层阶级，而赢得了敌人的愤怒。<br/>奥布雷罗证实，卡凯利是农民领袖亚历山大·塞巴洛斯（Alexander Ceballos）的妹妹，这是杜特尔特政权在内格罗斯岛发生的一百多起法外处决案件中的第一起。<br/>退出战斗<br/>与此同时，在早些时候的一份声明中，新人民军尼格罗斯岛阿波利纳里奥·加特迈坦司令部（AGC-NPA）发言人卡·胡安尼托·马格巴努阿谴责94IB在抓获卡·凯利时虐待卡·凯利，违反了国际人道主义法。<br/>马格巴努阿说：“卡·凯利无论如何都没有战斗能力，她应该有权获得对她的生命、尊严、人权、政治信仰以及道德和身体完整的尊重。她应该得到人道的对待。”。<br/>AGC-NPA指出佛罗里达“Ka Kely”CEBARBUS是2021年内尼格罗斯中的第十个革命者，去年3月24日在吉林南干市与Ka Jekjek和Ka JK一起违反了战斗的权利，去年4月17日在希诺巴安的Ka Michael和Ka肯肯，去年8月20日在西莱市的Ka Ella，Ka Monet，Ka Brod。Ka Huawei和Ka Simo去年9月30日在马纳普拉。<br/>参考：<br/><br/>卡·巴亚尼·奥布雷罗<br/><br/>NDF黑人发言人<br/><br/>卡·胡安尼托·马格巴努阿<br/><br/>AGC-NPA发言人</div>",
            "virtuals": {
                "isLiked": false,
                "isFavorited": false
            },
            "reactionRelation": {
                "like": 0,
                "vote": 0
            },
            "topReactions": {
                "like": 12
            },
            "comments": [],
            "author": {
                "id": "72147e624979197a1ad677b7a9881379",
                "name": "弗雷德的鹦鹉",
                "avatarUrl": "https://pic1.zhimg.com/50/v2-c5ecee528da790a8dc9a3b3acbb11f4c_l.jpg",
                "gender": 1,
                "type": "people",
                "headline": "安托西修皆可鲨。",
                "urlToken": "xiaruiyun",
                "userType": "people",
                "url": "/people/72147e624979197a1ad677b7a9881379",
                "vipInfo": {
                    "isVip": false
                },
                "exposedMedal": {
                    "medalId": "972460827463282688",
                    "medalName": "表示赞同",
                    "description": "赞同 500 次",
                    "miniAvatarUrl": "https://pica.zhimg.com/50/v2-d050b2185655859b5ed374a569b68632_b.jpg",
                    "avatarUrl": "https://pica.zhimg.com/50/v2-d050b2185655859b5ed374a569b68632_b.jpg",
                    "medalAvatarFrame": ""
                },
                "isOrg": false,
                "isAdvertiser": false,
                "isFollowing": false,
                "isFollowed": false,
                "isBlocking": false,
                "isBlocked": true,
                "badgeV2": {
                    "detailBadges": null,
                    "mergedBadges": [],
                    "title": ""
                },
                "reactionCount": 0,
                "followerCount": 2113
            },
            "likers": [],
            "tags": [],
            "tagSpecials": {},
            "topics": null,
            "questions": null,
            "reactionInstruction": {},
            "regulateInfo": {
                "isRegulating": true,
                "reason": "抱歉，引用的原内容不存在"
            },
            "longThreshold": [
                {
                    "width": 1,
                    "height": 3
                },
                {
                    "width": 3,
                    "height": 1
                }
            ]
        },
        "repin": {
            "id": "1459438420979978240",
            "type": "pin",
            "state": "normal",
            "url": "https://www.zhihu.com/pin/1459438420979978240",
            "viewPermission": "all",
            "sourcePinId": 0,
            "created": 1640737234,
            "updated": 1640737234,
            "isDeleted": false,
            "selfCreate": false,
            "commentPermission": "all",
            "canTop": false,
            "isTop": false,
            "isAdminCloseRepin": false,
            "adminClosedComment": false,
            "meetReactionGuideConditions": false,
            "likeCount": 0,
            "commentCount": 1,
            "repinCount": 1,
            "reactionCount": 12,
            "favoriteCount": 0,
            "pageViewCount": null,
            "content": [
                {
                    "content": "菲律宾民族民主阵线谴责菲律宾陆军在尼格罗斯西部省的假遭遇中谋杀新人民军领导人<br>巴亚尼·奥布雷罗|发言人| 民族民主阵线-尼格罗斯岛地区|菲律宾民族民主阵线<br>2021年12月28日<br>新闻稿<br>民族民主阵线（NDF）——尼格罗斯抨击菲律宾军队第94步兵营（94IB）对弗洛雷塔“卡·凯利”塞巴洛斯实施残酷酷刑，然后“打捞”她和她的同伴威尔弗雷多·富恩特斯，去年12月14日，军方在西尼格罗斯省的希马伊兰市腹地，宣布这两人是军队和新人民军（NPA）在一次假遭遇中的伤亡。<br>据民族民主阵线-尼格罗斯发言人卡·巴亚尼·奥布雷罗（Ka Bayani Obrero）称，他们收到报告称，Ceballos的尸体颈部有创伤，胸部有刺伤，手臂有裂伤。富恩特斯的遗体也显示出遭受酷刑的迹象。<br>奥布雷罗说，卡·凯利和富恩特斯去年12月9日在前往卡班卡兰市的途中被94IB分子绑架。据估计，他们是在下午4点左右被捕的，这是她的同志们最后一次与她联系。<br>“她被一个嗜血无情的敌人控制了三五天，”奥布雷罗说，“我们无法想象她因伤口而遭受的折磨。”<br>民族民主阵线发言人补充说，卡·凯利是一名负责任的党干部，尽管面临风险和困难，她在执行革命任务时始终勇敢无畏。<br>“在敌人的审问下，她连一英寸都不会动，”奥布雷罗说。<br>他补充说，卡·凯利因捍卫农民的耕作权，反对专制地主，帮助南尼格罗斯的家庭和人权侵犯和法外处决受害者寻求正义，并成功地扩大了对革命运动的支持，甚至达到了尼格罗斯上层阶级，而赢得了敌人的愤怒。<br>奥布雷罗证实，卡凯利是农民领袖亚历山大·塞巴洛斯（Alexander Ceballos）的妹妹，这是杜特尔特政权在内格罗斯岛发生的一百多起法外处决案件中的第一起。<br>退出战斗<br>与此同时，在早些时候的一份声明中，新人民军尼格罗斯岛阿波利纳里奥·加特迈坦司令部（AGC-NPA）发言人卡·胡安尼托·马格巴努阿谴责94IB在抓获卡·凯利时虐待卡·凯利，违反了国际人道主义法。<br>马格巴努阿说：“卡·凯利无论如何都没有战斗能力，她应该有权获得对她的生命、尊严、人权、政治信仰以及道德和身体完整的尊重。她应该得到人道的对待。”。<br>AGC-NPA指出佛罗里达“Ka Kely”CEBARBUS是2021年内尼格罗斯中的第十个革命者，去年3月24日在吉林南干市与Ka Jekjek和Ka JK一起违反了战斗的权利，去年4月17日在希诺巴安的Ka Michael和Ka肯肯，去年8月20日在西莱市的Ka Ella，Ka Monet，Ka Brod。Ka Huawei和Ka Simo去年9月30日在马纳普拉。<br>参考：<br><br>卡·巴亚尼·奥布雷罗<br><br>NDF黑人发言人<br><br>卡·胡安尼托·马格巴努阿<br><br>AGC-NPA发言人",
                    "foldType": "raw",
                    "ownText": "菲律宾民族民主阵线谴责菲律宾陆军在尼格罗斯西部省的假遭遇中谋杀新人民军领导人<br>巴亚尼·奥布雷罗|发言人| 民族民主阵线-尼格罗斯岛地区|菲律宾民族民主阵线<br>2021年12月28日<br>新闻稿<br>民族民主阵线（NDF）——尼格罗斯抨击菲律宾军队第94步兵营（94IB）对弗洛雷塔“卡·凯利”塞巴洛斯实施残酷酷刑，然后“打捞”她和她的同伴威尔弗雷多·富恩特斯，去年12月14日，军方在西尼格罗斯省的希马伊兰市腹地，宣布这两人是军队和新人民军（NPA）在一次假遭遇中的伤亡。<br>据民族民主阵线-尼格罗斯发言人卡·巴亚尼·奥布雷罗（Ka Bayani Obrero）称，他们收到报告称，Ceballos的尸体颈部有创伤，胸部有刺伤，手臂有裂伤。富恩特斯的遗体也显示出遭受酷刑的迹象。<br>奥布雷罗说，卡·凯利和富恩特斯去年12月9日在前往卡班卡兰市的途中被94IB分子绑架。据估计，他们是在下午4点左右被捕的，这是她的同志们最后一次与她联系。<br>“她被一个嗜血无情的敌人控制了三五天，”奥布雷罗说，“我们无法想象她因伤口而遭受的折磨。”<br>民族民主阵线发言人补充说，卡·凯利是一名负责任的党干部，尽管面临风险和困难，她在执行革命任务时始终勇敢无畏。<br>“在敌人的审问下，她连一英寸都不会动，”奥布雷罗说。<br>他补充说，卡·凯利因捍卫农民的耕作权，反对专制地主，帮助南尼格罗斯的家庭和人权侵犯和法外处决受害者寻求正义，并成功地扩大了对革命运动的支持，甚至达到了尼格罗斯上层阶级，而赢得了敌人的愤怒。<br>奥布雷罗证实，卡凯利是农民领袖亚历山大·塞巴洛斯（Alexander Ceballos）的妹妹，这是杜特尔特政权在内格罗斯岛发生的一百多起法外处决案件中的第一起。<br>退出战斗<br>与此同时，在早些时候的一份声明中，新人民军尼格罗斯岛阿波利纳里奥·加特迈坦司令部（AGC-NPA）发言人卡·胡安尼托·马格巴努阿谴责94IB在抓获卡·凯利时虐待卡·凯利，违反了国际人道主义法。<br>马格巴努阿说：“卡·凯利无论如何都没有战斗能力，她应该有权获得对她的生命、尊严、人权、政治信仰以及道德和身体完整的尊重。她应该得到人道的对待。”。<br>AGC-NPA指出佛罗里达“Ka Kely”CEBARBUS是2021年内尼格罗斯中的第十个革命者，去年3月24日在吉林南干市与Ka Jekjek和Ka JK一起违反了战斗的权利，去年4月17日在希诺巴安的Ka Michael和Ka肯肯，去年8月20日在西莱市的Ka Ella，Ka Monet，Ka Brod。Ka Huawei和Ka Simo去年9月30日在马纳普拉。<br>参考：<br><br>卡·巴亚尼·奥布雷罗<br><br>NDF黑人发言人<br><br>卡·胡安尼托·马格巴努阿<br><br>AGC-NPA发言人",
                    "type": "text",
                    "textLinkType": "none"
                }
            ],
            "excerptTitle": "菲律宾民族民主阵线谴责菲律宾陆军在尼格…",
            "contentHtml": "<div>菲律宾民族民主阵线谴责菲律宾陆军在尼格罗斯西部省的假遭遇中谋杀新人民军领导人<br/>巴亚尼·奥布雷罗|发言人| 民族民主阵线-尼格罗斯岛地区|菲律宾民族民主阵线<br/>2021年12月28日<br/>新闻稿<br/>民族民主阵线（NDF）——尼格罗斯抨击菲律宾军队第94步兵营（94IB）对弗洛雷塔“卡·凯利”塞巴洛斯实施残酷酷刑，然后“打捞”她和她的同伴威尔弗雷多·富恩特斯，去年12月14日，军方在西尼格罗斯省的希马伊兰市腹地，宣布这两人是军队和新人民军（NPA）在一次假遭遇中的伤亡。<br/>据民族民主阵线-尼格罗斯发言人卡·巴亚尼·奥布雷罗（Ka Bayani Obrero）称，他们收到报告称，Ceballos的尸体颈部有创伤，胸部有刺伤，手臂有裂伤。富恩特斯的遗体也显示出遭受酷刑的迹象。<br/>奥布雷罗说，卡·凯利和富恩特斯去年12月9日在前往卡班卡兰市的途中被94IB分子绑架。据估计，他们是在下午4点左右被捕的，这是她的同志们最后一次与她联系。<br/>“她被一个嗜血无情的敌人控制了三五天，”奥布雷罗说，“我们无法想象她因伤口而遭受的折磨。”<br/>民族民主阵线发言人补充说，卡·凯利是一名负责任的党干部，尽管面临风险和困难，她在执行革命任务时始终勇敢无畏。<br/>“在敌人的审问下，她连一英寸都不会动，”奥布雷罗说。<br/>他补充说，卡·凯利因捍卫农民的耕作权，反对专制地主，帮助南尼格罗斯的家庭和人权侵犯和法外处决受害者寻求正义，并成功地扩大了对革命运动的支持，甚至达到了尼格罗斯上层阶级，而赢得了敌人的愤怒。<br/>奥布雷罗证实，卡凯利是农民领袖亚历山大·塞巴洛斯（Alexander Ceballos）的妹妹，这是杜特尔特政权在内格罗斯岛发生的一百多起法外处决案件中的第一起。<br/>退出战斗<br/>与此同时，在早些时候的一份声明中，新人民军尼格罗斯岛阿波利纳里奥·加特迈坦司令部（AGC-NPA）发言人卡·胡安尼托·马格巴努阿谴责94IB在抓获卡·凯利时虐待卡·凯利，违反了国际人道主义法。<br/>马格巴努阿说：“卡·凯利无论如何都没有战斗能力，她应该有权获得对她的生命、尊严、人权、政治信仰以及道德和身体完整的尊重。她应该得到人道的对待。”。<br/>AGC-NPA指出佛罗里达“Ka Kely”CEBARBUS是2021年内尼格罗斯中的第十个革命者，去年3月24日在吉林南干市与Ka Jekjek和Ka JK一起违反了战斗的权利，去年4月17日在希诺巴安的Ka Michael和Ka肯肯，去年8月20日在西莱市的Ka Ella，Ka Monet，Ka Brod。Ka Huawei和Ka Simo去年9月30日在马纳普拉。<br/>参考：<br/><br/>卡·巴亚尼·奥布雷罗<br/><br/>NDF黑人发言人<br/><br/>卡·胡安尼托·马格巴努阿<br/><br/>AGC-NPA发言人</div>",
            "virtuals": {
                "isLiked": false,
                "isFavorited": false
            },
            "reactionRelation": {
                "like": 0,
                "vote": 0
            },
            "topReactions": {
                "like": 12
            },
            "comments": [],
            "author": {
                "id": "72147e624979197a1ad677b7a9881379",
                "name": "弗雷德的鹦鹉",
                "avatarUrl": "https://pic1.zhimg.com/50/v2-c5ecee528da790a8dc9a3b3acbb11f4c_l.jpg",
                "gender": 1,
                "type": "people",
                "headline": "安托西修皆可鲨。",
                "urlToken": "xiaruiyun",
                "userType": "people",
                "url": "/people/72147e624979197a1ad677b7a9881379",
                "vipInfo": {
                    "isVip": false
                },
                "exposedMedal": {
                    "medalId": "972460827463282688",
                    "medalName": "表示赞同",
                    "description": "赞同 500 次",
                    "miniAvatarUrl": "https://pica.zhimg.com/50/v2-d050b2185655859b5ed374a569b68632_b.jpg",
                    "avatarUrl": "https://pica.zhimg.com/50/v2-d050b2185655859b5ed374a569b68632_b.jpg",
                    "medalAvatarFrame": ""
                },
                "isOrg": false,
                "isAdvertiser": false,
                "isFollowing": false,
                "isFollowed": false,
                "isBlocking": false,
                "isBlocked": true,
                "badgeV2": {
                    "detailBadges": null,
                    "mergedBadges": [],
                    "title": ""
                },
                "reactionCount": 0,
                "followerCount": 2113
            },
            "likers": [],
            "tags": [],
            "tagSpecials": {},
            "topics": null,
            "questions": null,
            "reactionInstruction": {},
            "regulateInfo": {
                "isRegulating": true,
                "reason": "抱歉，引用的原内容不存在"
            },
            "longThreshold": [
                {
                    "width": 1,
                    "height": 3
                },
                {
                    "width": 3,
                    "height": 1
                }
            ]
        },
        "reactionInstruction": {},
        "regulateInfo": {
            "isRegulating": false
        },
        "longThreshold": [
            {
                "width": 1,
                "height": 3
            },
            {
                "width": 3,
                "height": 1
            }
        ]
    },
    "1458500418116063232": {
        "id": "1458500418116063232",
        "type": "pin",
        "state": "normal",
        "url": "https://www.zhihu.com/pin/1458500418116063232",
        "viewPermission": "all",
        "sourcePinId": 0,
        "created": 1640513597,
        "updated": 1640513597,
        "isDeleted": false,
        "selfCreate": false,
        "commentPermission": "all",
        "canTop": false,
        "isTop": false,
        "isAdminCloseRepin": false,
        "adminClosedComment": false,
        "meetReactionGuideConditions": false,
        "likeCount": 0,
        "commentCount": 0,
        "repinCount": 0,
        "reactionCount": 46,
        "favoriteCount": 0,
        "pageViewCount": null,
        "content": [
            {
                "content": "『思想上政治上的路线正确与否是决定一切的』<br>『正确的政治的和军事的路线，不是自然地平安地产生和发展起来的，而是从斗争中产生和发展起来的』",
                "foldType": "raw",
                "ownText": "『思想上政治上的路线正确与否是决定一切的』<br>『正确的政治的和军事的路线，不是自然地平安地产生和发展起来的，而是从斗争中产生和发展起来的』",
                "type": "text",
                "textLinkType": "none"
            },
            {
                "url": "https://pica.zhimg.com/80/v2-b64b87920ee538204a4c1e4d509c0130_qhd.jpg",
                "originalUrl": "https://pica.zhimg.com/80/v2-b64b87920ee538204a4c1e4d509c0130_qhd.jpg",
                "isWatermark": false,
                "watermarkUrl": "https://pic1.zhimg.com/80/v2-31178bd9884cdddd3a81e2ffa9a20574_qhd.jpg",
                "thumbnail": "",
                "width": 2733,
                "height": 3877,
                "type": "image",
                "isGif": false,
                "isLong": false
            },
            {
                "url": "https://pic1.zhimg.com/80/v2-b8b6a6000d09d70d0e8ee22e2ad87cde_qhd.jpg",
                "originalUrl": "https://pic1.zhimg.com/80/v2-b8b6a6000d09d70d0e8ee22e2ad87cde_qhd.jpg",
                "isWatermark": false,
                "watermarkUrl": "https://pic3.zhimg.com/80/v2-49e51e94c441e4859159153755ba4030_qhd.jpg",
                "thumbnail": "",
                "width": 1602,
                "height": 2249,
                "type": "image",
                "isGif": false,
                "isLong": false
            }
        ],
        "excerptTitle": "『思想上政治上的路线正确与否是决定一切…",
        "contentHtml": "<div>『思想上政治上的路线正确与否是决定一切的』<br/>『正确的政治的和军事的路线，不是自然地平安地产生和发展起来的，而是从斗争中产生和发展起来的』</div><img src=\"https://pic1.zhimg.com/50/v2-b64b87920ee538204a4c1e4d509c0130_b.jpg\" data-rawwidth=\"2733\" data-rawheight=\"3877\" class=\"origin_image zh-lightbox-thumb\" width=\"2733\" data-original=\"https://pic1.zhimg.com/50/v2-b64b87920ee538204a4c1e4d509c0130_r.jpg\"><img src=\"https://pic3.zhimg.com/50/v2-b8b6a6000d09d70d0e8ee22e2ad87cde_b.jpg\" data-rawwidth=\"1602\" data-rawheight=\"2249\" class=\"origin_image zh-lightbox-thumb\" width=\"1602\" data-original=\"https://pic3.zhimg.com/50/v2-b8b6a6000d09d70d0e8ee22e2ad87cde_r.jpg\">",
        "virtuals": {
            "isLiked": false,
            "isFavorited": false,
            "reactionType": "like"
        },
        "reactionRelation": {
            "like": 0,
            "vote": 0
        },
        "topReactions": {
            "like": 46
        },
        "comments": [],
        "author": "gong-ge-cheng-52",
        "likers": [],
        "tags": [],
        "tagSpecials": {},
        "topics": null,
        "questions": null,
        "reactionInstruction": {},
        "regulateInfo": {
            "isRegulating": false
        },
        "longThreshold": [
            {
                "width": 1,
                "height": 3
            },
            {
                "width": 3,
                "height": 1
            }
        ]
    },
    "1456560108604370944": {
        "id": "1456560108604370944",
        "type": "pin",
        "state": "normal",
        "url": "https://www.zhihu.com/pin/1456560108604370944",
        "viewPermission": "all",
        "sourcePinId": 1456440478904868900,
        "created": 1640050991,
        "updated": 1640050991,
        "isDeleted": false,
        "selfCreate": false,
        "commentPermission": "all",
        "canTop": false,
        "isTop": false,
        "isAdminCloseRepin": false,
        "adminClosedComment": false,
        "meetReactionGuideConditions": false,
        "likeCount": 0,
        "commentCount": 0,
        "repinCount": 0,
        "reactionCount": 39,
        "favoriteCount": 0,
        "pageViewCount": null,
        "content": [
            {
                "content": "蒋帮所谓&#34;节制资本&#34;之&#34;无序扩张&#34;，目的自然是要&#34;有序扩张&#34;——在蒋匪&#34;一个国家一个政党一个领袖&#34;的&#34;领导&#34;与&#34;安排&#34;下，为此必定要对我党领导下的工农革命进行军事和文化上的围剿。",
                "foldType": "raw",
                "ownText": "蒋帮所谓&#34;节制资本&#34;之&#34;无序扩张&#34;，目的自然是要&#34;有序扩张&#34;——在蒋匪&#34;一个国家一个政党一个领袖&#34;的&#34;领导&#34;与&#34;安排&#34;下，为此必定要对我党领导下的工农革命进行军事和文化上的围剿。",
                "type": "text",
                "textLinkType": "none"
            }
        ],
        "excerptTitle": "蒋帮所谓\"节制资本\"之\"无序扩张\"，目的自…",
        "contentHtml": "<div>蒋帮所谓&#34;节制资本&#34;之&#34;无序扩张&#34;，目的自然是要&#34;有序扩张&#34;——在蒋匪&#34;一个国家一个政党一个领袖&#34;的&#34;领导&#34;与&#34;安排&#34;下，为此必定要对我党领导下的工农革命进行军事和文化上的围剿。</div>",
        "virtuals": {
            "isLiked": false,
            "isFavorited": false
        },
        "reactionRelation": {
            "like": 0,
            "vote": 0
        },
        "topReactions": {
            "like": 39
        },
        "comments": [],
        "author": "gong-ge-cheng-52",
        "likers": [],
        "tags": [],
        "tagSpecials": {},
        "topics": null,
        "questions": null,
        "originPin": {
            "id": "1456440478904868864",
            "type": "pin",
            "state": "normal",
            "url": "https://www.zhihu.com/pin/1456440478904868864",
            "viewPermission": "all",
            "sourcePinId": 0,
            "created": 1640022469,
            "updated": 1640022469,
            "isDeleted": false,
            "selfCreate": false,
            "commentPermission": "all",
            "canTop": false,
            "isTop": false,
            "isAdminCloseRepin": false,
            "adminClosedComment": false,
            "meetReactionGuideConditions": false,
            "likeCount": 0,
            "commentCount": 0,
            "repinCount": 4,
            "reactionCount": 38,
            "favoriteCount": 0,
            "pageViewCount": null,
            "content": [
                {
                    "content": "鲁迅《从盛宣怀说到有理的压迫》<br>　　盛氏的祖宗积德很厚，他们的子孙就举行了两次“收复失地”的盛典：一次还是在袁世凯的民国政府治下，一次就在当今国民政府治下了。<br>　　民元的时候，说盛宣怀是第一名的卖国贼，将他的家产没收了。不久，似乎是二次革命之后，就发还了。那是没有什么奇怪的，因为袁世凯是“物伤其类”，他自己也是卖国贼。<br>　　不是年年都在纪念五七和五九么？袁世凯签订过二十一条，卖国是有真凭实据的。<br>　　最近又在报上发见这么一段消息，大致是说：“盛氏家产早已奉命归还，如苏州之留园，江阴无锡之典当等，正在办理发还手续。”这却叫我吃了一惊。打听起来，说是民国十六年国民革命军初到沪宁的时候，又没收了一次盛氏家产：那次的罪名大概是“土豪劣绅”，绅而至于“劣”，再加上卖国的旧罪，自然又该没收了。可是为什么又发还了呢？<br>　　第一，不应当疑心现在有卖国贼，因为并无真凭实据——现在的人早就誓不签订辱国条约，他们不比盛宣怀和袁世凯。第二，现在正在募航空捐，足见政府财政并不宽裕。那末，为什么呢？<br>　　学理上研究的结果是——压迫本来有两种：一种是有理的，而且永久有理的，一种是无理的。有理的，就像逼小百姓还高利贷，交田租之类；这种压迫的“理”写在布告上：<br>　　“借债还钱本中外所同之定理，租田纳税乃千古不易之成规。”<br>　　无理的，就是没收盛宣怀的家产等等了；这种“压迫”巨绅的手法，在当时也许有理，现在早已变成无理的了。<br>　　初初看见报上登载的《五一告工友书》上说：“反抗本国资本家无理的压迫”，我也是吃了一惊的。这不是提倡阶级斗争么？后来想想也就明白了。这是说，无理的压迫要反对，有理的不在此例。至于怎样有理，看下去就懂得了，下文是说：<br>　　“必须克苦耐劳，加紧生产……尤应共体时艰，力谋劳资间之真诚合作，消弭劳资间之一切纠纷。”还有说“中国工人没有外国工人那么苦”等等的。<br>　　我心上想，幸而没有大惊小怪地叫起来，天下的事情总是有道理的，一切压迫也是如此。何况对付盛宣怀等的理由虽然很少，而对付工人总不会没有的。<br>　　五月六日。",
                    "foldType": "raw",
                    "ownText": "鲁迅《从盛宣怀说到有理的压迫》<br>　　盛氏的祖宗积德很厚，他们的子孙就举行了两次“收复失地”的盛典：一次还是在袁世凯的民国政府治下，一次就在当今国民政府治下了。<br>　　民元的时候，说盛宣怀是第一名的卖国贼，将他的家产没收了。不久，似乎是二次革命之后，就发还了。那是没有什么奇怪的，因为袁世凯是“物伤其类”，他自己也是卖国贼。<br>　　不是年年都在纪念五七和五九么？袁世凯签订过二十一条，卖国是有真凭实据的。<br>　　最近又在报上发见这么一段消息，大致是说：“盛氏家产早已奉命归还，如苏州之留园，江阴无锡之典当等，正在办理发还手续。”这却叫我吃了一惊。打听起来，说是民国十六年国民革命军初到沪宁的时候，又没收了一次盛氏家产：那次的罪名大概是“土豪劣绅”，绅而至于“劣”，再加上卖国的旧罪，自然又该没收了。可是为什么又发还了呢？<br>　　第一，不应当疑心现在有卖国贼，因为并无真凭实据——现在的人早就誓不签订辱国条约，他们不比盛宣怀和袁世凯。第二，现在正在募航空捐，足见政府财政并不宽裕。那末，为什么呢？<br>　　学理上研究的结果是——压迫本来有两种：一种是有理的，而且永久有理的，一种是无理的。有理的，就像逼小百姓还高利贷，交田租之类；这种压迫的“理”写在布告上：<br>　　“借债还钱本中外所同之定理，租田纳税乃千古不易之成规。”<br>　　无理的，就是没收盛宣怀的家产等等了；这种“压迫”巨绅的手法，在当时也许有理，现在早已变成无理的了。<br>　　初初看见报上登载的《五一告工友书》上说：“反抗本国资本家无理的压迫”，我也是吃了一惊的。这不是提倡阶级斗争么？后来想想也就明白了。这是说，无理的压迫要反对，有理的不在此例。至于怎样有理，看下去就懂得了，下文是说：<br>　　“必须克苦耐劳，加紧生产……尤应共体时艰，力谋劳资间之真诚合作，消弭劳资间之一切纠纷。”还有说“中国工人没有外国工人那么苦”等等的。<br>　　我心上想，幸而没有大惊小怪地叫起来，天下的事情总是有道理的，一切压迫也是如此。何况对付盛宣怀等的理由虽然很少，而对付工人总不会没有的。<br>　　五月六日。",
                    "type": "text",
                    "textLinkType": "none"
                }
            ],
            "excerptTitle": "鲁迅《从盛宣怀说到有理的压迫》 盛氏的…",
            "contentHtml": "<div>鲁迅《从盛宣怀说到有理的压迫》<br/>　　盛氏的祖宗积德很厚，他们的子孙就举行了两次“收复失地”的盛典：一次还是在袁世凯的民国政府治下，一次就在当今国民政府治下了。<br/>　　民元的时候，说盛宣怀是第一名的卖国贼，将他的家产没收了。不久，似乎是二次革命之后，就发还了。那是没有什么奇怪的，因为袁世凯是“物伤其类”，他自己也是卖国贼。<br/>　　不是年年都在纪念五七和五九么？袁世凯签订过二十一条，卖国是有真凭实据的。<br/>　　最近又在报上发见这么一段消息，大致是说：“盛氏家产早已奉命归还，如苏州之留园，江阴无锡之典当等，正在办理发还手续。”这却叫我吃了一惊。打听起来，说是民国十六年国民革命军初到沪宁的时候，又没收了一次盛氏家产：那次的罪名大概是“土豪劣绅”，绅而至于“劣”，再加上卖国的旧罪，自然又该没收了。可是为什么又发还了呢？<br/>　　第一，不应当疑心现在有卖国贼，因为并无真凭实据——现在的人早就誓不签订辱国条约，他们不比盛宣怀和袁世凯。第二，现在正在募航空捐，足见政府财政并不宽裕。那末，为什么呢？<br/>　　学理上研究的结果是——压迫本来有两种：一种是有理的，而且永久有理的，一种是无理的。有理的，就像逼小百姓还高利贷，交田租之类；这种压迫的“理”写在布告上：<br/>　　“借债还钱本中外所同之定理，租田纳税乃千古不易之成规。”<br/>　　无理的，就是没收盛宣怀的家产等等了；这种“压迫”巨绅的手法，在当时也许有理，现在早已变成无理的了。<br/>　　初初看见报上登载的《五一告工友书》上说：“反抗本国资本家无理的压迫”，我也是吃了一惊的。这不是提倡阶级斗争么？后来想想也就明白了。这是说，无理的压迫要反对，有理的不在此例。至于怎样有理，看下去就懂得了，下文是说：<br/>　　“必须克苦耐劳，加紧生产……尤应共体时艰，力谋劳资间之真诚合作，消弭劳资间之一切纠纷。”还有说“中国工人没有外国工人那么苦”等等的。<br/>　　我心上想，幸而没有大惊小怪地叫起来，天下的事情总是有道理的，一切压迫也是如此。何况对付盛宣怀等的理由虽然很少，而对付工人总不会没有的。<br/>　　五月六日。</div>",
            "virtuals": {
                "isLiked": false,
                "isFavorited": false
            },
            "reactionRelation": {
                "like": 0,
                "vote": 0
            },
            "topReactions": {
                "like": 38
            },
            "comments": [],
            "author": {
                "id": "9153a8432830007569bb6715585cdb1b",
                "name": "龚格晟",
                "avatarUrl": "https://picx.zhimg.com/50/v2-dd6ca6351985316ea857e2e6d2db1347_l.jpg",
                "gender": 1,
                "type": "people",
                "headline": "MЛㄇ。有事缠身",
                "urlToken": "gong-ge-cheng-52",
                "userType": "people",
                "url": "/people/9153a8432830007569bb6715585cdb1b",
                "vipInfo": {
                    "isVip": false
                },
                "exposedMedal": {
                    "medalId": "972477022068568064",
                    "medalName": "备受瞩目",
                    "description": "被 1000 个人关注",
                    "miniAvatarUrl": "https://pic2.zhimg.com/50/v2-6da117205088242db9cd82e48b28640d_b.jpg",
                    "avatarUrl": "https://pic2.zhimg.com/50/v2-6da117205088242db9cd82e48b28640d_b.jpg",
                    "medalAvatarFrame": ""
                },
                "isOrg": false,
                "isAdvertiser": false,
                "isFollowing": true,
                "isFollowed": true,
                "isBlocking": false,
                "isBlocked": false,
                "badgeV2": {
                    "detailBadges": null,
                    "mergedBadges": [],
                    "title": ""
                },
                "reactionCount": 0,
                "followerCount": 2930
            },
            "likers": [],
            "tags": [],
            "tagSpecials": {},
            "topics": null,
            "questions": null,
            "reactionInstruction": {},
            "regulateInfo": {
                "isRegulating": false
            },
            "longThreshold": [
                {
                    "width": 1,
                    "height": 3
                },
                {
                    "width": 3,
                    "height": 1
                }
            ]
        },
        "repin": {
            "id": "1456440478904868864",
            "type": "pin",
            "state": "normal",
            "url": "https://www.zhihu.com/pin/1456440478904868864",
            "viewPermission": "all",
            "sourcePinId": 0,
            "created": 1640022469,
            "updated": 1640022469,
            "isDeleted": false,
            "selfCreate": false,
            "commentPermission": "all",
            "canTop": false,
            "isTop": false,
            "isAdminCloseRepin": false,
            "adminClosedComment": false,
            "meetReactionGuideConditions": false,
            "likeCount": 0,
            "commentCount": 0,
            "repinCount": 4,
            "reactionCount": 38,
            "favoriteCount": 0,
            "pageViewCount": null,
            "content": [
                {
                    "content": "鲁迅《从盛宣怀说到有理的压迫》<br>　　盛氏的祖宗积德很厚，他们的子孙就举行了两次“收复失地”的盛典：一次还是在袁世凯的民国政府治下，一次就在当今国民政府治下了。<br>　　民元的时候，说盛宣怀是第一名的卖国贼，将他的家产没收了。不久，似乎是二次革命之后，就发还了。那是没有什么奇怪的，因为袁世凯是“物伤其类”，他自己也是卖国贼。<br>　　不是年年都在纪念五七和五九么？袁世凯签订过二十一条，卖国是有真凭实据的。<br>　　最近又在报上发见这么一段消息，大致是说：“盛氏家产早已奉命归还，如苏州之留园，江阴无锡之典当等，正在办理发还手续。”这却叫我吃了一惊。打听起来，说是民国十六年国民革命军初到沪宁的时候，又没收了一次盛氏家产：那次的罪名大概是“土豪劣绅”，绅而至于“劣”，再加上卖国的旧罪，自然又该没收了。可是为什么又发还了呢？<br>　　第一，不应当疑心现在有卖国贼，因为并无真凭实据——现在的人早就誓不签订辱国条约，他们不比盛宣怀和袁世凯。第二，现在正在募航空捐，足见政府财政并不宽裕。那末，为什么呢？<br>　　学理上研究的结果是——压迫本来有两种：一种是有理的，而且永久有理的，一种是无理的。有理的，就像逼小百姓还高利贷，交田租之类；这种压迫的“理”写在布告上：<br>　　“借债还钱本中外所同之定理，租田纳税乃千古不易之成规。”<br>　　无理的，就是没收盛宣怀的家产等等了；这种“压迫”巨绅的手法，在当时也许有理，现在早已变成无理的了。<br>　　初初看见报上登载的《五一告工友书》上说：“反抗本国资本家无理的压迫”，我也是吃了一惊的。这不是提倡阶级斗争么？后来想想也就明白了。这是说，无理的压迫要反对，有理的不在此例。至于怎样有理，看下去就懂得了，下文是说：<br>　　“必须克苦耐劳，加紧生产……尤应共体时艰，力谋劳资间之真诚合作，消弭劳资间之一切纠纷。”还有说“中国工人没有外国工人那么苦”等等的。<br>　　我心上想，幸而没有大惊小怪地叫起来，天下的事情总是有道理的，一切压迫也是如此。何况对付盛宣怀等的理由虽然很少，而对付工人总不会没有的。<br>　　五月六日。",
                    "foldType": "raw",
                    "ownText": "鲁迅《从盛宣怀说到有理的压迫》<br>　　盛氏的祖宗积德很厚，他们的子孙就举行了两次“收复失地”的盛典：一次还是在袁世凯的民国政府治下，一次就在当今国民政府治下了。<br>　　民元的时候，说盛宣怀是第一名的卖国贼，将他的家产没收了。不久，似乎是二次革命之后，就发还了。那是没有什么奇怪的，因为袁世凯是“物伤其类”，他自己也是卖国贼。<br>　　不是年年都在纪念五七和五九么？袁世凯签订过二十一条，卖国是有真凭实据的。<br>　　最近又在报上发见这么一段消息，大致是说：“盛氏家产早已奉命归还，如苏州之留园，江阴无锡之典当等，正在办理发还手续。”这却叫我吃了一惊。打听起来，说是民国十六年国民革命军初到沪宁的时候，又没收了一次盛氏家产：那次的罪名大概是“土豪劣绅”，绅而至于“劣”，再加上卖国的旧罪，自然又该没收了。可是为什么又发还了呢？<br>　　第一，不应当疑心现在有卖国贼，因为并无真凭实据——现在的人早就誓不签订辱国条约，他们不比盛宣怀和袁世凯。第二，现在正在募航空捐，足见政府财政并不宽裕。那末，为什么呢？<br>　　学理上研究的结果是——压迫本来有两种：一种是有理的，而且永久有理的，一种是无理的。有理的，就像逼小百姓还高利贷，交田租之类；这种压迫的“理”写在布告上：<br>　　“借债还钱本中外所同之定理，租田纳税乃千古不易之成规。”<br>　　无理的，就是没收盛宣怀的家产等等了；这种“压迫”巨绅的手法，在当时也许有理，现在早已变成无理的了。<br>　　初初看见报上登载的《五一告工友书》上说：“反抗本国资本家无理的压迫”，我也是吃了一惊的。这不是提倡阶级斗争么？后来想想也就明白了。这是说，无理的压迫要反对，有理的不在此例。至于怎样有理，看下去就懂得了，下文是说：<br>　　“必须克苦耐劳，加紧生产……尤应共体时艰，力谋劳资间之真诚合作，消弭劳资间之一切纠纷。”还有说“中国工人没有外国工人那么苦”等等的。<br>　　我心上想，幸而没有大惊小怪地叫起来，天下的事情总是有道理的，一切压迫也是如此。何况对付盛宣怀等的理由虽然很少，而对付工人总不会没有的。<br>　　五月六日。",
                    "type": "text",
                    "textLinkType": "none"
                }
            ],
            "excerptTitle": "鲁迅《从盛宣怀说到有理的压迫》 盛氏的…",
            "contentHtml": "<div>鲁迅《从盛宣怀说到有理的压迫》<br/>　　盛氏的祖宗积德很厚，他们的子孙就举行了两次“收复失地”的盛典：一次还是在袁世凯的民国政府治下，一次就在当今国民政府治下了。<br/>　　民元的时候，说盛宣怀是第一名的卖国贼，将他的家产没收了。不久，似乎是二次革命之后，就发还了。那是没有什么奇怪的，因为袁世凯是“物伤其类”，他自己也是卖国贼。<br/>　　不是年年都在纪念五七和五九么？袁世凯签订过二十一条，卖国是有真凭实据的。<br/>　　最近又在报上发见这么一段消息，大致是说：“盛氏家产早已奉命归还，如苏州之留园，江阴无锡之典当等，正在办理发还手续。”这却叫我吃了一惊。打听起来，说是民国十六年国民革命军初到沪宁的时候，又没收了一次盛氏家产：那次的罪名大概是“土豪劣绅”，绅而至于“劣”，再加上卖国的旧罪，自然又该没收了。可是为什么又发还了呢？<br/>　　第一，不应当疑心现在有卖国贼，因为并无真凭实据——现在的人早就誓不签订辱国条约，他们不比盛宣怀和袁世凯。第二，现在正在募航空捐，足见政府财政并不宽裕。那末，为什么呢？<br/>　　学理上研究的结果是——压迫本来有两种：一种是有理的，而且永久有理的，一种是无理的。有理的，就像逼小百姓还高利贷，交田租之类；这种压迫的“理”写在布告上：<br/>　　“借债还钱本中外所同之定理，租田纳税乃千古不易之成规。”<br/>　　无理的，就是没收盛宣怀的家产等等了；这种“压迫”巨绅的手法，在当时也许有理，现在早已变成无理的了。<br/>　　初初看见报上登载的《五一告工友书》上说：“反抗本国资本家无理的压迫”，我也是吃了一惊的。这不是提倡阶级斗争么？后来想想也就明白了。这是说，无理的压迫要反对，有理的不在此例。至于怎样有理，看下去就懂得了，下文是说：<br/>　　“必须克苦耐劳，加紧生产……尤应共体时艰，力谋劳资间之真诚合作，消弭劳资间之一切纠纷。”还有说“中国工人没有外国工人那么苦”等等的。<br/>　　我心上想，幸而没有大惊小怪地叫起来，天下的事情总是有道理的，一切压迫也是如此。何况对付盛宣怀等的理由虽然很少，而对付工人总不会没有的。<br/>　　五月六日。</div>",
            "virtuals": {
                "isLiked": false,
                "isFavorited": false
            },
            "reactionRelation": {
                "like": 0,
                "vote": 0
            },
            "topReactions": {
                "like": 38
            },
            "comments": [],
            "author": {
                "id": "9153a8432830007569bb6715585cdb1b",
                "name": "龚格晟",
                "avatarUrl": "https://picx.zhimg.com/50/v2-dd6ca6351985316ea857e2e6d2db1347_l.jpg",
                "gender": 1,
                "type": "people",
                "headline": "MЛㄇ。有事缠身",
                "urlToken": "gong-ge-cheng-52",
                "userType": "people",
                "url": "/people/9153a8432830007569bb6715585cdb1b",
                "vipInfo": {
                    "isVip": false
                },
                "exposedMedal": {
                    "medalId": "972477022068568064",
                    "medalName": "备受瞩目",
                    "description": "被 1000 个人关注",
                    "miniAvatarUrl": "https://pic2.zhimg.com/50/v2-6da117205088242db9cd82e48b28640d_b.jpg",
                    "avatarUrl": "https://pic2.zhimg.com/50/v2-6da117205088242db9cd82e48b28640d_b.jpg",
                    "medalAvatarFrame": ""
                },
                "isOrg": false,
                "isAdvertiser": false,
                "isFollowing": true,
                "isFollowed": true,
                "isBlocking": false,
                "isBlocked": false,
                "badgeV2": {
                    "detailBadges": null,
                    "mergedBadges": [],
                    "title": ""
                },
                "reactionCount": 0,
                "followerCount": 2930
            },
            "likers": [],
            "tags": [],
            "tagSpecials": {},
            "topics": null,
            "questions": null,
            "reactionInstruction": {},
            "regulateInfo": {
                "isRegulating": false
            },
            "longThreshold": [
                {
                    "width": 1,
                    "height": 3
                },
                {
                    "width": 3,
                    "height": 1
                }
            ]
        },
        "reactionInstruction": {},
        "regulateInfo": {
            "isRegulating": false
        },
        "longThreshold": [
            {
                "width": 1,
                "height": 3
            },
            {
                "width": 3,
                "height": 1
            }
        ]
    },
    "1456440478904868864": {
        "id": "1456440478904868864",
        "type": "pin",
        "state": "normal",
        "url": "https://www.zhihu.com/pin/1456440478904868864",
        "viewPermission": "all",
        "sourcePinId": 0,
        "created": 1640022469,
        "updated": 1640022469,
        "isDeleted": false,
        "selfCreate": false,
        "commentPermission": "all",
        "canTop": false,
        "isTop": false,
        "isAdminCloseRepin": false,
        "adminClosedComment": false,
        "meetReactionGuideConditions": false,
        "likeCount": 0,
        "commentCount": 0,
        "repinCount": 4,
        "reactionCount": 38,
        "favoriteCount": 0,
        "pageViewCount": null,
        "content": [
            {
                "content": "鲁迅《从盛宣怀说到有理的压迫》<br>　　盛氏的祖宗积德很厚，他们的子孙就举行了两次“收复失地”的盛典：一次还是在袁世凯的民国政府治下，一次就在当今国民政府治下了。<br>　　民元的时候，说盛宣怀是第一名的卖国贼，将他的家产没收了。不久，似乎是二次革命之后，就发还了。那是没有什么奇怪的，因为袁世凯是“物伤其类”，他自己也是卖国贼。<br>　　不是年年都在纪念五七和五九么？袁世凯签订过二十一条，卖国是有真凭实据的。<br>　　最近又在报上发见这么一段消息，大致是说：“盛氏家产早已奉命归还，如苏州之留园，江阴无锡之典当等，正在办理发还手续。”这却叫我吃了一惊。打听起来，说是民国十六年国民革命军初到沪宁的时候，又没收了一次盛氏家产：那次的罪名大概是“土豪劣绅”，绅而至于“劣”，再加上卖国的旧罪，自然又该没收了。可是为什么又发还了呢？<br>　　第一，不应当疑心现在有卖国贼，因为并无真凭实据——现在的人早就誓不签订辱国条约，他们不比盛宣怀和袁世凯。第二，现在正在募航空捐，足见政府财政并不宽裕。那末，为什么呢？<br>　　学理上研究的结果是——压迫本来有两种：一种是有理的，而且永久有理的，一种是无理的。有理的，就像逼小百姓还高利贷，交田租之类；这种压迫的“理”写在布告上：<br>　　“借债还钱本中外所同之定理，租田纳税乃千古不易之成规。”<br>　　无理的，就是没收盛宣怀的家产等等了；这种“压迫”巨绅的手法，在当时也许有理，现在早已变成无理的了。<br>　　初初看见报上登载的《五一告工友书》上说：“反抗本国资本家无理的压迫”，我也是吃了一惊的。这不是提倡阶级斗争么？后来想想也就明白了。这是说，无理的压迫要反对，有理的不在此例。至于怎样有理，看下去就懂得了，下文是说：<br>　　“必须克苦耐劳，加紧生产……尤应共体时艰，力谋劳资间之真诚合作，消弭劳资间之一切纠纷。”还有说“中国工人没有外国工人那么苦”等等的。<br>　　我心上想，幸而没有大惊小怪地叫起来，天下的事情总是有道理的，一切压迫也是如此。何况对付盛宣怀等的理由虽然很少，而对付工人总不会没有的。<br>　　五月六日。",
                "foldType": "raw",
                "ownText": "鲁迅《从盛宣怀说到有理的压迫》<br>　　盛氏的祖宗积德很厚，他们的子孙就举行了两次“收复失地”的盛典：一次还是在袁世凯的民国政府治下，一次就在当今国民政府治下了。<br>　　民元的时候，说盛宣怀是第一名的卖国贼，将他的家产没收了。不久，似乎是二次革命之后，就发还了。那是没有什么奇怪的，因为袁世凯是“物伤其类”，他自己也是卖国贼。<br>　　不是年年都在纪念五七和五九么？袁世凯签订过二十一条，卖国是有真凭实据的。<br>　　最近又在报上发见这么一段消息，大致是说：“盛氏家产早已奉命归还，如苏州之留园，江阴无锡之典当等，正在办理发还手续。”这却叫我吃了一惊。打听起来，说是民国十六年国民革命军初到沪宁的时候，又没收了一次盛氏家产：那次的罪名大概是“土豪劣绅”，绅而至于“劣”，再加上卖国的旧罪，自然又该没收了。可是为什么又发还了呢？<br>　　第一，不应当疑心现在有卖国贼，因为并无真凭实据——现在的人早就誓不签订辱国条约，他们不比盛宣怀和袁世凯。第二，现在正在募航空捐，足见政府财政并不宽裕。那末，为什么呢？<br>　　学理上研究的结果是——压迫本来有两种：一种是有理的，而且永久有理的，一种是无理的。有理的，就像逼小百姓还高利贷，交田租之类；这种压迫的“理”写在布告上：<br>　　“借债还钱本中外所同之定理，租田纳税乃千古不易之成规。”<br>　　无理的，就是没收盛宣怀的家产等等了；这种“压迫”巨绅的手法，在当时也许有理，现在早已变成无理的了。<br>　　初初看见报上登载的《五一告工友书》上说：“反抗本国资本家无理的压迫”，我也是吃了一惊的。这不是提倡阶级斗争么？后来想想也就明白了。这是说，无理的压迫要反对，有理的不在此例。至于怎样有理，看下去就懂得了，下文是说：<br>　　“必须克苦耐劳，加紧生产……尤应共体时艰，力谋劳资间之真诚合作，消弭劳资间之一切纠纷。”还有说“中国工人没有外国工人那么苦”等等的。<br>　　我心上想，幸而没有大惊小怪地叫起来，天下的事情总是有道理的，一切压迫也是如此。何况对付盛宣怀等的理由虽然很少，而对付工人总不会没有的。<br>　　五月六日。",
                "type": "text",
                "textLinkType": "none"
            }
        ],
        "excerptTitle": "鲁迅《从盛宣怀说到有理的压迫》 盛氏的…",
        "contentHtml": "<div>鲁迅《从盛宣怀说到有理的压迫》<br/>　　盛氏的祖宗积德很厚，他们的子孙就举行了两次“收复失地”的盛典：一次还是在袁世凯的民国政府治下，一次就在当今国民政府治下了。<br/>　　民元的时候，说盛宣怀是第一名的卖国贼，将他的家产没收了。不久，似乎是二次革命之后，就发还了。那是没有什么奇怪的，因为袁世凯是“物伤其类”，他自己也是卖国贼。<br/>　　不是年年都在纪念五七和五九么？袁世凯签订过二十一条，卖国是有真凭实据的。<br/>　　最近又在报上发见这么一段消息，大致是说：“盛氏家产早已奉命归还，如苏州之留园，江阴无锡之典当等，正在办理发还手续。”这却叫我吃了一惊。打听起来，说是民国十六年国民革命军初到沪宁的时候，又没收了一次盛氏家产：那次的罪名大概是“土豪劣绅”，绅而至于“劣”，再加上卖国的旧罪，自然又该没收了。可是为什么又发还了呢？<br/>　　第一，不应当疑心现在有卖国贼，因为并无真凭实据——现在的人早就誓不签订辱国条约，他们不比盛宣怀和袁世凯。第二，现在正在募航空捐，足见政府财政并不宽裕。那末，为什么呢？<br/>　　学理上研究的结果是——压迫本来有两种：一种是有理的，而且永久有理的，一种是无理的。有理的，就像逼小百姓还高利贷，交田租之类；这种压迫的“理”写在布告上：<br/>　　“借债还钱本中外所同之定理，租田纳税乃千古不易之成规。”<br/>　　无理的，就是没收盛宣怀的家产等等了；这种“压迫”巨绅的手法，在当时也许有理，现在早已变成无理的了。<br/>　　初初看见报上登载的《五一告工友书》上说：“反抗本国资本家无理的压迫”，我也是吃了一惊的。这不是提倡阶级斗争么？后来想想也就明白了。这是说，无理的压迫要反对，有理的不在此例。至于怎样有理，看下去就懂得了，下文是说：<br/>　　“必须克苦耐劳，加紧生产……尤应共体时艰，力谋劳资间之真诚合作，消弭劳资间之一切纠纷。”还有说“中国工人没有外国工人那么苦”等等的。<br/>　　我心上想，幸而没有大惊小怪地叫起来，天下的事情总是有道理的，一切压迫也是如此。何况对付盛宣怀等的理由虽然很少，而对付工人总不会没有的。<br/>　　五月六日。</div>",
        "virtuals": {
            "isLiked": false,
            "isFavorited": false
        },
        "reactionRelation": {
            "like": 0,
            "vote": 0
        },
        "topReactions": {
            "like": 38
        },
        "comments": [],
        "author": "gong-ge-cheng-52",
        "likers": [],
        "tags": [],
        "tagSpecials": {},
        "topics": null,
        "questions": null,
        "reactionInstruction": {},
        "regulateInfo": {
            "isRegulating": false
        },
        "longThreshold": [
            {
                "width": 1,
                "height": 3
            },
            {
                "width": 3,
                "height": 1
            }
        ]
    },
    "1455947701456707584": {
        "id": "1455947701456707584",
        "type": "pin",
        "state": "normal",
        "url": "https://www.zhihu.com/pin/1455947701456707584",
        "viewPermission": "all",
        "sourcePinId": 0,
        "created": 1639904982,
        "updated": 1639904982,
        "isDeleted": false,
        "selfCreate": false,
        "commentPermission": "all",
        "canTop": false,
        "isTop": false,
        "isAdminCloseRepin": false,
        "adminClosedComment": false,
        "meetReactionGuideConditions": false,
        "likeCount": 0,
        "commentCount": 0,
        "repinCount": 0,
        "reactionCount": 31,
        "favoriteCount": 0,
        "pageViewCount": null,
        "content": [
            {
                "content": "抽像肯定，具体否定。先是持中空论，火力准备；进而话烽一转，炮火延伸；终于图穷匕见，修论冲击了。欲破之，则必有预备队，进行反冲击。CR中也是常常这样做的。",
                "foldType": "raw",
                "ownText": "抽像肯定，具体否定。先是持中空论，火力准备；进而话烽一转，炮火延伸；终于图穷匕见，修论冲击了。欲破之，则必有预备队，进行反冲击。CR中也是常常这样做的。",
                "type": "text",
                "textLinkType": "none"
            }
        ],
        "excerptTitle": "抽像肯定，具体否定",
        "contentHtml": "<div>抽像肯定，具体否定。先是持中空论，火力准备；进而话烽一转，炮火延伸；终于图穷匕见，修论冲击了。欲破之，则必有预备队，进行反冲击。CR中也是常常这样做的。</div>",
        "virtuals": {
            "isLiked": false,
            "isFavorited": false,
            "reactionType": "like"
        },
        "reactionRelation": {
            "like": 0,
            "vote": 0
        },
        "topReactions": {
            "like": 31
        },
        "comments": [],
        "author": "gong-ge-cheng-52",
        "likers": [],
        "tags": [],
        "tagSpecials": {},
        "topics": null,
        "questions": null,
        "reactionInstruction": {},
        "regulateInfo": {
            "isRegulating": false
        },
        "longThreshold": [
            {
                "width": 1,
                "height": 3
            },
            {
                "width": 3,
                "height": 1
            }
        ]
    },
    "1455938431838371840": {
        "id": "1455938431838371840",
        "type": "pin",
        "state": "normal",
        "url": "https://www.zhihu.com/pin/1455938431838371840",
        "viewPermission": "all",
        "sourcePinId": 0,
        "created": 1639902772,
        "updated": 1639902772,
        "isDeleted": false,
        "selfCreate": false,
        "commentPermission": "all",
        "canTop": false,
        "isTop": false,
        "isAdminCloseRepin": false,
        "adminClosedComment": false,
        "meetReactionGuideConditions": false,
        "likeCount": 0,
        "commentCount": 5,
        "repinCount": 0,
        "reactionCount": 21,
        "favoriteCount": 0,
        "pageViewCount": null,
        "content": [
            {
                "content": "延安投米论者推销铁托=ChairM的那一套事大论，结果只是让人给&#34;溶供限供&#34;为配属。一面攻击工农非灋的武斗形式为&#34;巩布&#34;，一面主张&#34;迎外以安内&#34;&#34;内即外也固无可攘&#34;。则半殖附属的弗若求招安、受赐铳、打方腊；帝义的不妨用帕(尔乌斯)戒M(LM)，入伙起势，作改良土豪，而否定变帝战为国内革战。虽西松犹不为也。",
                "foldType": "raw",
                "ownText": "延安投米论者推销铁托=ChairM的那一套事大论，结果只是让人给&#34;溶供限供&#34;为配属。一面攻击工农非灋的武斗形式为&#34;巩布&#34;，一面主张&#34;迎外以安内&#34;&#34;内即外也固无可攘&#34;。则半殖附属的弗若求招安、受赐铳、打方腊；帝义的不妨用帕(尔乌斯)戒M(LM)，入伙起势，作改良土豪，而否定变帝战为国内革战。虽西松犹不为也。",
                "type": "text",
                "textLinkType": "none"
            },
            {
                "subtype": "文章",
                "token": "405358051",
                "imageHeight": 1140,
                "imageUrl": "https://pic1.zhimg.com/50/v2-6a23e6fbebabcc3dbbbfb2b0ba4f990c_bh.jpg",
                "title": "胡乱闯：略谈土耳其毛派运动近年与取消主义的斗争",
                "url": "https://zhuanlan.zhihu.com/p/405358051?utm_source=zhihu&utm_medium=social&utm_oi=892758127458549760",
                "type": "link",
                "imageWidth": 818,
                "linkType": "zhihu",
                "card": "{\"card_type\":\"card_1\",\"display\":{\"title\":\"略谈土耳其毛派运动近年与取消主义的斗争\",\"card_open_url\":\"https://zhuanlan.zhihu.com/p/405358051\",\"desc\":\"199 赞同 · 33 评论 \\u003ca class=\\\"tag type_a\\\"\\u003e文章\\u003c/a\\u003e\",\"content\":\"\\u003ca class=\\\"text normal/bold\\\" data-color=\\\"#444444\\\" data-night-color=\\\"#D3D3D3\\\"\\u003e胡乱闯:\\u003c/a\\u003e 最近，知乎上出现了对土耳其毛派运动的介绍。这本来是一件好事，然而许多不正确的内容也开始流传。比方说，某些文章公开说什么： 不过，在两派中捧一踩一，甚至断言一个是“伪党”，什么“对抗性矛盾”云云，在笔者看来，也是十分可笑的。Nubar Ozanyan在分…\",\"image\":{\"image_url\":\"https://pic1.zhimg.com/v2-6a23e6fbebabcc3dbbbfb2b0ba4f990c_r.jpg?source=172ae18b\",\"ratio\":1,\"is_video\":false},\"bg_type\":\"dark\"},\"source\":{\"content_type\":\"ARTICLE\",\"content_id\":\"405358051\"},\"za_data\":{\"attach_info\":\"\"}}"
            }
        ],
        "excerptTitle": "延安投米论者推销铁托=ChairM的那一套事…",
        "contentHtml": "<div>延安投米论者推销铁托=ChairM的那一套事大论，结果只是让人给&#34;溶供限供&#34;为配属。一面攻击工农非灋的武斗形式为&#34;巩布&#34;，一面主张&#34;迎外以安内&#34;&#34;内即外也固无可攘&#34;。则半殖附属的弗若求招安、受赐铳、打方腊；帝义的不妨用帕(尔乌斯)戒M(LM)，入伙起势，作改良土豪，而否定变帝战为国内革战。虽西松犹不为也。</div><a href=\"https://zhuanlan.zhihu.com/p/405358051?utm_source=zhihu&utm_medium=social&utm_oi=892758127458549760\" class=\"link-box\" target=\"_blank\">\n  <img src=\"https://pic1.zhimg.com/50/v2-6a23e6fbebabcc3dbbbfb2b0ba4f990c_bh.jpg\" class=\"thumbnail\">\n  <span class=\"content\">\n    <span class=\"title\">胡乱闯：略谈土耳其毛派运动近年与取消主义的斗争</span>\n    <span class=\"url\">zhuanlan.zhihu.com</span>\n  </span>\n</a>\n        ",
        "virtuals": {
            "isLiked": false,
            "isFavorited": false
        },
        "reactionRelation": {
            "like": 0,
            "vote": 0
        },
        "topReactions": {
            "like": 21
        },
        "comments": [],
        "author": "gong-ge-cheng-52",
        "likers": [],
        "tags": [],
        "tagSpecials": {},
        "topics": null,
        "questions": null,
        "reactionInstruction": {},
        "regulateInfo": {
            "isRegulating": false
        },
        "longThreshold": [
            {
                "width": 1,
                "height": 3
            },
            {
                "width": 3,
                "height": 1
            }
        ]
    }
}