{
    "1482275591538188288": {
        "id": "1482275591538188288",
        "type": "pin",
        "state": "normal",
        "url": "https://www.zhihu.com/pin/1482275591538188288",
        "viewPermission": "all",
        "sourcePinId": 1482270896001400800,
        "created": 1646182040,
        "updated": 1646182040,
        "isDeleted": false,
        "selfCreate": false,
        "commentPermission": "all",
        "canTop": false,
        "isTop": false,
        "isAdminCloseRepin": false,
        "adminClosedComment": false,
        "meetReactionGuideConditions": false,
        "likeCount": 0,
        "commentCount": 0,
        "repinCount": 0,
        "reactionCount": 14,
        "favoriteCount": 0,
        "pageViewCount": null,
        "content": [
            {
                "content": "忧有不忍言之事。和平方式必须有另手补充",
                "foldType": "raw",
                "ownText": "忧有不忍言之事。和平方式必须有另手补充",
                "type": "text",
                "textLinkType": "none"
            }
        ],
        "excerptTitle": "忧有不忍言之事",
        "contentHtml": "<div>忧有不忍言之事。和平方式必须有另手补充</div>",
        "virtuals": {
            "isLiked": false,
            "isFavorited": false
        },
        "reactionRelation": {
            "like": 0,
            "vote": 0
        },
        "topReactions": {
            "like": 14
        },
        "comments": [],
        "author": "gong-ge-cheng-52",
        "likers": [],
        "tags": [],
        "tagSpecials": {},
        "topics": null,
        "questions": null,
        "originPin": {
            "id": "1482270896001400832",
            "type": "pin",
            "state": "normal",
            "url": "https://www.zhihu.com/pin/1482270896001400832",
            "viewPermission": "all",
            "sourcePinId": 0,
            "created": 1646180920,
            "updated": 1646180920,
            "isDeleted": false,
            "selfCreate": false,
            "commentPermission": "all",
            "canTop": false,
            "isTop": false,
            "isAdminCloseRepin": false,
            "adminClosedComment": false,
            "meetReactionGuideConditions": false,
            "likeCount": 0,
            "commentCount": 6,
            "repinCount": 1,
            "reactionCount": 37,
            "favoriteCount": 0,
            "pageViewCount": null,
            "content": [
                {
                    "content": "俄乌战争D+不知道几日<br><br>目前可以确定的是，俄军与新占领区的乌克兰民众之间关系相当紧张。昨天在别尔江斯克/梅里托波尔等地都出现了死老百姓组团堵截俄军车队的场景，比较和平的方式有围着俄军唱乌克兰国歌，比较激进的就直接人堆人挡在军车和坦克前面了。<br><br>如果战争继续拖延下去，这类事件估计会越来越多。",
                    "foldType": "raw",
                    "ownText": "俄乌战争D+不知道几日<br><br>目前可以确定的是，俄军与新占领区的乌克兰民众之间关系相当紧张。昨天在别尔江斯克/梅里托波尔等地都出现了死老百姓组团堵截俄军车队的场景，比较和平的方式有围着俄军唱乌克兰国歌，比较激进的就直接人堆人挡在军车和坦克前面了。<br><br>如果战争继续拖延下去，这类事件估计会越来越多。",
                    "type": "text",
                    "textLinkType": "none"
                },
                {
                    "url": "https://pic3.zhimg.com/80/v2-30d3c8da1d877b451ef755225e08b910_qhd.jpg",
                    "originalUrl": "https://pic2.zhimg.com/80/v2-7141004a7b48d3960e2a6a31dbd8829d_qhd.jpg",
                    "isWatermark": true,
                    "watermarkUrl": "https://pic3.zhimg.com/80/v2-30d3c8da1d877b451ef755225e08b910_qhd.jpg",
                    "thumbnail": "",
                    "width": 750,
                    "height": 1334,
                    "type": "image",
                    "isGif": false,
                    "isLong": false
                },
                {
                    "url": "https://pic2.zhimg.com/80/v2-14d129748aa0b620f569a17b19f19075_qhd.jpg",
                    "originalUrl": "https://pic4.zhimg.com/80/v2-2b5c633d09eaacd802987466122c7611_qhd.jpg",
                    "isWatermark": true,
                    "watermarkUrl": "https://pic2.zhimg.com/80/v2-14d129748aa0b620f569a17b19f19075_qhd.jpg",
                    "thumbnail": "",
                    "width": 750,
                    "height": 1334,
                    "type": "image",
                    "isGif": false,
                    "isLong": false
                },
                {
                    "url": "https://pic3.zhimg.com/80/v2-daf9c5d270d1b052d8ce3b298e50f770_qhd.jpg",
                    "originalUrl": "https://pic2.zhimg.com/80/v2-8c52a34c3b941c85f15da010e175b4ef_qhd.jpg",
                    "isWatermark": true,
                    "watermarkUrl": "https://pic3.zhimg.com/80/v2-daf9c5d270d1b052d8ce3b298e50f770_qhd.jpg",
                    "thumbnail": "",
                    "width": 750,
                    "height": 1334,
                    "type": "image",
                    "isGif": false,
                    "isLong": false
                }
            ],
            "excerptTitle": "俄乌战争D+不知道几日 目前可以确定的是…",
            "contentHtml": "<div>俄乌战争D+不知道几日<br/><br/>目前可以确定的是，俄军与新占领区的乌克兰民众之间关系相当紧张。昨天在别尔江斯克/梅里托波尔等地都出现了死老百姓组团堵截俄军车队的场景，比较和平的方式有围着俄军唱乌克兰国歌，比较激进的就直接人堆人挡在军车和坦克前面了。<br/><br/>如果战争继续拖延下去，这类事件估计会越来越多。</div><img src=\"https://pic1.zhimg.com/50/v2-30d3c8da1d877b451ef755225e08b910_b.jpg\" data-rawwidth=\"750\" data-rawheight=\"1334\" class=\"origin_image zh-lightbox-thumb\" width=\"750\" data-original=\"https://pic1.zhimg.com/50/v2-30d3c8da1d877b451ef755225e08b910_r.jpg\"><img src=\"https://pic2.zhimg.com/50/v2-14d129748aa0b620f569a17b19f19075_b.jpg\" data-rawwidth=\"750\" data-rawheight=\"1334\" class=\"origin_image zh-lightbox-thumb\" width=\"750\" data-original=\"https://pic2.zhimg.com/50/v2-14d129748aa0b620f569a17b19f19075_r.jpg\"><img src=\"https://pic1.zhimg.com/50/v2-daf9c5d270d1b052d8ce3b298e50f770_b.jpg\" data-rawwidth=\"750\" data-rawheight=\"1334\" class=\"origin_image zh-lightbox-thumb\" width=\"750\" data-original=\"https://pic1.zhimg.com/50/v2-daf9c5d270d1b052d8ce3b298e50f770_r.jpg\">",
            "virtuals": {
                "isLiked": false,
                "isFavorited": false
            },
            "reactionRelation": {
                "like": 0,
                "vote": 0
            },
            "topReactions": {
                "like": 37
            },
            "comments": [],
            "author": {
                "id": "148af8d7b25f569ebcdd53b4dac4c15a",
                "name": "屈斯特林桥一声吼",
                "avatarUrl": "https://pic1.zhimg.com/50/v2-ee0d300dd2ffa52706d2040f35a8c970_l.jpg",
                "gender": 0,
                "type": "people",
                "headline": "连体特攻轰炸机“檞寄生”驾驶员",
                "urlToken": "san-er-yi-76-15",
                "userType": "people",
                "url": "/people/148af8d7b25f569ebcdd53b4dac4c15a",
                "vipInfo": {
                    "isVip": true,
                    "vipIcon": {
                        "url": "https://pica.zhimg.com/50/v2-4812630bc27d642f7cafcd6cdeca3d7a_l.jpg",
                        "nightModeUrl": "https://pica.zhimg.com/50/v2-4812630bc27d642f7cafcd6cdeca3d7a_l.jpg"
                    }
                },
                "exposedMedal": {
                    "medalId": "972477022068568064",
                    "medalName": "备受瞩目",
                    "description": "被 10000 个人关注",
                    "miniAvatarUrl": "https://pica.zhimg.com/50/v2-29b2e882367bb1529bc1322f2dcda7ee_b.jpg",
                    "avatarUrl": "https://pica.zhimg.com/50/v2-29b2e882367bb1529bc1322f2dcda7ee_b.jpg",
                    "medalAvatarFrame": ""
                },
                "isOrg": false,
                "isAdvertiser": false,
                "isFollowing": false,
                "isFollowed": false,
                "isBlocking": false,
                "isBlocked": false,
                "badgeV2": {
                    "detailBadges": null,
                    "mergedBadges": [],
                    "title": ""
                },
                "reactionCount": 0,
                "followerCount": 14403
            },
            "likers": [],
            "tags": [],
            "tagSpecials": {},
            "topics": null,
            "questions": null,
            "reactionInstruction": {},
            "regulateInfo": {
                "isRegulating": false
            },
            "longThreshold": [
                {
                    "width": 1,
                    "height": 3
                },
                {
                    "width": 3,
                    "height": 1
                }
            ]
        },
        "repin": {
            "id": "1482270896001400832",
            "type": "pin",
            "state": "normal",
            "url": "https://www.zhihu.com/pin/1482270896001400832",
            "viewPermission": "all",
            "sourcePinId": 0,
            "created": 1646180920,
            "updated": 1646180920,
            "isDeleted": false,
            "selfCreate": false,
            "commentPermission": "all",
            "canTop": false,
            "isTop": false,
            "isAdminCloseRepin": false,
            "adminClosedComment": false,
            "meetReactionGuideConditions": false,
            "likeCount": 0,
            "commentCount": 6,
            "repinCount": 1,
            "reactionCount": 37,
            "favoriteCount": 0,
            "pageViewCount": null,
            "content": [
                {
                    "content": "俄乌战争D+不知道几日<br><br>目前可以确定的是，俄军与新占领区的乌克兰民众之间关系相当紧张。昨天在别尔江斯克/梅里托波尔等地都出现了死老百姓组团堵截俄军车队的场景，比较和平的方式有围着俄军唱乌克兰国歌，比较激进的就直接人堆人挡在军车和坦克前面了。<br><br>如果战争继续拖延下去，这类事件估计会越来越多。",
                    "foldType": "raw",
                    "ownText": "俄乌战争D+不知道几日<br><br>目前可以确定的是，俄军与新占领区的乌克兰民众之间关系相当紧张。昨天在别尔江斯克/梅里托波尔等地都出现了死老百姓组团堵截俄军车队的场景，比较和平的方式有围着俄军唱乌克兰国歌，比较激进的就直接人堆人挡在军车和坦克前面了。<br><br>如果战争继续拖延下去，这类事件估计会越来越多。",
                    "type": "text",
                    "textLinkType": "none"
                },
                {
                    "url": "https://pic3.zhimg.com/80/v2-30d3c8da1d877b451ef755225e08b910_qhd.jpg",
                    "originalUrl": "https://pic2.zhimg.com/80/v2-7141004a7b48d3960e2a6a31dbd8829d_qhd.jpg",
                    "isWatermark": true,
                    "watermarkUrl": "https://pic3.zhimg.com/80/v2-30d3c8da1d877b451ef755225e08b910_qhd.jpg",
                    "thumbnail": "",
                    "width": 750,
                    "height": 1334,
                    "type": "image",
                    "isGif": false,
                    "isLong": false
                },
                {
                    "url": "https://pic2.zhimg.com/80/v2-14d129748aa0b620f569a17b19f19075_qhd.jpg",
                    "originalUrl": "https://pic4.zhimg.com/80/v2-2b5c633d09eaacd802987466122c7611_qhd.jpg",
                    "isWatermark": true,
                    "watermarkUrl": "https://pic2.zhimg.com/80/v2-14d129748aa0b620f569a17b19f19075_qhd.jpg",
                    "thumbnail": "",
                    "width": 750,
                    "height": 1334,
                    "type": "image",
                    "isGif": false,
                    "isLong": false
                },
                {
                    "url": "https://pic3.zhimg.com/80/v2-daf9c5d270d1b052d8ce3b298e50f770_qhd.jpg",
                    "originalUrl": "https://pic2.zhimg.com/80/v2-8c52a34c3b941c85f15da010e175b4ef_qhd.jpg",
                    "isWatermark": true,
                    "watermarkUrl": "https://pic3.zhimg.com/80/v2-daf9c5d270d1b052d8ce3b298e50f770_qhd.jpg",
                    "thumbnail": "",
                    "width": 750,
                    "height": 1334,
                    "type": "image",
                    "isGif": false,
                    "isLong": false
                }
            ],
            "excerptTitle": "俄乌战争D+不知道几日 目前可以确定的是…",
            "contentHtml": "<div>俄乌战争D+不知道几日<br/><br/>目前可以确定的是，俄军与新占领区的乌克兰民众之间关系相当紧张。昨天在别尔江斯克/梅里托波尔等地都出现了死老百姓组团堵截俄军车队的场景，比较和平的方式有围着俄军唱乌克兰国歌，比较激进的就直接人堆人挡在军车和坦克前面了。<br/><br/>如果战争继续拖延下去，这类事件估计会越来越多。</div><img src=\"https://pic1.zhimg.com/50/v2-30d3c8da1d877b451ef755225e08b910_b.jpg\" data-rawwidth=\"750\" data-rawheight=\"1334\" class=\"origin_image zh-lightbox-thumb\" width=\"750\" data-original=\"https://pic1.zhimg.com/50/v2-30d3c8da1d877b451ef755225e08b910_r.jpg\"><img src=\"https://pic2.zhimg.com/50/v2-14d129748aa0b620f569a17b19f19075_b.jpg\" data-rawwidth=\"750\" data-rawheight=\"1334\" class=\"origin_image zh-lightbox-thumb\" width=\"750\" data-original=\"https://pic2.zhimg.com/50/v2-14d129748aa0b620f569a17b19f19075_r.jpg\"><img src=\"https://pic1.zhimg.com/50/v2-daf9c5d270d1b052d8ce3b298e50f770_b.jpg\" data-rawwidth=\"750\" data-rawheight=\"1334\" class=\"origin_image zh-lightbox-thumb\" width=\"750\" data-original=\"https://pic1.zhimg.com/50/v2-daf9c5d270d1b052d8ce3b298e50f770_r.jpg\">",
            "virtuals": {
                "isLiked": false,
                "isFavorited": false
            },
            "reactionRelation": {
                "like": 0,
                "vote": 0
            },
            "topReactions": {
                "like": 37
            },
            "comments": [],
            "author": {
                "id": "148af8d7b25f569ebcdd53b4dac4c15a",
                "name": "屈斯特林桥一声吼",
                "avatarUrl": "https://pic1.zhimg.com/50/v2-ee0d300dd2ffa52706d2040f35a8c970_l.jpg",
                "gender": 0,
                "type": "people",
                "headline": "连体特攻轰炸机“檞寄生”驾驶员",
                "urlToken": "san-er-yi-76-15",
                "userType": "people",
                "url": "/people/148af8d7b25f569ebcdd53b4dac4c15a",
                "vipInfo": {
                    "isVip": true,
                    "vipIcon": {
                        "url": "https://pica.zhimg.com/50/v2-4812630bc27d642f7cafcd6cdeca3d7a_l.jpg",
                        "nightModeUrl": "https://pica.zhimg.com/50/v2-4812630bc27d642f7cafcd6cdeca3d7a_l.jpg"
                    }
                },
                "exposedMedal": {
                    "medalId": "972477022068568064",
                    "medalName": "备受瞩目",
                    "description": "被 10000 个人关注",
                    "miniAvatarUrl": "https://pica.zhimg.com/50/v2-29b2e882367bb1529bc1322f2dcda7ee_b.jpg",
                    "avatarUrl": "https://pica.zhimg.com/50/v2-29b2e882367bb1529bc1322f2dcda7ee_b.jpg",
                    "medalAvatarFrame": ""
                },
                "isOrg": false,
                "isAdvertiser": false,
                "isFollowing": false,
                "isFollowed": false,
                "isBlocking": false,
                "isBlocked": false,
                "badgeV2": {
                    "detailBadges": null,
                    "mergedBadges": [],
                    "title": ""
                },
                "reactionCount": 0,
                "followerCount": 14403
            },
            "likers": [],
            "tags": [],
            "tagSpecials": {},
            "topics": null,
            "questions": null,
            "reactionInstruction": {},
            "regulateInfo": {
                "isRegulating": false
            },
            "longThreshold": [
                {
                    "width": 1,
                    "height": 3
                },
                {
                    "width": 3,
                    "height": 1
                }
            ]
        },
        "reactionInstruction": {},
        "regulateInfo": {
            "isRegulating": false
        },
        "longThreshold": [
            {
                "width": 1,
                "height": 3
            },
            {
                "width": 3,
                "height": 1
            }
        ]
    },
    "1481968556426809345": {
        "id": "1481968556426809345",
        "type": "pin",
        "state": "normal",
        "url": "https://www.zhihu.com/pin/1481968556426809345",
        "viewPermission": "all",
        "sourcePinId": 1481957213597687800,
        "created": 1646108837,
        "updated": 1646108837,
        "isDeleted": false,
        "selfCreate": false,
        "commentPermission": "all",
        "canTop": false,
        "isTop": false,
        "isAdminCloseRepin": false,
        "adminClosedComment": false,
        "meetReactionGuideConditions": false,
        "likeCount": 0,
        "commentCount": 1,
        "repinCount": 0,
        "reactionCount": 13,
        "favoriteCount": 0,
        "pageViewCount": null,
        "content": [
            {
                "content": "不知车臣兵何等表现[思考]",
                "foldType": "raw",
                "ownText": "不知车臣兵何等表现[思考]",
                "type": "text",
                "textLinkType": "none"
            }
        ],
        "excerptTitle": "不知车臣兵何等表现[思考]",
        "contentHtml": "<div>不知车臣兵何等表现[思考]</div>",
        "virtuals": {
            "isLiked": false,
            "isFavorited": false
        },
        "reactionRelation": {
            "like": 0,
            "vote": 0
        },
        "topReactions": {
            "like": 13
        },
        "comments": [],
        "author": "gong-ge-cheng-52",
        "likers": [],
        "tags": [],
        "tagSpecials": {},
        "topics": null,
        "questions": null,
        "originPin": {
            "id": "1481957213597687808",
            "type": "pin",
            "state": "normal",
            "url": "https://www.zhihu.com/pin/1481957213597687808",
            "viewPermission": "all",
            "sourcePinId": 0,
            "created": 1646106133,
            "updated": 1646106133,
            "isDeleted": false,
            "selfCreate": false,
            "commentPermission": "all",
            "canTop": false,
            "isTop": false,
            "isAdminCloseRepin": false,
            "adminClosedComment": false,
            "meetReactionGuideConditions": false,
            "likeCount": 0,
            "commentCount": 19,
            "repinCount": 12,
            "reactionCount": 128,
            "favoriteCount": 0,
            "pageViewCount": null,
            "content": [
                {
                    "content": "别尔江斯克（位于马里乌波尔西南方向，原来还是亚速营的驻地）被俄军占领后当地乌克兰民众群起上街抗议，结果居然成功说服俄军从当地市政府撤出。<br>这从侧面来说说明俄正规军的士气已经有很大问题，我在想普京是不是可能会考虑把在杀人问题上顾忌更少的皇俄团勇给动员到前线上去。",
                    "foldType": "raw",
                    "ownText": "别尔江斯克（位于马里乌波尔西南方向，原来还是亚速营的驻地）被俄军占领后当地乌克兰民众群起上街抗议，结果居然成功说服俄军从当地市政府撤出。<br>这从侧面来说说明俄正规军的士气已经有很大问题，我在想普京是不是可能会考虑把在杀人问题上顾忌更少的皇俄团勇给动员到前线上去。",
                    "type": "text",
                    "textLinkType": "none"
                }
            ],
            "excerptTitle": "别尔江斯克（位于马里乌波尔西南方向，原…",
            "contentHtml": "<div>别尔江斯克（位于马里乌波尔西南方向，原来还是亚速营的驻地）被俄军占领后当地乌克兰民众群起上街抗议，结果居然成功说服俄军从当地市政府撤出。<br/>这从侧面来说说明俄正规军的士气已经有很大问题，我在想普京是不是可能会考虑把在杀人问题上顾忌更少的皇俄团勇给动员到前线上去。</div>",
            "virtuals": {
                "isLiked": false,
                "isFavorited": false
            },
            "reactionRelation": {
                "like": 0,
                "vote": 0
            },
            "topReactions": {
                "like": 128
            },
            "comments": [],
            "author": {
                "id": "209a3d4b5c90da62c25c61d316ea7b78",
                "name": "李仁荣",
                "avatarUrl": "https://pic3.zhimg.com/50/v2-95380cd895816c5500ca83ae5da8b0ac_l.jpg",
                "gender": 1,
                "type": "people",
                "headline": "一般通过五学家",
                "urlToken": "li-ren-rong-41",
                "userType": "people",
                "url": "/people/209a3d4b5c90da62c25c61d316ea7b78",
                "vipInfo": {
                    "isVip": false
                },
                "exposedMedal": {
                    "medalId": "1104437667143585792",
                    "medalName": "众裁官",
                    "description": "完成 20 个众裁",
                    "miniAvatarUrl": "https://pic4.zhimg.com/50/v2-19e523c65c7aa4074fb5430daaad295d_b.jpg",
                    "avatarUrl": "https://pic4.zhimg.com/50/v2-19e523c65c7aa4074fb5430daaad295d_b.jpg",
                    "medalAvatarFrame": ""
                },
                "isOrg": false,
                "isAdvertiser": false,
                "isFollowing": false,
                "isFollowed": false,
                "isBlocking": false,
                "isBlocked": false,
                "badgeV2": {
                    "detailBadges": null,
                    "mergedBadges": [],
                    "title": ""
                },
                "reactionCount": 0,
                "followerCount": 4571
            },
            "likers": [],
            "tags": [],
            "tagSpecials": {},
            "topics": null,
            "questions": null,
            "reactionInstruction": {},
            "regulateInfo": {
                "isRegulating": false
            },
            "longThreshold": [
                {
                    "width": 1,
                    "height": 3
                },
                {
                    "width": 3,
                    "height": 1
                }
            ]
        },
        "repin": {
            "id": "1481957213597687808",
            "type": "pin",
            "state": "normal",
            "url": "https://www.zhihu.com/pin/1481957213597687808",
            "viewPermission": "all",
            "sourcePinId": 0,
            "created": 1646106133,
            "updated": 1646106133,
            "isDeleted": false,
            "selfCreate": false,
            "commentPermission": "all",
            "canTop": false,
            "isTop": false,
            "isAdminCloseRepin": false,
            "adminClosedComment": false,
            "meetReactionGuideConditions": false,
            "likeCount": 0,
            "commentCount": 19,
            "repinCount": 12,
            "reactionCount": 128,
            "favoriteCount": 0,
            "pageViewCount": null,
            "content": [
                {
                    "content": "别尔江斯克（位于马里乌波尔西南方向，原来还是亚速营的驻地）被俄军占领后当地乌克兰民众群起上街抗议，结果居然成功说服俄军从当地市政府撤出。<br>这从侧面来说说明俄正规军的士气已经有很大问题，我在想普京是不是可能会考虑把在杀人问题上顾忌更少的皇俄团勇给动员到前线上去。",
                    "foldType": "raw",
                    "ownText": "别尔江斯克（位于马里乌波尔西南方向，原来还是亚速营的驻地）被俄军占领后当地乌克兰民众群起上街抗议，结果居然成功说服俄军从当地市政府撤出。<br>这从侧面来说说明俄正规军的士气已经有很大问题，我在想普京是不是可能会考虑把在杀人问题上顾忌更少的皇俄团勇给动员到前线上去。",
                    "type": "text",
                    "textLinkType": "none"
                }
            ],
            "excerptTitle": "别尔江斯克（位于马里乌波尔西南方向，原…",
            "contentHtml": "<div>别尔江斯克（位于马里乌波尔西南方向，原来还是亚速营的驻地）被俄军占领后当地乌克兰民众群起上街抗议，结果居然成功说服俄军从当地市政府撤出。<br/>这从侧面来说说明俄正规军的士气已经有很大问题，我在想普京是不是可能会考虑把在杀人问题上顾忌更少的皇俄团勇给动员到前线上去。</div>",
            "virtuals": {
                "isLiked": false,
                "isFavorited": false
            },
            "reactionRelation": {
                "like": 0,
                "vote": 0
            },
            "topReactions": {
                "like": 128
            },
            "comments": [],
            "author": {
                "id": "209a3d4b5c90da62c25c61d316ea7b78",
                "name": "李仁荣",
                "avatarUrl": "https://pic3.zhimg.com/50/v2-95380cd895816c5500ca83ae5da8b0ac_l.jpg",
                "gender": 1,
                "type": "people",
                "headline": "一般通过五学家",
                "urlToken": "li-ren-rong-41",
                "userType": "people",
                "url": "/people/209a3d4b5c90da62c25c61d316ea7b78",
                "vipInfo": {
                    "isVip": false
                },
                "exposedMedal": {
                    "medalId": "1104437667143585792",
                    "medalName": "众裁官",
                    "description": "完成 20 个众裁",
                    "miniAvatarUrl": "https://pic4.zhimg.com/50/v2-19e523c65c7aa4074fb5430daaad295d_b.jpg",
                    "avatarUrl": "https://pic4.zhimg.com/50/v2-19e523c65c7aa4074fb5430daaad295d_b.jpg",
                    "medalAvatarFrame": ""
                },
                "isOrg": false,
                "isAdvertiser": false,
                "isFollowing": false,
                "isFollowed": false,
                "isBlocking": false,
                "isBlocked": false,
                "badgeV2": {
                    "detailBadges": null,
                    "mergedBadges": [],
                    "title": ""
                },
                "reactionCount": 0,
                "followerCount": 4571
            },
            "likers": [],
            "tags": [],
            "tagSpecials": {},
            "topics": null,
            "questions": null,
            "reactionInstruction": {},
            "regulateInfo": {
                "isRegulating": false
            },
            "longThreshold": [
                {
                    "width": 1,
                    "height": 3
                },
                {
                    "width": 3,
                    "height": 1
                }
            ]
        },
        "reactionInstruction": {},
        "regulateInfo": {
            "isRegulating": false
        },
        "longThreshold": [
            {
                "width": 1,
                "height": 3
            },
            {
                "width": 3,
                "height": 1
            }
        ]
    },
    "1481306476896055296": {
        "id": "1481306476896055296",
        "type": "pin",
        "state": "normal",
        "url": "https://www.zhihu.com/pin/1481306476896055296",
        "viewPermission": "all",
        "sourcePinId": 1481258173957308400,
        "created": 1645950985,
        "updated": 1645950985,
        "isDeleted": false,
        "selfCreate": false,
        "commentPermission": "all",
        "canTop": false,
        "isTop": false,
        "isAdminCloseRepin": false,
        "adminClosedComment": false,
        "meetReactionGuideConditions": false,
        "likeCount": 0,
        "commentCount": 1,
        "repinCount": 0,
        "reactionCount": 25,
        "favoriteCount": 0,
        "pageViewCount": null,
        "content": [
            {
                "content": "不知是否要求加入&#34;忠义救国军&#34;一类了[思考] <a data-hash=\"5215befad9a84b9f466e337e3fb28365\" href=\"https://www.zhihu.com/people/5215befad9a84b9f466e337e3fb28365?source_type=pin\" class=\"member_mention\" data-repin=\"comment_10072528039\" data-hovercard=\"p$b$5215befad9a84b9f466e337e3fb28365\">@当代张敬轩</a>: 曹哲先生支持乌当局抗俄（本身无可厚非）之余，不忘提醒乌克兰当局千万不能发枪给“便衣兵”，其严防民间独立自主抗俄力量（本身倒还未必革命）之心跃然纸上。彼拳拳之心，融重庆、东京思想于一体，可谓致力于共荣矣。 <a data-hash=\"9153a8432830007569bb6715585cdb1b\" href=\"https://www.zhihu.com/people/9153a8432830007569bb6715585cdb1b?source_type=pin\" class=\"member_mention\" data-repin=\"1481258173957308416\" data-hovercard=\"p$b$9153a8432830007569bb6715585cdb1b\">@龚格晟</a>: 当然又有吹国防哲学的，向不给&#34;抗普洎油&#34;的泽人&#34;一切服从，一切经过&#34;",
                "foldType": "raw",
                "ownText": "不知是否要求加入&#34;忠义救国军&#34;一类了[思考]",
                "type": "text",
                "textLinkType": "none"
            }
        ],
        "excerptTitle": "不知是否要求加入\"忠义救国军\"一类了[思…",
        "contentHtml": "<div>不知是否要求加入&#34;忠义救国军&#34;一类了[思考] <a data-hash=\"5215befad9a84b9f466e337e3fb28365\" href=\"https://www.zhihu.com/people/5215befad9a84b9f466e337e3fb28365?source_type=pin\" class=\"member_mention\" data-repin=\"comment_10072528039\" data-hovercard=\"p$b$5215befad9a84b9f466e337e3fb28365\">@当代张敬轩</a>: 曹哲先生支持乌当局抗俄（本身无可厚非）之余，不忘提醒乌克兰当局千万不能发枪给“便衣兵”，其严防民间独立自主抗俄力量（本身倒还未必革命）之心跃然纸上。彼拳拳之心，融重庆、东京思想于一体，可谓致力于共荣矣。 <a data-hash=\"9153a8432830007569bb6715585cdb1b\" href=\"https://www.zhihu.com/people/9153a8432830007569bb6715585cdb1b?source_type=pin\" class=\"member_mention\" data-repin=\"1481258173957308416\" data-hovercard=\"p$b$9153a8432830007569bb6715585cdb1b\">@龚格晟</a>: 当然又有吹国防哲学的，向不给&#34;抗普洎油&#34;的泽人&#34;一切服从，一切经过&#34;</div>",
        "virtuals": {
            "isLiked": false,
            "isFavorited": false,
            "reactionType": "like"
        },
        "reactionRelation": {
            "like": 0,
            "vote": 0
        },
        "topReactions": {
            "like": 25
        },
        "comments": [],
        "author": "gong-ge-cheng-52",
        "likers": [],
        "tags": [],
        "tagSpecials": {},
        "topics": null,
        "questions": null,
        "originPin": {
            "id": "1481048040798994432",
            "type": "pin",
            "state": "normal",
            "url": "https://www.zhihu.com/pin/1481048040798994432",
            "viewPermission": "all",
            "sourcePinId": 0,
            "created": 1645889369,
            "updated": 1645889369,
            "isDeleted": false,
            "selfCreate": false,
            "commentPermission": "all",
            "canTop": false,
            "isTop": false,
            "isAdminCloseRepin": false,
            "adminClosedComment": false,
            "meetReactionGuideConditions": false,
            "likeCount": 0,
            "commentCount": 1,
            "repinCount": 2,
            "reactionCount": 22,
            "favoriteCount": 0,
            "pageViewCount": null,
            "content": [
                {
                    "content": "提出“北约撤出”“俄罗斯撤军”云云的 一厢情愿令人感动 无产阶级主体性大大的有了",
                    "foldType": "raw",
                    "ownText": "提出“北约撤出”“俄罗斯撤军”云云的 一厢情愿令人感动 无产阶级主体性大大的有了",
                    "type": "text",
                    "textLinkType": "none"
                }
            ],
            "excerptTitle": "提出“北约撤出”“俄罗斯撤军”云云的 …",
            "contentHtml": "<div>提出“北约撤出”“俄罗斯撤军”云云的 一厢情愿令人感动 无产阶级主体性大大的有了</div>",
            "virtuals": {
                "isLiked": false,
                "isFavorited": false
            },
            "reactionRelation": {
                "like": 0,
                "vote": 0
            },
            "topReactions": {
                "like": 22
            },
            "comments": [],
            "author": {
                "id": "6a3ac1c3d58e4a12a6094b78ed0665d4",
                "name": "知乎用户a3zCeF",
                "avatarUrl": "https://picx.zhimg.com/50/v2-abed1a8c04700ba7d72b45195223e0ff_l.jpg",
                "gender": 0,
                "type": "people",
                "headline": "",
                "urlToken": "bo-shi-qing-30",
                "userType": "people",
                "url": "/people/6a3ac1c3d58e4a12a6094b78ed0665d4",
                "vipInfo": {
                    "isVip": false
                },
                "isOrg": false,
                "isAdvertiser": false,
                "isFollowing": true,
                "isFollowed": false,
                "isBlocking": false,
                "isBlocked": false,
                "badgeV2": {
                    "detailBadges": null,
                    "mergedBadges": [],
                    "title": ""
                },
                "reactionCount": 0,
                "followerCount": 779
            },
            "likers": [],
            "tags": [],
            "tagSpecials": {},
            "topics": null,
            "questions": null,
            "reactionInstruction": {},
            "regulateInfo": {
                "isRegulating": true,
                "reason": "抱歉，引用的原内容不存在"
            },
            "longThreshold": [
                {
                    "width": 1,
                    "height": 3
                },
                {
                    "width": 3,
                    "height": 1
                }
            ]
        },
        "repin": {
            "id": "1481258173957308416",
            "type": "pin",
            "state": "normal",
            "url": "https://www.zhihu.com/pin/1481258173957308416",
            "viewPermission": "all",
            "sourcePinId": 1481048040798994400,
            "created": 1645939469,
            "updated": 1645939469,
            "isDeleted": false,
            "selfCreate": false,
            "commentPermission": "all",
            "canTop": false,
            "isTop": false,
            "isAdminCloseRepin": false,
            "adminClosedComment": false,
            "meetReactionGuideConditions": false,
            "likeCount": 0,
            "commentCount": 3,
            "repinCount": 1,
            "reactionCount": 26,
            "favoriteCount": 0,
            "pageViewCount": null,
            "content": [
                {
                    "content": "当然又有吹国防哲学的，向不给&#34;抗普洎油&#34;的泽人&#34;一切服从，一切经过&#34;",
                    "foldType": "raw",
                    "ownText": "当然又有吹国防哲学的，向不给&#34;抗普洎油&#34;的泽人&#34;一切服从，一切经过&#34;",
                    "type": "text",
                    "textLinkType": "none"
                }
            ],
            "excerptTitle": "当然又有吹国防哲学的，向不给\"抗普洎油\"…",
            "contentHtml": "<div>当然又有吹国防哲学的，向不给&#34;抗普洎油&#34;的泽人&#34;一切服从，一切经过&#34;</div>",
            "virtuals": {
                "isLiked": false,
                "isFavorited": false,
                "reactionType": "like"
            },
            "reactionRelation": {
                "like": 0,
                "vote": 0
            },
            "topReactions": {
                "like": 26
            },
            "comments": [],
            "author": {
                "id": "9153a8432830007569bb6715585cdb1b",
                "name": "龚格晟",
                "avatarUrl": "https://picx.zhimg.com/50/v2-dd6ca6351985316ea857e2e6d2db1347_l.jpg",
                "gender": 1,
                "type": "people",
                "headline": "MЛㄇ。有事缠身",
                "urlToken": "gong-ge-cheng-52",
                "userType": "people",
                "url": "/people/9153a8432830007569bb6715585cdb1b",
                "vipInfo": {
                    "isVip": false
                },
                "exposedMedal": {
                    "medalId": "972477022068568064",
                    "medalName": "备受瞩目",
                    "description": "被 1000 个人关注",
                    "miniAvatarUrl": "https://pic2.zhimg.com/50/v2-6da117205088242db9cd82e48b28640d_b.jpg",
                    "avatarUrl": "https://pic2.zhimg.com/50/v2-6da117205088242db9cd82e48b28640d_b.jpg",
                    "medalAvatarFrame": ""
                },
                "isOrg": false,
                "isAdvertiser": false,
                "isFollowing": true,
                "isFollowed": true,
                "isBlocking": false,
                "isBlocked": false,
                "badgeV2": {
                    "detailBadges": null,
                    "mergedBadges": [],
                    "title": ""
                },
                "reactionCount": 0,
                "followerCount": 2930
            },
            "likers": [],
            "tags": [],
            "tagSpecials": {},
            "topics": null,
            "questions": null,
            "reactionInstruction": {},
            "regulateInfo": {
                "isRegulating": false
            },
            "longThreshold": [
                {
                    "width": 1,
                    "height": 3
                },
                {
                    "width": 3,
                    "height": 1
                }
            ]
        },
        "reactionInstruction": {},
        "regulateInfo": {
            "isRegulating": false
        },
        "longThreshold": [
            {
                "width": 1,
                "height": 3
            },
            {
                "width": 3,
                "height": 1
            }
        ]
    },
    "1481258173957308416": {
        "id": "1481258173957308416",
        "type": "pin",
        "state": "normal",
        "url": "https://www.zhihu.com/pin/1481258173957308416",
        "viewPermission": "all",
        "sourcePinId": 1481048040798994400,
        "created": 1645939469,
        "updated": 1645939469,
        "isDeleted": false,
        "selfCreate": false,
        "commentPermission": "all",
        "canTop": false,
        "isTop": false,
        "isAdminCloseRepin": false,
        "adminClosedComment": false,
        "meetReactionGuideConditions": false,
        "likeCount": 0,
        "commentCount": 3,
        "repinCount": 1,
        "reactionCount": 26,
        "favoriteCount": 0,
        "pageViewCount": null,
        "content": [
            {
                "content": "当然又有吹国防哲学的，向不给&#34;抗普洎油&#34;的泽人&#34;一切服从，一切经过&#34;",
                "foldType": "raw",
                "ownText": "当然又有吹国防哲学的，向不给&#34;抗普洎油&#34;的泽人&#34;一切服从，一切经过&#34;",
                "type": "text",
                "textLinkType": "none"
            }
        ],
        "excerptTitle": "当然又有吹国防哲学的，向不给\"抗普洎油\"…",
        "contentHtml": "<div>当然又有吹国防哲学的，向不给&#34;抗普洎油&#34;的泽人&#34;一切服从，一切经过&#34;</div>",
        "virtuals": {
            "isLiked": false,
            "isFavorited": false,
            "reactionType": "like"
        },
        "reactionRelation": {
            "like": 0,
            "vote": 0
        },
        "topReactions": {
            "like": 26
        },
        "comments": [],
        "author": "gong-ge-cheng-52",
        "likers": [],
        "tags": [],
        "tagSpecials": {},
        "topics": null,
        "questions": null,
        "originPin": {
            "id": "1481048040798994432",
            "type": "pin",
            "state": "normal",
            "url": "https://www.zhihu.com/pin/1481048040798994432",
            "viewPermission": "all",
            "sourcePinId": 0,
            "created": 1645889369,
            "updated": 1645889369,
            "isDeleted": false,
            "selfCreate": false,
            "commentPermission": "all",
            "canTop": false,
            "isTop": false,
            "isAdminCloseRepin": false,
            "adminClosedComment": false,
            "meetReactionGuideConditions": false,
            "likeCount": 0,
            "commentCount": 1,
            "repinCount": 2,
            "reactionCount": 22,
            "favoriteCount": 0,
            "pageViewCount": null,
            "content": [
                {
                    "content": "提出“北约撤出”“俄罗斯撤军”云云的 一厢情愿令人感动 无产阶级主体性大大的有了",
                    "foldType": "raw",
                    "ownText": "提出“北约撤出”“俄罗斯撤军”云云的 一厢情愿令人感动 无产阶级主体性大大的有了",
                    "type": "text",
                    "textLinkType": "none"
                }
            ],
            "excerptTitle": "提出“北约撤出”“俄罗斯撤军”云云的 …",
            "contentHtml": "<div>提出“北约撤出”“俄罗斯撤军”云云的 一厢情愿令人感动 无产阶级主体性大大的有了</div>",
            "virtuals": {
                "isLiked": false,
                "isFavorited": false
            },
            "reactionRelation": {
                "like": 0,
                "vote": 0
            },
            "topReactions": {
                "like": 22
            },
            "comments": [],
            "author": {
                "id": "6a3ac1c3d58e4a12a6094b78ed0665d4",
                "name": "知乎用户a3zCeF",
                "avatarUrl": "https://picx.zhimg.com/50/v2-abed1a8c04700ba7d72b45195223e0ff_l.jpg",
                "gender": 0,
                "type": "people",
                "headline": "",
                "urlToken": "bo-shi-qing-30",
                "userType": "people",
                "url": "/people/6a3ac1c3d58e4a12a6094b78ed0665d4",
                "vipInfo": {
                    "isVip": false
                },
                "isOrg": false,
                "isAdvertiser": false,
                "isFollowing": true,
                "isFollowed": false,
                "isBlocking": false,
                "isBlocked": false,
                "badgeV2": {
                    "detailBadges": null,
                    "mergedBadges": [],
                    "title": ""
                },
                "reactionCount": 0,
                "followerCount": 779
            },
            "likers": [],
            "tags": [],
            "tagSpecials": {},
            "topics": null,
            "questions": null,
            "reactionInstruction": {},
            "regulateInfo": {
                "isRegulating": true,
                "reason": "抱歉，引用的原内容不存在"
            },
            "longThreshold": [
                {
                    "width": 1,
                    "height": 3
                },
                {
                    "width": 3,
                    "height": 1
                }
            ]
        },
        "repin": {
            "id": "1481048040798994432",
            "type": "pin",
            "state": "normal",
            "url": "https://www.zhihu.com/pin/1481048040798994432",
            "viewPermission": "all",
            "sourcePinId": 0,
            "created": 1645889369,
            "updated": 1645889369,
            "isDeleted": false,
            "selfCreate": false,
            "commentPermission": "all",
            "canTop": false,
            "isTop": false,
            "isAdminCloseRepin": false,
            "adminClosedComment": false,
            "meetReactionGuideConditions": false,
            "likeCount": 0,
            "commentCount": 1,
            "repinCount": 2,
            "reactionCount": 22,
            "favoriteCount": 0,
            "pageViewCount": null,
            "content": [
                {
                    "content": "提出“北约撤出”“俄罗斯撤军”云云的 一厢情愿令人感动 无产阶级主体性大大的有了",
                    "foldType": "raw",
                    "ownText": "提出“北约撤出”“俄罗斯撤军”云云的 一厢情愿令人感动 无产阶级主体性大大的有了",
                    "type": "text",
                    "textLinkType": "none"
                }
            ],
            "excerptTitle": "提出“北约撤出”“俄罗斯撤军”云云的 …",
            "contentHtml": "<div>提出“北约撤出”“俄罗斯撤军”云云的 一厢情愿令人感动 无产阶级主体性大大的有了</div>",
            "virtuals": {
                "isLiked": false,
                "isFavorited": false
            },
            "reactionRelation": {
                "like": 0,
                "vote": 0
            },
            "topReactions": {
                "like": 22
            },
            "comments": [],
            "author": {
                "id": "6a3ac1c3d58e4a12a6094b78ed0665d4",
                "name": "知乎用户a3zCeF",
                "avatarUrl": "https://picx.zhimg.com/50/v2-abed1a8c04700ba7d72b45195223e0ff_l.jpg",
                "gender": 0,
                "type": "people",
                "headline": "",
                "urlToken": "bo-shi-qing-30",
                "userType": "people",
                "url": "/people/6a3ac1c3d58e4a12a6094b78ed0665d4",
                "vipInfo": {
                    "isVip": false
                },
                "isOrg": false,
                "isAdvertiser": false,
                "isFollowing": true,
                "isFollowed": false,
                "isBlocking": false,
                "isBlocked": false,
                "badgeV2": {
                    "detailBadges": null,
                    "mergedBadges": [],
                    "title": ""
                },
                "reactionCount": 0,
                "followerCount": 779
            },
            "likers": [],
            "tags": [],
            "tagSpecials": {},
            "topics": null,
            "questions": null,
            "reactionInstruction": {},
            "regulateInfo": {
                "isRegulating": true,
                "reason": "抱歉，引用的原内容不存在"
            },
            "longThreshold": [
                {
                    "width": 1,
                    "height": 3
                },
                {
                    "width": 3,
                    "height": 1
                }
            ]
        },
        "reactionInstruction": {},
        "regulateInfo": {
            "isRegulating": false
        },
        "longThreshold": [
            {
                "width": 1,
                "height": 3
            },
            {
                "width": 3,
                "height": 1
            }
        ]
    },
    "1480866174880149505": {
        "id": "1480866174880149505",
        "type": "pin",
        "state": "normal",
        "url": "https://www.zhihu.com/pin/1480866174880149505",
        "viewPermission": "all",
        "sourcePinId": 0,
        "created": 1645846009,
        "updated": 1645846009,
        "isDeleted": false,
        "selfCreate": false,
        "commentPermission": "all",
        "canTop": false,
        "isTop": false,
        "isAdminCloseRepin": false,
        "adminClosedComment": false,
        "meetReactionGuideConditions": false,
        "likeCount": 0,
        "commentCount": 3,
        "repinCount": 2,
        "reactionCount": 32,
        "favoriteCount": 0,
        "pageViewCount": null,
        "content": [
            {
                "content": "<a href=\"https://link.zhihu.com/?target=https%3A//vnd-peru.blogspot.com/2022/02/mpp-fuera-imperialistas-rusos-de.html%3Fm%3D1\" data-icon-type=\"link\" data-original-url=\"https://vnd-peru.blogspot.com/2022/02/mpp-fuera-imperialistas-rusos-de.html?m=1\" class=\"external\">链接</a>",
                "foldType": "raw",
                "ownText": "<a href=\"https://link.zhihu.com/?target=https%3A//vnd-peru.blogspot.com/2022/02/mpp-fuera-imperialistas-rusos-de.html%3Fm%3D1\" data-icon-type=\"link\" data-original-url=\"https://vnd-peru.blogspot.com/2022/02/mpp-fuera-imperialistas-rusos-de.html?m=1\" class=\"external\">链接</a>",
                "type": "text",
                "textLinkType": "none"
            },
            {
                "url": "https://pic3.zhimg.com/80/v2-1827326f826027d551bb13339f224ecc_qhd.jpg",
                "originalUrl": "https://pic3.zhimg.com/80/v2-1827326f826027d551bb13339f224ecc_qhd.jpg",
                "isWatermark": false,
                "watermarkUrl": "https://pic2.zhimg.com/80/v2-86e06bb289edda70eac282057fc1ebef_qhd.jpg",
                "thumbnail": "",
                "width": 1080,
                "height": 15534,
                "type": "image",
                "isGif": false,
                "isLong": true
            }
        ],
        "excerptTitle": "链接 ",
        "contentHtml": "<div><a href=\"https://link.zhihu.com/?target=https%3A//vnd-peru.blogspot.com/2022/02/mpp-fuera-imperialistas-rusos-de.html%3Fm%3D1\" data-icon-type=\"link\" data-original-url=\"https://vnd-peru.blogspot.com/2022/02/mpp-fuera-imperialistas-rusos-de.html?m=1\" class=\"external\">链接</a></div><img src=\"https://pic1.zhimg.com/50/v2-1827326f826027d551bb13339f224ecc_b.jpg\" data-rawwidth=\"1080\" data-rawheight=\"15534\" class=\"origin_image zh-lightbox-thumb\" width=\"1080\" data-original=\"https://pic1.zhimg.com/50/v2-1827326f826027d551bb13339f224ecc_r.jpg\">",
        "virtuals": {
            "isLiked": false,
            "isFavorited": false,
            "reactionType": "like"
        },
        "reactionRelation": {
            "like": 0,
            "vote": 0
        },
        "topReactions": {
            "like": 32
        },
        "comments": [],
        "author": "gong-ge-cheng-52",
        "likers": [],
        "tags": [],
        "tagSpecials": {},
        "topics": null,
        "questions": null,
        "reactionInstruction": {},
        "regulateInfo": {
            "isRegulating": false
        },
        "longThreshold": [
            {
                "width": 1,
                "height": 3
            },
            {
                "width": 3,
                "height": 1
            }
        ]
    },
    "1480533873914654720": {
        "id": "1480533873914654720",
        "type": "pin",
        "state": "normal",
        "url": "https://www.zhihu.com/pin/1480533873914654720",
        "viewPermission": "all",
        "sourcePinId": 1480525413562232800,
        "created": 1645766782,
        "updated": 1645766782,
        "isDeleted": false,
        "selfCreate": false,
        "commentPermission": "all",
        "canTop": false,
        "isTop": false,
        "isAdminCloseRepin": false,
        "adminClosedComment": false,
        "meetReactionGuideConditions": false,
        "likeCount": 0,
        "commentCount": 1,
        "repinCount": 0,
        "reactionCount": 24,
        "favoriteCount": 0,
        "pageViewCount": null,
        "content": [
            {
                "content": "&#34;域外&#34;帝羣眾也应反对本帝干涉，如参加傀儡&#34;和平反赤建国&#34; <a data-hash=\"6a3ac1c3d58e4a12a6094b78ed0665d4\" href=\"https://www.zhihu.com/people/6a3ac1c3d58e4a12a6094b78ed0665d4?source_type=pin\" class=\"member_mention\" data-repin=\"1480525413562232832\" data-hovercard=\"p$b$6a3ac1c3d58e4a12a6094b78ed0665d4\">@勃世清</a>: <a data-hash=\"13a1b169bd57f2d5e3366bac6ed37f20\" href=\"https://www.zhihu.com/people/13a1b169bd57f2d5e3366bac6ed37f20?source_type=pin\" class=\"member_mention\" data-repin=\"1480520269051228160\" data-hovercard=\"p$b$13a1b169bd57f2d5e3366bac6ed37f20\">@不翔龍</a>: 好，支持罗刹",
                "foldType": "raw",
                "ownText": "&#34;域外&#34;帝羣眾也应反对本帝干涉，如参加傀儡&#34;和平反赤建国&#34;",
                "type": "text",
                "textLinkType": "none"
            }
        ],
        "excerptTitle": "\"域外\"帝羣眾也应反对本帝干涉，如参加傀…",
        "contentHtml": "<div>&#34;域外&#34;帝羣眾也应反对本帝干涉，如参加傀儡&#34;和平反赤建国&#34; <a data-hash=\"6a3ac1c3d58e4a12a6094b78ed0665d4\" href=\"https://www.zhihu.com/people/6a3ac1c3d58e4a12a6094b78ed0665d4?source_type=pin\" class=\"member_mention\" data-repin=\"1480525413562232832\" data-hovercard=\"p$b$6a3ac1c3d58e4a12a6094b78ed0665d4\">@勃世清</a>: <a data-hash=\"13a1b169bd57f2d5e3366bac6ed37f20\" href=\"https://www.zhihu.com/people/13a1b169bd57f2d5e3366bac6ed37f20?source_type=pin\" class=\"member_mention\" data-repin=\"1480520269051228160\" data-hovercard=\"p$b$13a1b169bd57f2d5e3366bac6ed37f20\">@不翔龍</a>: 好，支持罗刹</div>",
        "virtuals": {
            "isLiked": false,
            "isFavorited": false,
            "reactionType": "like"
        },
        "reactionRelation": {
            "like": 0,
            "vote": 0
        },
        "topReactions": {
            "like": 24
        },
        "comments": [],
        "author": "gong-ge-cheng-52",
        "likers": [],
        "tags": [],
        "tagSpecials": {},
        "topics": null,
        "questions": null,
        "originPin": {
            "id": "1480508034527473664",
            "type": "pin",
            "state": "normal",
            "url": "https://www.zhihu.com/pin/1480508034527473664",
            "deletedReason": "抱歉，该内容已删除",
            "viewPermission": "self",
            "sourcePinId": 0,
            "created": 1645760621,
            "updated": 1645760621,
            "isDeleted": true,
            "selfCreate": false,
            "commentPermission": "all",
            "canTop": false,
            "isTop": false,
            "isAdminCloseRepin": false,
            "adminClosedComment": false,
            "meetReactionGuideConditions": false,
            "likeCount": 0,
            "commentCount": 13,
            "repinCount": 42,
            "reactionCount": 10,
            "favoriteCount": 0,
            "pageViewCount": null,
            "content": [
                {
                    "content": "罗刹国50城爆发反战游行，而简中粪坑还在甲亢。",
                    "foldType": "raw",
                    "ownText": "罗刹国50城爆发反战游行，而简中粪坑还在甲亢。",
                    "type": "text",
                    "textLinkType": "none"
                }
            ],
            "excerptTitle": "罗刹国50城爆发反战游行，而简中粪坑还在…",
            "contentHtml": "<div>罗刹国50城爆发反战游行，而简中粪坑还在甲亢。</div>",
            "virtuals": {
                "isLiked": false,
                "isFavorited": false
            },
            "reactionRelation": {
                "like": 0,
                "vote": 0
            },
            "topReactions": {
                "like": 10
            },
            "comments": [],
            "author": {
                "id": "d5c1925b8d83a7981641c422ce02704f",
                "name": "Erika",
                "avatarUrl": "https://pica.zhimg.com/50/v2-7118645e3b2debf2fa978177f41c60e8_l.jpg",
                "gender": 0,
                "type": "people",
                "headline": "在异见者的地狱中让傲慢的神明失业。",
                "urlToken": "erika-46-70",
                "userType": "people",
                "url": "/people/d5c1925b8d83a7981641c422ce02704f",
                "vipInfo": {
                    "isVip": false
                },
                "exposedMedal": {
                    "medalId": "972460827463282688",
                    "medalName": "表示赞同",
                    "description": "赞同 1000 次",
                    "miniAvatarUrl": "https://pic1.zhimg.com/50/v2-1df62083e2d16ce5e82c3049e5d11e14_b.jpg",
                    "avatarUrl": "https://pic1.zhimg.com/50/v2-1df62083e2d16ce5e82c3049e5d11e14_b.jpg",
                    "medalAvatarFrame": ""
                },
                "isOrg": false,
                "isAdvertiser": false,
                "isFollowing": false,
                "isFollowed": false,
                "isBlocking": false,
                "isBlocked": false,
                "badgeV2": {
                    "detailBadges": null,
                    "mergedBadges": [],
                    "title": ""
                },
                "reactionCount": 0,
                "followerCount": 5358
            },
            "likers": [],
            "tags": [],
            "tagSpecials": {},
            "topics": null,
            "questions": null,
            "reactionInstruction": {},
            "regulateInfo": {
                "isRegulating": true,
                "reason": "抱歉，引用的原内容不存在"
            },
            "longThreshold": [
                {
                    "width": 1,
                    "height": 3
                },
                {
                    "width": 3,
                    "height": 1
                }
            ]
        },
        "repin": {
            "id": "1480525413562232832",
            "type": "pin",
            "state": "normal",
            "url": "https://www.zhihu.com/pin/1480525413562232832",
            "viewPermission": "all",
            "sourcePinId": 1480520269051228200,
            "created": 1645764765,
            "updated": 1645764765,
            "isDeleted": false,
            "selfCreate": false,
            "commentPermission": "all",
            "canTop": false,
            "isTop": false,
            "isAdminCloseRepin": false,
            "adminClosedComment": false,
            "meetReactionGuideConditions": false,
            "likeCount": 0,
            "commentCount": 4,
            "repinCount": 4,
            "reactionCount": 14,
            "favoriteCount": 0,
            "pageViewCount": null,
            "content": [
                {
                    "content": "<a data-hash=\"13a1b169bd57f2d5e3366bac6ed37f20\" href=\"https://www.zhihu.com/people/13a1b169bd57f2d5e3366bac6ed37f20?source_type=pin\" class=\"member_mention\" data-repin=\"1480520269051228160\" data-hovercard=\"p$b$13a1b169bd57f2d5e3366bac6ed37f20\">@不翔龍</a>: 好，支持罗刹",
                    "foldType": "raw",
                    "ownText": "",
                    "type": "text",
                    "textLinkType": "none"
                }
            ],
            "excerptTitle": "@不翔龍 : 好，支持罗刹",
            "contentHtml": "<div><a data-hash=\"13a1b169bd57f2d5e3366bac6ed37f20\" href=\"https://www.zhihu.com/people/13a1b169bd57f2d5e3366bac6ed37f20?source_type=pin\" class=\"member_mention\" data-repin=\"1480520269051228160\" data-hovercard=\"p$b$13a1b169bd57f2d5e3366bac6ed37f20\">@不翔龍</a>: 好，支持罗刹</div>",
            "virtuals": {
                "isLiked": false,
                "isFavorited": false
            },
            "reactionRelation": {
                "like": 0,
                "vote": 0
            },
            "topReactions": {
                "like": 14
            },
            "comments": [],
            "author": {
                "id": "6a3ac1c3d58e4a12a6094b78ed0665d4",
                "name": "知乎用户a3zCeF",
                "avatarUrl": "https://picx.zhimg.com/50/v2-abed1a8c04700ba7d72b45195223e0ff_l.jpg",
                "gender": 0,
                "type": "people",
                "headline": "",
                "urlToken": "bo-shi-qing-30",
                "userType": "people",
                "url": "/people/6a3ac1c3d58e4a12a6094b78ed0665d4",
                "vipInfo": {
                    "isVip": false
                },
                "isOrg": false,
                "isAdvertiser": false,
                "isFollowing": true,
                "isFollowed": false,
                "isBlocking": false,
                "isBlocked": false,
                "badgeV2": {
                    "detailBadges": null,
                    "mergedBadges": [],
                    "title": ""
                },
                "reactionCount": 0,
                "followerCount": 779
            },
            "likers": [],
            "tags": [],
            "tagSpecials": {},
            "topics": null,
            "questions": null,
            "reactionInstruction": {},
            "regulateInfo": {
                "isRegulating": true,
                "reason": "抱歉，引用的原内容不存在"
            },
            "longThreshold": [
                {
                    "width": 1,
                    "height": 3
                },
                {
                    "width": 3,
                    "height": 1
                }
            ]
        },
        "reactionInstruction": {},
        "regulateInfo": {
            "isRegulating": false
        },
        "longThreshold": [
            {
                "width": 1,
                "height": 3
            },
            {
                "width": 3,
                "height": 1
            }
        ]
    },
    "1480486605760233472": {
        "id": "1480486605760233472",
        "type": "pin",
        "state": "normal",
        "url": "https://www.zhihu.com/pin/1480486605760233472",
        "viewPermission": "all",
        "sourcePinId": 1480473451798933500,
        "created": 1645755512,
        "updated": 1645755512,
        "isDeleted": false,
        "selfCreate": false,
        "commentPermission": "all",
        "canTop": false,
        "isTop": false,
        "isAdminCloseRepin": false,
        "adminClosedComment": false,
        "meetReactionGuideConditions": false,
        "likeCount": 0,
        "commentCount": 0,
        "repinCount": 0,
        "reactionCount": 26,
        "favoriteCount": 0,
        "pageViewCount": null,
        "content": [
            {
                "content": "有暗契要支露，又怕小岛被做文章，自然就是不复具体复读&#34;一贯支持主权杜立与领土完整&#34;，顾左右而言他 <a data-hash=\"c39f4121c89698006dd97f020769c19b\" href=\"https://www.zhihu.com/people/c39f4121c89698006dd97f020769c19b?source_type=pin\" class=\"member_mention\" data-repin=\"1480473451798933504\" data-hovercard=\"p$b$c39f4121c89698006dd97f020769c19b\">@云舞空城</a>: 我希望大家都能铭记一件事：2022年2月24日，俄罗斯联邦军队在总统普京的命令下，对西乌克兰当局发动了特别军事行动，旨在对西乌“去军事化和去纳粹化，不图谋占领乌克兰”。当天晚些时候，一群西方记者反复质问纠缠中方外交部发言人华春莹女士，要求回答这次军事行动是不是入侵行为，而华春莹女士既没有否认，也没有承认。我希望参与讨论的各位，先了解一下为什么中国官方并未给出结论的原因。<a href=\"https://pic2.zhimg.com/v2-a18bbdd2e1b302fbbef102e3290463f9_qhd.jpeg\" class=\"comment_img\" data-width=\"1080\" data-height=\"687\">查看图片</a>",
                "foldType": "raw",
                "ownText": "有暗契要支露，又怕小岛被做文章，自然就是不复具体复读&#34;一贯支持主权杜立与领土完整&#34;，顾左右而言他",
                "type": "text",
                "textLinkType": "none"
            }
        ],
        "excerptTitle": "有暗契要支露，又怕小岛被做文章，自然就…",
        "contentHtml": "<div>有暗契要支露，又怕小岛被做文章，自然就是不复具体复读&#34;一贯支持主权杜立与领土完整&#34;，顾左右而言他 <a data-hash=\"c39f4121c89698006dd97f020769c19b\" href=\"https://www.zhihu.com/people/c39f4121c89698006dd97f020769c19b?source_type=pin\" class=\"member_mention\" data-repin=\"1480473451798933504\" data-hovercard=\"p$b$c39f4121c89698006dd97f020769c19b\">@云舞空城</a>: 我希望大家都能铭记一件事：2022年2月24日，俄罗斯联邦军队在总统普京的命令下，对西乌克兰当局发动了特别军事行动，旨在对西乌“去军事化和去纳粹化，不图谋占领乌克兰”。当天晚些时候，一群西方记者反复质问纠缠中方外交部发言人华春莹女士，要求回答这次军事行动是不是入侵行为，而华春莹女士既没有否认，也没有承认。我希望参与讨论的各位，先了解一下为什么中国官方并未给出结论的原因。<a href=\"https://pic2.zhimg.com/v2-a18bbdd2e1b302fbbef102e3290463f9_qhd.jpeg\" class=\"comment_img\" data-width=\"1080\" data-height=\"687\">查看图片</a></div>",
        "virtuals": {
            "isLiked": false,
            "isFavorited": false,
            "reactionType": "like"
        },
        "reactionRelation": {
            "like": 0,
            "vote": 0
        },
        "topReactions": {
            "like": 26
        },
        "comments": [],
        "author": "gong-ge-cheng-52",
        "likers": [],
        "tags": [],
        "tagSpecials": {},
        "topics": null,
        "questions": null,
        "originPin": {
            "id": "1480201667722928128",
            "type": "pin",
            "state": "normal",
            "url": "https://www.zhihu.com/pin/1480201667722928128",
            "viewPermission": "all",
            "sourcePinId": 0,
            "created": 1645687578,
            "updated": 1645687578,
            "isDeleted": false,
            "selfCreate": false,
            "commentPermission": "all",
            "canTop": false,
            "isTop": false,
            "isAdminCloseRepin": false,
            "adminClosedComment": false,
            "meetReactionGuideConditions": false,
            "likeCount": 1,
            "commentCount": 0,
            "repinCount": 50,
            "reactionCount": 613,
            "favoriteCount": 3,
            "pageViewCount": null,
            "content": [
                {
                    "content": "今天情绪比较激动，因为看到申鹏各路人马纷纷都在嘲讽乌克兰军队没有战斗力，普京大帝威武果断，拜登居然不援助乌克兰，从而得出乌克兰等于阿富汗，俄军是来解放乌克兰的正义之师等等。<br>我希望大家都能铭记这一件事:2022年2月24日，俄罗斯联邦军队在总统普京的命令之下，悍然入侵主权国家乌克兰，此举严重违法国际法，是对联合国安理会权威的挑战。",
                    "foldType": "raw",
                    "ownText": "今天情绪比较激动，因为看到申鹏各路人马纷纷都在嘲讽乌克兰军队没有战斗力，普京大帝威武果断，拜登居然不援助乌克兰，从而得出乌克兰等于阿富汗，俄军是来解放乌克兰的正义之师等等。<br>我希望大家都能铭记这一件事:2022年2月24日，俄罗斯联邦军队在总统普京的命令之下，悍然入侵主权国家乌克兰，此举严重违法国际法，是对联合国安理会权威的挑战。",
                    "type": "text",
                    "textLinkType": "none"
                }
            ],
            "excerptTitle": "今天情绪比较激动，因为看到申鹏各路人马…",
            "contentHtml": "<div>今天情绪比较激动，因为看到申鹏各路人马纷纷都在嘲讽乌克兰军队没有战斗力，普京大帝威武果断，拜登居然不援助乌克兰，从而得出乌克兰等于阿富汗，俄军是来解放乌克兰的正义之师等等。<br/>我希望大家都能铭记这一件事:2022年2月24日，俄罗斯联邦军队在总统普京的命令之下，悍然入侵主权国家乌克兰，此举严重违法国际法，是对联合国安理会权威的挑战。</div>",
            "virtuals": {
                "isLiked": false,
                "isFavorited": false
            },
            "reactionRelation": {
                "like": 0,
                "vote": 0
            },
            "topReactions": {
                "like": 613
            },
            "comments": [],
            "author": {
                "id": "1246d962d433d2f39de439bdebb5ba2c",
                "name": "此人已弃疗",
                "avatarUrl": "https://pic3.zhimg.com/50/v2-8d6feea1fe9ff2a30c5056d8dea00fc8_l.jpg",
                "gender": 1,
                "type": "people",
                "headline": "飞羽遏浪",
                "urlToken": "hu-lu-xiao-xiong-di-37",
                "userType": "people",
                "url": "/people/1246d962d433d2f39de439bdebb5ba2c",
                "vipInfo": {
                    "isVip": false
                },
                "isOrg": false,
                "isAdvertiser": false,
                "isFollowing": false,
                "isFollowed": false,
                "isBlocking": false,
                "isBlocked": false,
                "badgeV2": {
                    "detailBadges": null,
                    "mergedBadges": [],
                    "title": ""
                },
                "reactionCount": 0,
                "followerCount": 1855
            },
            "likers": [],
            "tags": [],
            "tagSpecials": {},
            "topics": null,
            "questions": null,
            "reactionInstruction": {},
            "regulateInfo": {
                "isRegulating": true,
                "reason": "抱歉，引用的原内容不存在"
            },
            "longThreshold": [
                {
                    "width": 1,
                    "height": 3
                },
                {
                    "width": 3,
                    "height": 1
                }
            ]
        },
        "repin": {
            "id": "1480473451798933504",
            "type": "pin",
            "state": "normal",
            "url": "https://www.zhihu.com/pin/1480473451798933504",
            "viewPermission": "all",
            "sourcePinId": 1480201667722928000,
            "created": 1645752376,
            "updated": 1645752376,
            "isDeleted": false,
            "selfCreate": false,
            "commentPermission": "all",
            "canTop": false,
            "isTop": false,
            "isAdminCloseRepin": false,
            "adminClosedComment": false,
            "meetReactionGuideConditions": false,
            "likeCount": 0,
            "commentCount": 61,
            "repinCount": 12,
            "reactionCount": 105,
            "favoriteCount": 0,
            "pageViewCount": null,
            "content": [
                {
                    "content": "我希望大家都能铭记一件事：2022年2月24日，俄罗斯联邦军队在总统普京的命令下，对西乌克兰当局发动了特别军事行动，旨在对西乌“去军事化和去纳粹化，不图谋占领乌克兰”。当天晚些时候，一群西方记者反复质问纠缠中方外交部发言人华春莹女士，要求回答这次军事行动是不是入侵行为，而华春莹女士既没有否认，也没有承认。我希望参与讨论的各位，先了解一下为什么中国官方并未给出结论的原因。<a href=\"https://pic2.zhimg.com/v2-a18bbdd2e1b302fbbef102e3290463f9_qhd.jpeg\" class=\"comment_img\" data-width=\"1080\" data-height=\"687\">查看图片</a>",
                    "foldType": "raw",
                    "ownText": "我希望大家都能铭记一件事：2022年2月24日，俄罗斯联邦军队在总统普京的命令下，对西乌克兰当局发动了特别军事行动，旨在对西乌“去军事化和去纳粹化，不图谋占领乌克兰”。当天晚些时候，一群西方记者反复质问纠缠中方外交部发言人华春莹女士，要求回答这次军事行动是不是入侵行为，而华春莹女士既没有否认，也没有承认。我希望参与讨论的各位，先了解一下为什么中国官方并未给出结论的原因。<a href=\"https://pic2.zhimg.com/v2-a18bbdd2e1b302fbbef102e3290463f9_qhd.jpeg\" class=\"comment_img\" data-width=\"1080\" data-height=\"687\">查看图片</a>",
                    "type": "text",
                    "textLinkType": "none"
                }
            ],
            "excerptTitle": "我希望大家都能铭记一件事：2022年2月24…",
            "contentHtml": "<div>我希望大家都能铭记一件事：2022年2月24日，俄罗斯联邦军队在总统普京的命令下，对西乌克兰当局发动了特别军事行动，旨在对西乌“去军事化和去纳粹化，不图谋占领乌克兰”。当天晚些时候，一群西方记者反复质问纠缠中方外交部发言人华春莹女士，要求回答这次军事行动是不是入侵行为，而华春莹女士既没有否认，也没有承认。我希望参与讨论的各位，先了解一下为什么中国官方并未给出结论的原因。<a href=\"https://pic2.zhimg.com/v2-a18bbdd2e1b302fbbef102e3290463f9_qhd.jpeg\" class=\"comment_img\" data-width=\"1080\" data-height=\"687\">查看图片</a></div>",
            "virtuals": {
                "isLiked": false,
                "isFavorited": false
            },
            "reactionRelation": {
                "like": 0,
                "vote": 0
            },
            "topReactions": {
                "like": 105
            },
            "comments": [],
            "author": {
                "id": "c39f4121c89698006dd97f020769c19b",
                "name": "云舞空城",
                "avatarUrl": "https://pic4.zhimg.com/50/v2-98d8a7f2abd43b4e627f523a96bc5b71_l.jpg",
                "gender": 1,
                "type": "people",
                "headline": "总有一天，我要把中国大好河山看遍，然后从地球科学视角讲给你听",
                "urlToken": "cloudycity",
                "userType": "people",
                "url": "/people/c39f4121c89698006dd97f020769c19b",
                "vipInfo": {
                    "isVip": true,
                    "widget": {
                        "id": 1016,
                        "url": "https://pic3.zhimg.com/50/v2-77f7b64084b4b8ed9ac61b54eabf3e60_r.jpg",
                        "nightModeUrl": "https://pic1.zhimg.com/50/v2-e43b7aef60d4bf8edfe7312121c258d8_r.jpg"
                    }
                },
                "exposedMedal": {
                    "medalId": "972473506181627904",
                    "medalName": "有求必应",
                    "description": "受邀回答 30 个问题",
                    "miniAvatarUrl": "https://picx.zhimg.com/50/v2-1cab443fc5b662f81acd9a00d28e65f7_b.jpg",
                    "avatarUrl": "https://picx.zhimg.com/50/v2-1cab443fc5b662f81acd9a00d28e65f7_b.jpg",
                    "medalAvatarFrame": ""
                },
                "isOrg": false,
                "isAdvertiser": false,
                "isFollowing": false,
                "isFollowed": false,
                "isBlocking": false,
                "isBlocked": false,
                "badge": [
                    {
                        "type": "best_answerer",
                        "description": "优秀回答者",
                        "topics": [
                            {
                                "id": "19578161",
                                "name": "地质学",
                                "type": "topic"
                            }
                        ]
                    }
                ],
                "badgeV2": {
                    "detailBadges": null,
                    "mergedBadges": [
                        {
                            "description": "地质学话题下的优秀答主",
                            "detailType": "best",
                            "icon": "",
                            "nightIcon": "",
                            "sources": [
                                {
                                    "avatarPath": "v2-868da8097679bd23ef55a6f7634d0da6",
                                    "avatarUrl": "https://pic4.zhimg.com/v2-868da8097679bd23ef55a6f7634d0da6_720w.jpg?source=32738c0c",
                                    "description": "",
                                    "id": "19578161",
                                    "name": "地质学",
                                    "priority": 0,
                                    "token": "19578161",
                                    "type": "topic",
                                    "url": "https://www.zhihu.com/topic/19578161"
                                }
                            ],
                            "title": "优秀答主",
                            "type": "best",
                            "url": "https://www.zhihu.com/question/48509984"
                        }
                    ],
                    "title": "地质学话题下的优秀答主"
                },
                "reactionCount": 0,
                "followerCount": 194620
            },
            "likers": [],
            "tags": [],
            "tagSpecials": {},
            "topics": null,
            "questions": null,
            "reactionInstruction": {},
            "regulateInfo": {
                "isRegulating": false
            },
            "longThreshold": [
                {
                    "width": 1,
                    "height": 3
                },
                {
                    "width": 3,
                    "height": 1
                }
            ]
        },
        "reactionInstruction": {},
        "regulateInfo": {
            "isRegulating": false
        },
        "longThreshold": [
            {
                "width": 1,
                "height": 3
            },
            {
                "width": 3,
                "height": 1
            }
        ]
    },
    "1480343277677686784": {
        "id": "1480343277677686784",
        "type": "pin",
        "state": "normal",
        "url": "https://www.zhihu.com/pin/1480343277677686784",
        "viewPermission": "all",
        "sourcePinId": 0,
        "created": 1645721340,
        "updated": 1645721340,
        "isDeleted": false,
        "selfCreate": false,
        "commentPermission": "all",
        "canTop": false,
        "isTop": false,
        "isAdminCloseRepin": false,
        "adminClosedComment": false,
        "meetReactionGuideConditions": false,
        "likeCount": 0,
        "commentCount": 4,
        "repinCount": 2,
        "reactionCount": 57,
        "favoriteCount": 0,
        "pageViewCount": null,
        "content": [
            {
                "content": "全世界人民团结起来，反对任何帝国主义，社会帝国主义发动的侵略战争，特别要反对以原子弹为武器的侵略战争！如果这种战争发生，全世界人民就应以革命战争消灭侵略战争，从现在起就要有所准备！<br>Chairman Mao",
                "foldType": "raw",
                "ownText": "全世界人民团结起来，反对任何帝国主义，社会帝国主义发动的侵略战争，特别要反对以原子弹为武器的侵略战争！如果这种战争发生，全世界人民就应以革命战争消灭侵略战争，从现在起就要有所准备！<br>Chairman Mao",
                "type": "text",
                "textLinkType": "none"
            },
            {
                "url": "https://pic4.zhimg.com/80/v2-b4a0bed3846cfe38265ab6afac331f9b_qhd.jpg",
                "originalUrl": "https://pic4.zhimg.com/80/v2-b4a0bed3846cfe38265ab6afac331f9b_qhd.jpg",
                "isWatermark": false,
                "watermarkUrl": "https://pic4.zhimg.com/80/v2-3c6a2bde86e0d3a5cc798a06a3f92e05_qhd.jpg",
                "thumbnail": "",
                "width": 1200,
                "height": 1600,
                "type": "image",
                "isGif": false,
                "isLong": false
            }
        ],
        "excerptTitle": "全世界人民团结起来，反对任何帝国主义，…",
        "contentHtml": "<div>全世界人民团结起来，反对任何帝国主义，社会帝国主义发动的侵略战争，特别要反对以原子弹为武器的侵略战争！如果这种战争发生，全世界人民就应以革命战争消灭侵略战争，从现在起就要有所准备！<br/>Chairman Mao</div><img src=\"https://pic4.zhimg.com/50/v2-b4a0bed3846cfe38265ab6afac331f9b_b.jpg\" data-rawwidth=\"1200\" data-rawheight=\"1600\" class=\"origin_image zh-lightbox-thumb\" width=\"1200\" data-original=\"https://pic4.zhimg.com/50/v2-b4a0bed3846cfe38265ab6afac331f9b_r.jpg\">",
        "virtuals": {
            "isLiked": false,
            "isFavorited": false
        },
        "reactionRelation": {
            "like": 0,
            "vote": 0
        },
        "topReactions": {
            "like": 57
        },
        "comments": [],
        "author": "gong-ge-cheng-52",
        "likers": [],
        "tags": [],
        "tagSpecials": {},
        "topics": null,
        "questions": null,
        "reactionInstruction": {},
        "regulateInfo": {
            "isRegulating": false
        },
        "longThreshold": [
            {
                "width": 1,
                "height": 3
            },
            {
                "width": 3,
                "height": 1
            }
        ]
    },
    "1480176592646938624": {
        "id": "1480176592646938624",
        "type": "pin",
        "state": "normal",
        "url": "https://www.zhihu.com/pin/1480176592646938624",
        "viewPermission": "all",
        "sourcePinId": 1480135326295863300,
        "created": 1645681600,
        "updated": 1645681600,
        "isDeleted": false,
        "selfCreate": false,
        "commentPermission": "all",
        "canTop": false,
        "isTop": false,
        "isAdminCloseRepin": false,
        "adminClosedComment": false,
        "meetReactionGuideConditions": false,
        "likeCount": 0,
        "commentCount": 4,
        "repinCount": 0,
        "reactionCount": 35,
        "favoriteCount": 1,
        "pageViewCount": null,
        "content": [
            {
                "content": "&#34;华北非军事区&#34;&#34;翼东防赤自治正腐&#34;",
                "foldType": "raw",
                "ownText": "&#34;华北非军事区&#34;&#34;翼东防赤自治正腐&#34;",
                "type": "text",
                "textLinkType": "none"
            }
        ],
        "excerptTitle": "\"华北非军事区\"\"翼东防赤自治正腐\"",
        "contentHtml": "<div>&#34;华北非军事区&#34;&#34;翼东防赤自治正腐&#34;</div>",
        "virtuals": {
            "isLiked": false,
            "isFavorited": false,
            "reactionType": "like"
        },
        "reactionRelation": {
            "like": 0,
            "vote": 0
        },
        "topReactions": {
            "like": 35
        },
        "comments": [],
        "author": "gong-ge-cheng-52",
        "likers": [],
        "tags": [],
        "tagSpecials": {},
        "topics": null,
        "questions": null,
        "originPin": {
            "id": "1480135326295863296",
            "type": "pin",
            "state": "normal",
            "url": "https://www.zhihu.com/pin/1480135326295863296",
            "viewPermission": "all",
            "sourcePinId": 0,
            "created": 1645671761,
            "updated": 1645671761,
            "isDeleted": false,
            "selfCreate": false,
            "commentPermission": "all",
            "canTop": false,
            "isTop": false,
            "isAdminCloseRepin": false,
            "adminClosedComment": false,
            "meetReactionGuideConditions": false,
            "likeCount": 0,
            "commentCount": 4,
            "repinCount": 2,
            "reactionCount": 33,
            "favoriteCount": 0,
            "pageViewCount": null,
            "content": [
                {
                    "content": "普京正式宣布在乌克兰开始军事行动，主要目的是实现乌克兰非军事化，不计划占领乌克兰。",
                    "foldType": "raw",
                    "ownText": "普京正式宣布在乌克兰开始军事行动，主要目的是实现乌克兰非军事化，不计划占领乌克兰。",
                    "type": "text",
                    "textLinkType": "none"
                }
            ],
            "excerptTitle": "普京正式宣布在乌克兰开始军事行动，主要…",
            "contentHtml": "<div>普京正式宣布在乌克兰开始军事行动，主要目的是实现乌克兰非军事化，不计划占领乌克兰。</div>",
            "virtuals": {
                "isLiked": false,
                "isFavorited": false
            },
            "reactionRelation": {
                "like": 0,
                "vote": 0
            },
            "topReactions": {
                "like": 33
            },
            "comments": [],
            "author": {
                "id": "78a2d2e5d1f4268340318b4e92cce26f",
                "name": "李君三号机",
                "avatarUrl": "https://pic1.zhimg.com/50/v2-41c8eaa40b123955f0a15958506a0d40_l.jpg",
                "gender": 1,
                "type": "people",
                "headline": "大号@李君，二号@李君二号机被封了的话，就用这个号。",
                "urlToken": "li-jun-san-hao-ji",
                "userType": "people",
                "url": "/people/78a2d2e5d1f4268340318b4e92cce26f",
                "vipInfo": {
                    "isVip": false,
                    "widget": {
                        "id": 40065,
                        "url": "https://pic1.zhimg.com/v2-9d6bf92a514bdd492483df0aa390067b.png",
                        "nightModeUrl": "https://pic4.zhimg.com/v2-9d6bf92a514bdd492483df0aa390067b.png"
                    }
                },
                "exposedMedal": {
                    "medalId": "972477022068568064",
                    "medalName": "备受瞩目",
                    "description": "被 1000 个人关注",
                    "miniAvatarUrl": "https://pic2.zhimg.com/50/v2-6da117205088242db9cd82e48b28640d_b.jpg",
                    "avatarUrl": "https://pic2.zhimg.com/50/v2-6da117205088242db9cd82e48b28640d_b.jpg",
                    "medalAvatarFrame": ""
                },
                "isOrg": false,
                "isAdvertiser": false,
                "isFollowing": false,
                "isFollowed": false,
                "isBlocking": false,
                "isBlocked": false,
                "badgeV2": {
                    "detailBadges": null,
                    "mergedBadges": [],
                    "title": ""
                },
                "reactionCount": 0,
                "followerCount": 8988
            },
            "likers": [],
            "tags": [],
            "tagSpecials": {},
            "topics": null,
            "questions": null,
            "reactionInstruction": {},
            "regulateInfo": {
                "isRegulating": false
            },
            "longThreshold": [
                {
                    "width": 1,
                    "height": 3
                },
                {
                    "width": 3,
                    "height": 1
                }
            ]
        },
        "repin": {
            "id": "1480135326295863296",
            "type": "pin",
            "state": "normal",
            "url": "https://www.zhihu.com/pin/1480135326295863296",
            "viewPermission": "all",
            "sourcePinId": 0,
            "created": 1645671761,
            "updated": 1645671761,
            "isDeleted": false,
            "selfCreate": false,
            "commentPermission": "all",
            "canTop": false,
            "isTop": false,
            "isAdminCloseRepin": false,
            "adminClosedComment": false,
            "meetReactionGuideConditions": false,
            "likeCount": 0,
            "commentCount": 4,
            "repinCount": 2,
            "reactionCount": 33,
            "favoriteCount": 0,
            "pageViewCount": null,
            "content": [
                {
                    "content": "普京正式宣布在乌克兰开始军事行动，主要目的是实现乌克兰非军事化，不计划占领乌克兰。",
                    "foldType": "raw",
                    "ownText": "普京正式宣布在乌克兰开始军事行动，主要目的是实现乌克兰非军事化，不计划占领乌克兰。",
                    "type": "text",
                    "textLinkType": "none"
                }
            ],
            "excerptTitle": "普京正式宣布在乌克兰开始军事行动，主要…",
            "contentHtml": "<div>普京正式宣布在乌克兰开始军事行动，主要目的是实现乌克兰非军事化，不计划占领乌克兰。</div>",
            "virtuals": {
                "isLiked": false,
                "isFavorited": false
            },
            "reactionRelation": {
                "like": 0,
                "vote": 0
            },
            "topReactions": {
                "like": 33
            },
            "comments": [],
            "author": {
                "id": "78a2d2e5d1f4268340318b4e92cce26f",
                "name": "李君三号机",
                "avatarUrl": "https://pic1.zhimg.com/50/v2-41c8eaa40b123955f0a15958506a0d40_l.jpg",
                "gender": 1,
                "type": "people",
                "headline": "大号@李君，二号@李君二号机被封了的话，就用这个号。",
                "urlToken": "li-jun-san-hao-ji",
                "userType": "people",
                "url": "/people/78a2d2e5d1f4268340318b4e92cce26f",
                "vipInfo": {
                    "isVip": false,
                    "widget": {
                        "id": 40065,
                        "url": "https://pic1.zhimg.com/v2-9d6bf92a514bdd492483df0aa390067b.png",
                        "nightModeUrl": "https://pic4.zhimg.com/v2-9d6bf92a514bdd492483df0aa390067b.png"
                    }
                },
                "exposedMedal": {
                    "medalId": "972477022068568064",
                    "medalName": "备受瞩目",
                    "description": "被 1000 个人关注",
                    "miniAvatarUrl": "https://pic2.zhimg.com/50/v2-6da117205088242db9cd82e48b28640d_b.jpg",
                    "avatarUrl": "https://pic2.zhimg.com/50/v2-6da117205088242db9cd82e48b28640d_b.jpg",
                    "medalAvatarFrame": ""
                },
                "isOrg": false,
                "isAdvertiser": false,
                "isFollowing": false,
                "isFollowed": false,
                "isBlocking": false,
                "isBlocked": false,
                "badgeV2": {
                    "detailBadges": null,
                    "mergedBadges": [],
                    "title": ""
                },
                "reactionCount": 0,
                "followerCount": 8988
            },
            "likers": [],
            "tags": [],
            "tagSpecials": {},
            "topics": null,
            "questions": null,
            "reactionInstruction": {},
            "regulateInfo": {
                "isRegulating": false
            },
            "longThreshold": [
                {
                    "width": 1,
                    "height": 3
                },
                {
                    "width": 3,
                    "height": 1
                }
            ]
        },
        "reactionInstruction": {},
        "regulateInfo": {
            "isRegulating": false
        },
        "longThreshold": [
            {
                "width": 1,
                "height": 3
            },
            {
                "width": 3,
                "height": 1
            }
        ]
    }
}