{
    "1341550670697287680": {
        "id": "1341550670697287680",
        "type": "pin",
        "state": "normal",
        "url": "https://www.zhihu.com/pin/1341550670697287680",
        "viewPermission": "all",
        "sourcePinId": 0,
        "created": 1612630604,
        "updated": 1612630604,
        "isDeleted": false,
        "selfCreate": false,
        "commentPermission": "all",
        "canTop": false,
        "isTop": false,
        "isAdminCloseRepin": false,
        "adminClosedComment": false,
        "meetReactionGuideConditions": false,
        "likeCount": 0,
        "commentCount": 0,
        "repinCount": 0,
        "reactionCount": 30,
        "favoriteCount": 0,
        "pageViewCount": null,
        "content": [
            {
                "content": "关于郑州铁路局问题，Chair指出是&#34;生产关系破坏生产力&#34;，翻风的后果",
                "foldType": "raw",
                "ownText": "关于郑州铁路局问题，Chair指出是&#34;生产关系破坏生产力&#34;，翻风的后果",
                "type": "text",
                "textLinkType": "none"
            },
            {
                "url": "https://pic1.zhimg.com/80/v2-eca5226dcf692fb8a148c639220315d2_qhd.jpg",
                "originalUrl": "https://pic1.zhimg.com/80/v2-eca5226dcf692fb8a148c639220315d2_qhd.jpg",
                "isWatermark": false,
                "watermarkUrl": "https://pic3.zhimg.com/80/v2-584ded123ea285a61ebe82c88f168318_qhd.jpg",
                "thumbnail": "",
                "width": 1200,
                "height": 1600,
                "type": "image",
                "isGif": false,
                "isLong": false
            },
            {
                "url": "https://pic2.zhimg.com/80/v2-51171122f53b5afca1f5106658309757_qhd.jpg",
                "originalUrl": "https://pic2.zhimg.com/80/v2-51171122f53b5afca1f5106658309757_qhd.jpg",
                "isWatermark": false,
                "watermarkUrl": "https://pic1.zhimg.com/80/v2-26e49eeb895f7430596ea55a45167152_qhd.jpg",
                "thumbnail": "",
                "width": 1200,
                "height": 900,
                "type": "image",
                "isGif": false,
                "isLong": false
            },
            {
                "url": "https://pic2.zhimg.com/80/v2-c200b7cadab737296bb2ee45120fbf0b_qhd.jpg",
                "originalUrl": "https://pic2.zhimg.com/80/v2-c200b7cadab737296bb2ee45120fbf0b_qhd.jpg",
                "isWatermark": false,
                "watermarkUrl": "https://picx.zhimg.com/80/v2-eab8015b10d0c244e7f45915fa5dfc01_qhd.jpg",
                "thumbnail": "",
                "width": 1200,
                "height": 900,
                "type": "image",
                "isGif": false,
                "isLong": false
            },
            {
                "url": "https://pic3.zhimg.com/80/v2-80a9d4e0fa17211fb8396035cc3d4510_qhd.jpg",
                "originalUrl": "https://pic3.zhimg.com/80/v2-80a9d4e0fa17211fb8396035cc3d4510_qhd.jpg",
                "isWatermark": false,
                "watermarkUrl": "https://pic3.zhimg.com/80/v2-96f7d1f73172f91b062db30d11266c8c_qhd.jpg",
                "thumbnail": "",
                "width": 1200,
                "height": 900,
                "type": "image",
                "isGif": false,
                "isLong": false
            }
        ],
        "excerptTitle": "关于郑州铁路局问题，Chair指出是\"生产关…",
        "contentHtml": "<div>关于郑州铁路局问题，Chair指出是&#34;生产关系破坏生产力&#34;，翻风的后果</div><img src=\"https://pic3.zhimg.com/50/v2-eca5226dcf692fb8a148c639220315d2_b.jpg\" data-rawwidth=\"1200\" data-rawheight=\"1600\" class=\"origin_image zh-lightbox-thumb\" width=\"1200\" data-original=\"https://pic3.zhimg.com/50/v2-eca5226dcf692fb8a148c639220315d2_r.jpg\"><img src=\"https://pic4.zhimg.com/50/v2-51171122f53b5afca1f5106658309757_b.jpg\" data-rawwidth=\"1200\" data-rawheight=\"900\" class=\"origin_image zh-lightbox-thumb\" width=\"1200\" data-original=\"https://pic4.zhimg.com/50/v2-51171122f53b5afca1f5106658309757_r.jpg\"><img src=\"https://pic4.zhimg.com/50/v2-c200b7cadab737296bb2ee45120fbf0b_b.jpg\" data-rawwidth=\"1200\" data-rawheight=\"900\" class=\"origin_image zh-lightbox-thumb\" width=\"1200\" data-original=\"https://pic4.zhimg.com/50/v2-c200b7cadab737296bb2ee45120fbf0b_r.jpg\"><img src=\"https://pic1.zhimg.com/50/v2-80a9d4e0fa17211fb8396035cc3d4510_b.jpg\" data-rawwidth=\"1200\" data-rawheight=\"900\" class=\"origin_image zh-lightbox-thumb\" width=\"1200\" data-original=\"https://pic1.zhimg.com/50/v2-80a9d4e0fa17211fb8396035cc3d4510_r.jpg\">",
        "virtuals": {
            "isLiked": false,
            "isFavorited": false,
            "reactionType": "like"
        },
        "reactionRelation": {
            "like": 0,
            "vote": 0
        },
        "topReactions": {
            "like": 30
        },
        "comments": [],
        "author": "gong-ge-cheng-52",
        "likers": [],
        "tags": [],
        "tagSpecials": {},
        "topics": null,
        "questions": null,
        "reactionInstruction": {},
        "regulateInfo": {
            "isRegulating": false
        },
        "longThreshold": [
            {
                "width": 1,
                "height": 3
            },
            {
                "width": 3,
                "height": 1
            }
        ]
    },
    "1340608160298590208": {
        "id": "1340608160298590208",
        "type": "pin",
        "state": "normal",
        "url": "https://www.zhihu.com/pin/1340608160298590208",
        "viewPermission": "all",
        "sourcePinId": 0,
        "created": 1612405892,
        "updated": 1612405892,
        "isDeleted": false,
        "selfCreate": false,
        "commentPermission": "all",
        "canTop": false,
        "isTop": false,
        "isAdminCloseRepin": false,
        "adminClosedComment": false,
        "meetReactionGuideConditions": false,
        "likeCount": 0,
        "commentCount": 1,
        "repinCount": 0,
        "reactionCount": 34,
        "favoriteCount": 0,
        "pageViewCount": null,
        "content": [
            {
                "content": "孔网上还真有下图这样一张纸标80元的(然而都有图了我为什么要买呢)",
                "foldType": "raw",
                "ownText": "孔网上还真有下图这样一张纸标80元的(然而都有图了我为什么要买呢)",
                "type": "text",
                "textLinkType": "none"
            },
            {
                "url": "https://picx.zhimg.com/80/v2-173b0af77da9c8d52d000cb7dda1f7c3_qhd.jpg",
                "originalUrl": "https://picx.zhimg.com/80/v2-173b0af77da9c8d52d000cb7dda1f7c3_qhd.jpg",
                "isWatermark": false,
                "watermarkUrl": "https://pic1.zhimg.com/80/v2-9997aa18981f7b27c85a62bb8be6a2a2_qhd.jpg",
                "thumbnail": "",
                "width": 466,
                "height": 588,
                "type": "image",
                "isGif": false,
                "isLong": false
            }
        ],
        "excerptTitle": "孔网上还真有下图这样一张纸标80元的(然…",
        "contentHtml": "<div>孔网上还真有下图这样一张纸标80元的(然而都有图了我为什么要买呢)</div><img src=\"https://pic4.zhimg.com/50/v2-173b0af77da9c8d52d000cb7dda1f7c3_b.jpg\" data-rawwidth=\"466\" data-rawheight=\"588\" class=\"origin_image zh-lightbox-thumb\" width=\"466\" data-original=\"https://pic4.zhimg.com/50/v2-173b0af77da9c8d52d000cb7dda1f7c3_r.jpg\">",
        "virtuals": {
            "isLiked": false,
            "isFavorited": false,
            "reactionType": "like"
        },
        "reactionRelation": {
            "like": 0,
            "vote": 0
        },
        "topReactions": {
            "like": 34
        },
        "comments": [],
        "author": "gong-ge-cheng-52",
        "likers": [],
        "tags": [],
        "tagSpecials": {},
        "topics": null,
        "questions": null,
        "reactionInstruction": {},
        "regulateInfo": {
            "isRegulating": false
        },
        "longThreshold": [
            {
                "width": 1,
                "height": 3
            },
            {
                "width": 3,
                "height": 1
            }
        ]
    },
    "1336037805651562496": {
        "id": "1336037805651562496",
        "type": "pin",
        "state": "normal",
        "url": "https://www.zhihu.com/pin/1336037805651562496",
        "viewPermission": "all",
        "sourcePinId": 0,
        "created": 1611316235,
        "updated": 1611316235,
        "isDeleted": false,
        "selfCreate": false,
        "commentPermission": "all",
        "canTop": false,
        "isTop": false,
        "isAdminCloseRepin": false,
        "adminClosedComment": false,
        "meetReactionGuideConditions": false,
        "likeCount": 0,
        "commentCount": 0,
        "repinCount": 0,
        "reactionCount": 19,
        "favoriteCount": 0,
        "pageViewCount": null,
        "content": [
            {
                "content": " 鲁迅《致胡今虚信（一九三四年六月九日）》<br>今虚先生：<br>　　你给我的七月三日的信，我是八月一日收到的，我现在就是通信也不大便当。<br>　　你说我最近二三年来，沉静而且隐藏，这是不确的，事实也许正相反。不过环境和先前不同，我连改名发表文章，也还受叭儿的告密，倘不是“不痛不痒，痛煞痒煞”的文章，我恐怕你也看不见的。《三闲集》之后，还有一本《二心集》，不知道见过没有，这也许比较好一点。<br>　　《三闲集》里所说的骂，是事实，别处我不知道，上海确是的，这当然是一部分，然而连住在我寓里的学生，也因而憎恶我，说因为住在我寓里，他的朋友都看他不起了。我要回避，是决非太过的，我至今还相信并非太过。即使今年竟与曾今可同流，我也毫没有忏悔我的所说的意思。<br>　　【好的青年，自然有的，我亲见他们遇害，亲见他们受苦，如果没有这些人，我真可以“息息肩”了。】现在所做的虽只是些无聊事，但人也只有人的本领，一部分人以为非必要者，一部分人却以为必要的。而且两手也只能做这些事，学术文章要参考书，小说也须能往各处走动，考察，但现在我所处的境遇，都不能。<br>　　我很感谢你对于我的希望，只要能力所及，我自然想做的。不过处境不同，彼此不能知道底细，所以你信中所说，我也很有些地方不能承认。这须身临其境，才可明白，用笔是一时说不清楚的。但也没有说清的必要，就此收场罢。<br>　　此复，并颂<br>进步。<br>　　迅 上八月一夜 ",
                "foldType": "raw",
                "ownText": " 鲁迅《致胡今虚信（一九三四年六月九日）》<br>今虚先生：<br>　　你给我的七月三日的信，我是八月一日收到的，我现在就是通信也不大便当。<br>　　你说我最近二三年来，沉静而且隐藏，这是不确的，事实也许正相反。不过环境和先前不同，我连改名发表文章，也还受叭儿的告密，倘不是“不痛不痒，痛煞痒煞”的文章，我恐怕你也看不见的。《三闲集》之后，还有一本《二心集》，不知道见过没有，这也许比较好一点。<br>　　《三闲集》里所说的骂，是事实，别处我不知道，上海确是的，这当然是一部分，然而连住在我寓里的学生，也因而憎恶我，说因为住在我寓里，他的朋友都看他不起了。我要回避，是决非太过的，我至今还相信并非太过。即使今年竟与曾今可同流，我也毫没有忏悔我的所说的意思。<br>　　【好的青年，自然有的，我亲见他们遇害，亲见他们受苦，如果没有这些人，我真可以“息息肩”了。】现在所做的虽只是些无聊事，但人也只有人的本领，一部分人以为非必要者，一部分人却以为必要的。而且两手也只能做这些事，学术文章要参考书，小说也须能往各处走动，考察，但现在我所处的境遇，都不能。<br>　　我很感谢你对于我的希望，只要能力所及，我自然想做的。不过处境不同，彼此不能知道底细，所以你信中所说，我也很有些地方不能承认。这须身临其境，才可明白，用笔是一时说不清楚的。但也没有说清的必要，就此收场罢。<br>　　此复，并颂<br>进步。<br>　　迅 上八月一夜",
                "type": "text",
                "textLinkType": "none"
            }
        ],
        "excerptTitle": "鲁迅《致胡今虚信（一九三四年六月九日）…",
        "contentHtml": "<div> 鲁迅《致胡今虚信（一九三四年六月九日）》<br/>今虚先生：<br/>　　你给我的七月三日的信，我是八月一日收到的，我现在就是通信也不大便当。<br/>　　你说我最近二三年来，沉静而且隐藏，这是不确的，事实也许正相反。不过环境和先前不同，我连改名发表文章，也还受叭儿的告密，倘不是“不痛不痒，痛煞痒煞”的文章，我恐怕你也看不见的。《三闲集》之后，还有一本《二心集》，不知道见过没有，这也许比较好一点。<br/>　　《三闲集》里所说的骂，是事实，别处我不知道，上海确是的，这当然是一部分，然而连住在我寓里的学生，也因而憎恶我，说因为住在我寓里，他的朋友都看他不起了。我要回避，是决非太过的，我至今还相信并非太过。即使今年竟与曾今可同流，我也毫没有忏悔我的所说的意思。<br/>　　【好的青年，自然有的，我亲见他们遇害，亲见他们受苦，如果没有这些人，我真可以“息息肩”了。】现在所做的虽只是些无聊事，但人也只有人的本领，一部分人以为非必要者，一部分人却以为必要的。而且两手也只能做这些事，学术文章要参考书，小说也须能往各处走动，考察，但现在我所处的境遇，都不能。<br/>　　我很感谢你对于我的希望，只要能力所及，我自然想做的。不过处境不同，彼此不能知道底细，所以你信中所说，我也很有些地方不能承认。这须身临其境，才可明白，用笔是一时说不清楚的。但也没有说清的必要，就此收场罢。<br/>　　此复，并颂<br/>进步。<br/>　　迅 上八月一夜 </div>",
        "virtuals": {
            "isLiked": false,
            "isFavorited": false,
            "reactionType": "like"
        },
        "reactionRelation": {
            "like": 0,
            "vote": 0
        },
        "topReactions": {
            "like": 19
        },
        "comments": [],
        "author": "gong-ge-cheng-52",
        "likers": [],
        "tags": [],
        "tagSpecials": {},
        "topics": null,
        "questions": null,
        "reactionInstruction": {},
        "regulateInfo": {
            "isRegulating": false
        },
        "longThreshold": [
            {
                "width": 1,
                "height": 3
            },
            {
                "width": 3,
                "height": 1
            }
        ]
    },
    "1336036832102617088": {
        "id": "1336036832102617088",
        "type": "pin",
        "state": "normal",
        "url": "https://www.zhihu.com/pin/1336036832102617088",
        "viewPermission": "all",
        "sourcePinId": 0,
        "created": 1611316003,
        "updated": 1611316003,
        "isDeleted": false,
        "selfCreate": false,
        "commentPermission": "all",
        "canTop": false,
        "isTop": false,
        "isAdminCloseRepin": false,
        "adminClosedComment": false,
        "meetReactionGuideConditions": false,
        "likeCount": 0,
        "commentCount": 0,
        "repinCount": 0,
        "reactionCount": 13,
        "favoriteCount": 0,
        "pageViewCount": null,
        "content": [
            {
                "content": " 鲁迅《 关于中国的两三件事》（节段）<br> 三 关于中国的监狱 <br>…………<br>然而，在这样的近于完美的监狱里，却还剩着一种缺点。至今为止，对于思想上的事，都没有很留心。为要弥补这缺点，是在近来新发明的叫作“反省院”的特种监狱里，施着教育。我还没有到那里面去反省过，所以并不知道详情，但要而言之，好像是将三民主义时时讲讲给犯人听，使他反省着自己的错误。听人说，此外还得做排击共产主义的论文。如果不肯做，或者不能做，那自然，非终身反省不可了，而做得不够格，也还是非反省到死则不可。现在是进去的也有，出来的也有，因为听说还得添造反省院，可见还是进去的多了。考完放出的良民，偶尔也可以遇见，但仿佛大抵是萎靡不振，恐怕是在反省和毕业论文上，将力气使尽了罢。那前途，是在没有希望这一面的。 ",
                "foldType": "raw",
                "ownText": " 鲁迅《 关于中国的两三件事》（节段）<br> 三 关于中国的监狱 <br>…………<br>然而，在这样的近于完美的监狱里，却还剩着一种缺点。至今为止，对于思想上的事，都没有很留心。为要弥补这缺点，是在近来新发明的叫作“反省院”的特种监狱里，施着教育。我还没有到那里面去反省过，所以并不知道详情，但要而言之，好像是将三民主义时时讲讲给犯人听，使他反省着自己的错误。听人说，此外还得做排击共产主义的论文。如果不肯做，或者不能做，那自然，非终身反省不可了，而做得不够格，也还是非反省到死则不可。现在是进去的也有，出来的也有，因为听说还得添造反省院，可见还是进去的多了。考完放出的良民，偶尔也可以遇见，但仿佛大抵是萎靡不振，恐怕是在反省和毕业论文上，将力气使尽了罢。那前途，是在没有希望这一面的。",
                "type": "text",
                "textLinkType": "none"
            }
        ],
        "excerptTitle": "鲁迅《 关于中国的两三件事》（节段） 三…",
        "contentHtml": "<div> 鲁迅《 关于中国的两三件事》（节段）<br/> 三 关于中国的监狱 <br/>…………<br/>然而，在这样的近于完美的监狱里，却还剩着一种缺点。至今为止，对于思想上的事，都没有很留心。为要弥补这缺点，是在近来新发明的叫作“反省院”的特种监狱里，施着教育。我还没有到那里面去反省过，所以并不知道详情，但要而言之，好像是将三民主义时时讲讲给犯人听，使他反省着自己的错误。听人说，此外还得做排击共产主义的论文。如果不肯做，或者不能做，那自然，非终身反省不可了，而做得不够格，也还是非反省到死则不可。现在是进去的也有，出来的也有，因为听说还得添造反省院，可见还是进去的多了。考完放出的良民，偶尔也可以遇见，但仿佛大抵是萎靡不振，恐怕是在反省和毕业论文上，将力气使尽了罢。那前途，是在没有希望这一面的。 </div>",
        "virtuals": {
            "isLiked": false,
            "isFavorited": false,
            "reactionType": "like"
        },
        "reactionRelation": {
            "like": 0,
            "vote": 0
        },
        "topReactions": {
            "like": 13
        },
        "comments": [],
        "author": "gong-ge-cheng-52",
        "likers": [],
        "tags": [],
        "tagSpecials": {},
        "topics": null,
        "questions": null,
        "reactionInstruction": {},
        "regulateInfo": {
            "isRegulating": false
        },
        "longThreshold": [
            {
                "width": 1,
                "height": 3
            },
            {
                "width": 3,
                "height": 1
            }
        ]
    },
    "1336036288202801152": {
        "id": "1336036288202801152",
        "type": "pin",
        "state": "normal",
        "url": "https://www.zhihu.com/pin/1336036288202801152",
        "viewPermission": "all",
        "sourcePinId": 0,
        "created": 1611315873,
        "updated": 1611315873,
        "isDeleted": false,
        "selfCreate": false,
        "commentPermission": "all",
        "canTop": false,
        "isTop": false,
        "isAdminCloseRepin": false,
        "adminClosedComment": false,
        "meetReactionGuideConditions": false,
        "likeCount": 0,
        "commentCount": 1,
        "repinCount": 0,
        "reactionCount": 19,
        "favoriteCount": 0,
        "pageViewCount": null,
        "content": [
            {
                "content": "鲁迅<br>《铲共大观》<br>仍是四月六日的《申报》上，又有一段《长沙通信》，叙湘省破获共产党省委会，“处死刑者三十余人，黄花节斩决八名”。其中有几处文笔做得极好，抄一点在下面：<br>……是日执行之后，因马(淑纯，十六岁;志纯，十四岁)傅(凤君，二十四岁)三犯，系属女性，全城男女往观者，终日人山人海，拥挤不通。加以共魁郭亮之首级，又悬之司门口示众，往观者更众。司门口八角亭一带，交通为之断绝。计南门一带民众，则看郭亮首级后，又赴教育会看女尸。北门一带民众，则在教育会看女尸后，又往司门口看郭首级。全城扰攘，铲共空气，为之骤张;直至晚间，观者始不似日间之拥挤。”<br>抄完之后，觉得颇不妥。因为我就想发一点议论，然而立刻又想到恐怕一面有人疑心我在冷嘲(有人说，我是只喜欢冷嘲的)，一面又有人责罚我传播黑暗，因此咒我灭亡，自己带着一切黑暗到地底里去。但我熬不住，——别的议论就少发一点罢，单从 “为艺术的艺术”说起来，你看这不过一百五六十字的文章，就多么有力。我一读，便仿佛看见司门口挂着一颗头，教育会前列着三具不连头的女尸。而且至少是赤膊的，——但这也许我猜得不对，是我自己太黑暗之故。而许多“民众”，一批是由北往南，一批是由南往北，挤着，嚷着……。再添一点蛇足，是脸上都表现着或者正在神往，或者已经满足的神情。在我所见的“革命文学”或“写实文学”中，还没有遇到过这么强有力的文学。批评家罗喀绥夫斯奇说的罢： “安特列夫竭力要我们恐怖，我们却并不怕;契呵夫不这样，我们倒恐怖了。”这百余字实在抵得上小说一大堆，何况又是事实。<br>且住。再说下去，恐怕有些英雄们又要责我散布黑暗，阻碍革命了。一理是也有一理的，现在易犯嫌疑，忠实同志被误解为共党，或关或释的，报上向来常见。万一不幸，沉冤莫白，那真是……。倘使常常提起这些来，也许未免会短壮士之气。但是，革命被头挂退的事是很少有的，革命的完结，大概只由于投机者的潜入。也就是内里蛀空。这并非指赤化，任何主义的革命都如此。但不是正因为黑暗，正因为没有出路，所以要革命的么?倘必须前面贴着“光明”和“出路”的包票，这才雄赳赳地去革命，那就不但不是革命者，简直连投机家都不如了。虽是投机，成败之数也不能预卜的。<br>我临末还要揭出一点黑暗，是我们中国现在 (现在!不是超时代的)民众，其实还不很管什么党，只要看“头”和“女尸”。只要有，无论谁的都有人看，拳匪之乱，清末党狱，民二，去年和今年，在这短短的二十年中，我已经目睹或耳闻了好几次了。<br>四月十日。",
                "foldType": "raw",
                "ownText": "鲁迅<br>《铲共大观》<br>仍是四月六日的《申报》上，又有一段《长沙通信》，叙湘省破获共产党省委会，“处死刑者三十余人，黄花节斩决八名”。其中有几处文笔做得极好，抄一点在下面：<br>……是日执行之后，因马(淑纯，十六岁;志纯，十四岁)傅(凤君，二十四岁)三犯，系属女性，全城男女往观者，终日人山人海，拥挤不通。加以共魁郭亮之首级，又悬之司门口示众，往观者更众。司门口八角亭一带，交通为之断绝。计南门一带民众，则看郭亮首级后，又赴教育会看女尸。北门一带民众，则在教育会看女尸后，又往司门口看郭首级。全城扰攘，铲共空气，为之骤张;直至晚间，观者始不似日间之拥挤。”<br>抄完之后，觉得颇不妥。因为我就想发一点议论，然而立刻又想到恐怕一面有人疑心我在冷嘲(有人说，我是只喜欢冷嘲的)，一面又有人责罚我传播黑暗，因此咒我灭亡，自己带着一切黑暗到地底里去。但我熬不住，——别的议论就少发一点罢，单从 “为艺术的艺术”说起来，你看这不过一百五六十字的文章，就多么有力。我一读，便仿佛看见司门口挂着一颗头，教育会前列着三具不连头的女尸。而且至少是赤膊的，——但这也许我猜得不对，是我自己太黑暗之故。而许多“民众”，一批是由北往南，一批是由南往北，挤着，嚷着……。再添一点蛇足，是脸上都表现着或者正在神往，或者已经满足的神情。在我所见的“革命文学”或“写实文学”中，还没有遇到过这么强有力的文学。批评家罗喀绥夫斯奇说的罢： “安特列夫竭力要我们恐怖，我们却并不怕;契呵夫不这样，我们倒恐怖了。”这百余字实在抵得上小说一大堆，何况又是事实。<br>且住。再说下去，恐怕有些英雄们又要责我散布黑暗，阻碍革命了。一理是也有一理的，现在易犯嫌疑，忠实同志被误解为共党，或关或释的，报上向来常见。万一不幸，沉冤莫白，那真是……。倘使常常提起这些来，也许未免会短壮士之气。但是，革命被头挂退的事是很少有的，革命的完结，大概只由于投机者的潜入。也就是内里蛀空。这并非指赤化，任何主义的革命都如此。但不是正因为黑暗，正因为没有出路，所以要革命的么?倘必须前面贴着“光明”和“出路”的包票，这才雄赳赳地去革命，那就不但不是革命者，简直连投机家都不如了。虽是投机，成败之数也不能预卜的。<br>我临末还要揭出一点黑暗，是我们中国现在 (现在!不是超时代的)民众，其实还不很管什么党，只要看“头”和“女尸”。只要有，无论谁的都有人看，拳匪之乱，清末党狱，民二，去年和今年，在这短短的二十年中，我已经目睹或耳闻了好几次了。<br>四月十日。",
                "type": "text",
                "textLinkType": "none"
            }
        ],
        "excerptTitle": "鲁迅 《铲共大观》 仍是四月六日的《申报…",
        "contentHtml": "<div>鲁迅<br/>《铲共大观》<br/>仍是四月六日的《申报》上，又有一段《长沙通信》，叙湘省破获共产党省委会，“处死刑者三十余人，黄花节斩决八名”。其中有几处文笔做得极好，抄一点在下面：<br/>……是日执行之后，因马(淑纯，十六岁;志纯，十四岁)傅(凤君，二十四岁)三犯，系属女性，全城男女往观者，终日人山人海，拥挤不通。加以共魁郭亮之首级，又悬之司门口示众，往观者更众。司门口八角亭一带，交通为之断绝。计南门一带民众，则看郭亮首级后，又赴教育会看女尸。北门一带民众，则在教育会看女尸后，又往司门口看郭首级。全城扰攘，铲共空气，为之骤张;直至晚间，观者始不似日间之拥挤。”<br/>抄完之后，觉得颇不妥。因为我就想发一点议论，然而立刻又想到恐怕一面有人疑心我在冷嘲(有人说，我是只喜欢冷嘲的)，一面又有人责罚我传播黑暗，因此咒我灭亡，自己带着一切黑暗到地底里去。但我熬不住，——别的议论就少发一点罢，单从 “为艺术的艺术”说起来，你看这不过一百五六十字的文章，就多么有力。我一读，便仿佛看见司门口挂着一颗头，教育会前列着三具不连头的女尸。而且至少是赤膊的，——但这也许我猜得不对，是我自己太黑暗之故。而许多“民众”，一批是由北往南，一批是由南往北，挤着，嚷着……。再添一点蛇足，是脸上都表现着或者正在神往，或者已经满足的神情。在我所见的“革命文学”或“写实文学”中，还没有遇到过这么强有力的文学。批评家罗喀绥夫斯奇说的罢： “安特列夫竭力要我们恐怖，我们却并不怕;契呵夫不这样，我们倒恐怖了。”这百余字实在抵得上小说一大堆，何况又是事实。<br/>且住。再说下去，恐怕有些英雄们又要责我散布黑暗，阻碍革命了。一理是也有一理的，现在易犯嫌疑，忠实同志被误解为共党，或关或释的，报上向来常见。万一不幸，沉冤莫白，那真是……。倘使常常提起这些来，也许未免会短壮士之气。但是，革命被头挂退的事是很少有的，革命的完结，大概只由于投机者的潜入。也就是内里蛀空。这并非指赤化，任何主义的革命都如此。但不是正因为黑暗，正因为没有出路，所以要革命的么?倘必须前面贴着“光明”和“出路”的包票，这才雄赳赳地去革命，那就不但不是革命者，简直连投机家都不如了。虽是投机，成败之数也不能预卜的。<br/>我临末还要揭出一点黑暗，是我们中国现在 (现在!不是超时代的)民众，其实还不很管什么党，只要看“头”和“女尸”。只要有，无论谁的都有人看，拳匪之乱，清末党狱，民二，去年和今年，在这短短的二十年中，我已经目睹或耳闻了好几次了。<br/>四月十日。</div>",
        "virtuals": {
            "isLiked": false,
            "isFavorited": false,
            "reactionType": "like"
        },
        "reactionRelation": {
            "like": 0,
            "vote": 0
        },
        "topReactions": {
            "like": 19
        },
        "comments": [],
        "author": "gong-ge-cheng-52",
        "likers": [],
        "tags": [],
        "tagSpecials": {},
        "topics": null,
        "questions": null,
        "reactionInstruction": {},
        "regulateInfo": {
            "isRegulating": false
        },
        "longThreshold": [
            {
                "width": 1,
                "height": 3
            },
            {
                "width": 3,
                "height": 1
            }
        ]
    },
    "1332662265238646784": {
        "id": "1332662265238646784",
        "type": "pin",
        "state": "normal",
        "url": "https://www.zhihu.com/pin/1332662265238646784",
        "viewPermission": "all",
        "sourcePinId": 0,
        "created": 1610511443,
        "updated": 1610511443,
        "isDeleted": false,
        "selfCreate": false,
        "commentPermission": "all",
        "canTop": false,
        "isTop": false,
        "isAdminCloseRepin": false,
        "adminClosedComment": false,
        "meetReactionGuideConditions": false,
        "likeCount": 0,
        "commentCount": 0,
        "repinCount": 0,
        "reactionCount": 19,
        "favoriteCount": 0,
        "pageViewCount": null,
        "content": [
            {
                "content": "法捷耶夫在讨论马林科夫报告发言中批无冲突论",
                "foldType": "raw",
                "ownText": "法捷耶夫在讨论马林科夫报告发言中批无冲突论",
                "type": "text",
                "textLinkType": "none"
            },
            {
                "url": "https://pic4.zhimg.com/80/v2-2b18c469e3955e618b4899670f1aa265_qhd.jpg",
                "originalUrl": "https://pic4.zhimg.com/80/v2-2b18c469e3955e618b4899670f1aa265_qhd.jpg",
                "isWatermark": false,
                "watermarkUrl": "https://pic3.zhimg.com/80/v2-ae32eab9f66cd32a975a4292efaf8f42_qhd.jpg",
                "thumbnail": "",
                "width": 4608,
                "height": 3456,
                "type": "image",
                "isGif": false,
                "isLong": false
            },
            {
                "url": "https://pica.zhimg.com/80/v2-2f6c4b0a4e40d4a5f30a4e4c0347db5a_qhd.jpg",
                "originalUrl": "https://pica.zhimg.com/80/v2-2f6c4b0a4e40d4a5f30a4e4c0347db5a_qhd.jpg",
                "isWatermark": false,
                "watermarkUrl": "https://pic2.zhimg.com/80/v2-ae5286eb0851b2d911dec3e669828a11_qhd.jpg",
                "thumbnail": "",
                "width": 4608,
                "height": 3456,
                "type": "image",
                "isGif": false,
                "isLong": false
            },
            {
                "url": "https://pica.zhimg.com/80/v2-f0dead7efe227a938e87d9698c11fdce_qhd.jpg",
                "originalUrl": "https://pica.zhimg.com/80/v2-f0dead7efe227a938e87d9698c11fdce_qhd.jpg",
                "isWatermark": false,
                "watermarkUrl": "https://pic3.zhimg.com/80/v2-d7ab7e1738da29c380bc84e4de7efce4_qhd.jpg",
                "thumbnail": "",
                "width": 4608,
                "height": 3456,
                "type": "image",
                "isGif": false,
                "isLong": false
            },
            {
                "url": "https://pic3.zhimg.com/80/v2-4d2c8ea3c7c2b3ae912394f77af78590_qhd.jpg",
                "originalUrl": "https://pic3.zhimg.com/80/v2-4d2c8ea3c7c2b3ae912394f77af78590_qhd.jpg",
                "isWatermark": false,
                "watermarkUrl": "https://pic1.zhimg.com/80/v2-b657202b7a6e65b4e46f816d1cef5f40_qhd.jpg",
                "thumbnail": "",
                "width": 4608,
                "height": 3456,
                "type": "image",
                "isGif": false,
                "isLong": false
            }
        ],
        "excerptTitle": "法捷耶夫在讨论马林科夫报告发言中批无冲…",
        "contentHtml": "<div>法捷耶夫在讨论马林科夫报告发言中批无冲突论</div><img src=\"https://pic2.zhimg.com/50/v2-2b18c469e3955e618b4899670f1aa265_b.jpg\" data-rawwidth=\"4608\" data-rawheight=\"3456\" class=\"origin_image zh-lightbox-thumb\" width=\"4608\" data-original=\"https://pic2.zhimg.com/50/v2-2b18c469e3955e618b4899670f1aa265_r.jpg\"><img src=\"https://pic3.zhimg.com/50/v2-2f6c4b0a4e40d4a5f30a4e4c0347db5a_b.jpg\" data-rawwidth=\"4608\" data-rawheight=\"3456\" class=\"origin_image zh-lightbox-thumb\" width=\"4608\" data-original=\"https://pic3.zhimg.com/50/v2-2f6c4b0a4e40d4a5f30a4e4c0347db5a_r.jpg\"><img src=\"https://pic3.zhimg.com/50/v2-f0dead7efe227a938e87d9698c11fdce_b.jpg\" data-rawwidth=\"4608\" data-rawheight=\"3456\" class=\"origin_image zh-lightbox-thumb\" width=\"4608\" data-original=\"https://pic3.zhimg.com/50/v2-f0dead7efe227a938e87d9698c11fdce_r.jpg\"><img src=\"https://pic1.zhimg.com/50/v2-4d2c8ea3c7c2b3ae912394f77af78590_b.jpg\" data-rawwidth=\"4608\" data-rawheight=\"3456\" class=\"origin_image zh-lightbox-thumb\" width=\"4608\" data-original=\"https://pic1.zhimg.com/50/v2-4d2c8ea3c7c2b3ae912394f77af78590_r.jpg\">",
        "virtuals": {
            "isLiked": false,
            "isFavorited": false,
            "reactionType": "like"
        },
        "reactionRelation": {
            "like": 0,
            "vote": 0
        },
        "topReactions": {
            "like": 19
        },
        "comments": [],
        "author": "gong-ge-cheng-52",
        "likers": [],
        "tags": [],
        "tagSpecials": {},
        "topics": null,
        "questions": null,
        "reactionInstruction": {},
        "regulateInfo": {
            "isRegulating": false
        },
        "longThreshold": [
            {
                "width": 1,
                "height": 3
            },
            {
                "width": 3,
                "height": 1
            }
        ]
    },
    "1332301948398784512": {
        "id": "1332301948398784512",
        "type": "pin",
        "state": "normal",
        "url": "https://www.zhihu.com/pin/1332301948398784512",
        "viewPermission": "all",
        "sourcePinId": 0,
        "created": 1610425537,
        "updated": 1610425537,
        "isDeleted": false,
        "selfCreate": false,
        "commentPermission": "all",
        "canTop": false,
        "isTop": false,
        "isAdminCloseRepin": false,
        "adminClosedComment": false,
        "meetReactionGuideConditions": false,
        "likeCount": 0,
        "commentCount": 1,
        "repinCount": 0,
        "reactionCount": 30,
        "favoriteCount": 1,
        "pageViewCount": null,
        "content": [
            {
                "content": "前五为旧书《工总司斗争纪要》主要章节书影，不知文本上与后二所谈《上海一月Rev大事纪》有无传承，还是完全另起炉灶(叶大作家_{讳}永烈自陈曾看过此书并一种上棉十七厂CR大事纪，但对其自由创作发明历史似无束缚)",
                "foldType": "raw",
                "ownText": "前五为旧书《工总司斗争纪要》主要章节书影，不知文本上与后二所谈《上海一月Rev大事纪》有无传承，还是完全另起炉灶(叶大作家_{讳}永烈自陈曾看过此书并一种上棉十七厂CR大事纪，但对其自由创作发明历史似无束缚)",
                "type": "text",
                "textLinkType": "none"
            },
            {
                "url": "https://pic2.zhimg.com/80/v2-c83fd3af4d6bc6b15f57d42fbd48c605_qhd.jpg",
                "originalUrl": "https://pic2.zhimg.com/80/v2-c83fd3af4d6bc6b15f57d42fbd48c605_qhd.jpg",
                "isWatermark": false,
                "watermarkUrl": "https://pica.zhimg.com/80/v2-340b40252cde024460482c6e0c33f328_qhd.jpg",
                "thumbnail": "",
                "width": 4608,
                "height": 3456,
                "type": "image",
                "isGif": false,
                "isLong": false
            },
            {
                "url": "https://picx.zhimg.com/80/v2-e8dcba2575f36274523cfa4352987bdb_qhd.jpg",
                "originalUrl": "https://picx.zhimg.com/80/v2-e8dcba2575f36274523cfa4352987bdb_qhd.jpg",
                "isWatermark": false,
                "watermarkUrl": "https://pica.zhimg.com/80/v2-f23d1dbc9e42b5182c8daa17e1d0ac66_qhd.jpg",
                "thumbnail": "",
                "width": 4608,
                "height": 3456,
                "type": "image",
                "isGif": false,
                "isLong": false
            },
            {
                "url": "https://pic4.zhimg.com/80/v2-4163d0bbf0db83ca504a15a7874f5bb3_qhd.jpg",
                "originalUrl": "https://pic4.zhimg.com/80/v2-4163d0bbf0db83ca504a15a7874f5bb3_qhd.jpg",
                "isWatermark": false,
                "watermarkUrl": "https://pic4.zhimg.com/80/v2-2f043b8a5253e2f6ed5b3fc4bf06f7bf_qhd.jpg",
                "thumbnail": "",
                "width": 4608,
                "height": 3456,
                "type": "image",
                "isGif": false,
                "isLong": false
            },
            {
                "url": "https://pic2.zhimg.com/80/v2-3913e392c57ffebb4eb62ba14e934fc3_qhd.jpg",
                "originalUrl": "https://pic2.zhimg.com/80/v2-3913e392c57ffebb4eb62ba14e934fc3_qhd.jpg",
                "isWatermark": false,
                "watermarkUrl": "https://pic2.zhimg.com/80/v2-028e8a1269b01db6ddbab436f17bedd7_qhd.jpg",
                "thumbnail": "",
                "width": 4608,
                "height": 3456,
                "type": "image",
                "isGif": false,
                "isLong": false
            },
            {
                "url": "https://pica.zhimg.com/80/v2-5dd5cfe497fd2ed2e34ed4def0147bde_qhd.jpg",
                "originalUrl": "https://pica.zhimg.com/80/v2-5dd5cfe497fd2ed2e34ed4def0147bde_qhd.jpg",
                "isWatermark": false,
                "watermarkUrl": "https://picx.zhimg.com/80/v2-9f84615a4f4a615c9d934e15e33f2897_qhd.jpg",
                "thumbnail": "",
                "width": 4608,
                "height": 3456,
                "type": "image",
                "isGif": false,
                "isLong": false
            },
            {
                "url": "https://pic2.zhimg.com/80/v2-1f594966f1e61f7b1edbf4ca7b3e2e01_qhd.jpg",
                "originalUrl": "https://pic2.zhimg.com/80/v2-1f594966f1e61f7b1edbf4ca7b3e2e01_qhd.jpg",
                "isWatermark": false,
                "watermarkUrl": "https://pic4.zhimg.com/80/v2-33faca8ec659b947ce22ec6a37f9c567_qhd.jpg",
                "thumbnail": "",
                "width": 4608,
                "height": 3456,
                "type": "image",
                "isGif": false,
                "isLong": false
            },
            {
                "url": "https://pic4.zhimg.com/80/v2-005cf0ea063d39758628eaa8f0b2cb6b_qhd.jpg",
                "originalUrl": "https://pic4.zhimg.com/80/v2-005cf0ea063d39758628eaa8f0b2cb6b_qhd.jpg",
                "isWatermark": false,
                "watermarkUrl": "https://picx.zhimg.com/80/v2-e6c6b0329b221f808a91841c1ac3a97f_qhd.jpg",
                "thumbnail": "",
                "width": 4608,
                "height": 3456,
                "type": "image",
                "isGif": false,
                "isLong": false
            }
        ],
        "excerptTitle": "前五为旧书《工总司斗争纪要》主要章节书…",
        "contentHtml": "<div>前五为旧书《工总司斗争纪要》主要章节书影，不知文本上与后二所谈《上海一月Rev大事纪》有无传承，还是完全另起炉灶(叶大作家_{讳}永烈自陈曾看过此书并一种上棉十七厂CR大事纪，但对其自由创作发明历史似无束缚)</div><img src=\"https://pic2.zhimg.com/50/v2-c83fd3af4d6bc6b15f57d42fbd48c605_b.jpg\" data-rawwidth=\"4608\" data-rawheight=\"3456\" class=\"origin_image zh-lightbox-thumb\" width=\"4608\" data-original=\"https://pic2.zhimg.com/50/v2-c83fd3af4d6bc6b15f57d42fbd48c605_r.jpg\"><img src=\"https://pic4.zhimg.com/50/v2-e8dcba2575f36274523cfa4352987bdb_b.jpg\" data-rawwidth=\"4608\" data-rawheight=\"3456\" class=\"origin_image zh-lightbox-thumb\" width=\"4608\" data-original=\"https://pic4.zhimg.com/50/v2-e8dcba2575f36274523cfa4352987bdb_r.jpg\"><img src=\"https://pic4.zhimg.com/50/v2-4163d0bbf0db83ca504a15a7874f5bb3_b.jpg\" data-rawwidth=\"4608\" data-rawheight=\"3456\" class=\"origin_image zh-lightbox-thumb\" width=\"4608\" data-original=\"https://pic4.zhimg.com/50/v2-4163d0bbf0db83ca504a15a7874f5bb3_r.jpg\"><img src=\"https://pic4.zhimg.com/50/v2-3913e392c57ffebb4eb62ba14e934fc3_b.jpg\" data-rawwidth=\"4608\" data-rawheight=\"3456\" class=\"origin_image zh-lightbox-thumb\" width=\"4608\" data-original=\"https://pic4.zhimg.com/50/v2-3913e392c57ffebb4eb62ba14e934fc3_r.jpg\"><img src=\"https://pic3.zhimg.com/50/v2-5dd5cfe497fd2ed2e34ed4def0147bde_b.jpg\" data-rawwidth=\"4608\" data-rawheight=\"3456\" class=\"origin_image zh-lightbox-thumb\" width=\"4608\" data-original=\"https://pic3.zhimg.com/50/v2-5dd5cfe497fd2ed2e34ed4def0147bde_r.jpg\"><img src=\"https://pic2.zhimg.com/50/v2-1f594966f1e61f7b1edbf4ca7b3e2e01_b.jpg\" data-rawwidth=\"4608\" data-rawheight=\"3456\" class=\"origin_image zh-lightbox-thumb\" width=\"4608\" data-original=\"https://pic2.zhimg.com/50/v2-1f594966f1e61f7b1edbf4ca7b3e2e01_r.jpg\"><img src=\"https://pic4.zhimg.com/50/v2-005cf0ea063d39758628eaa8f0b2cb6b_b.jpg\" data-rawwidth=\"4608\" data-rawheight=\"3456\" class=\"origin_image zh-lightbox-thumb\" width=\"4608\" data-original=\"https://pic4.zhimg.com/50/v2-005cf0ea063d39758628eaa8f0b2cb6b_r.jpg\">",
        "virtuals": {
            "isLiked": false,
            "isFavorited": false
        },
        "reactionRelation": {
            "like": 0,
            "vote": 0
        },
        "topReactions": {
            "like": 30
        },
        "comments": [],
        "author": "gong-ge-cheng-52",
        "likers": [],
        "tags": [],
        "tagSpecials": {},
        "topics": null,
        "questions": null,
        "reactionInstruction": {},
        "regulateInfo": {
            "isRegulating": false
        },
        "longThreshold": [
            {
                "width": 1,
                "height": 3
            },
            {
                "width": 3,
                "height": 1
            }
        ]
    },
    "1329843115260899328": {
        "id": "1329843115260899328",
        "type": "pin",
        "state": "normal",
        "url": "https://www.zhihu.com/pin/1329843115260899328",
        "viewPermission": "all",
        "sourcePinId": 0,
        "created": 1609839305,
        "updated": 1609839305,
        "isDeleted": false,
        "selfCreate": false,
        "commentPermission": "all",
        "canTop": false,
        "isTop": false,
        "isAdminCloseRepin": false,
        "adminClosedComment": false,
        "meetReactionGuideConditions": false,
        "likeCount": 0,
        "commentCount": 1,
        "repinCount": 0,
        "reactionCount": 24,
        "favoriteCount": 0,
        "pageViewCount": null,
        "content": [
            {
                "content": "关于联共19代的文件问题，文件汇编本身有，就是没找到电子版，回头可以整理马林科夫的报告文本(高度评价了《苏联社义经济问题》，涉及对某类人的批评，不过似没有斯在16日全会上那样直接点莫洛托夫和米高扬)等（关于起草者，路易斯·斯特朗说“斯大林最后发表的著作是他为1952年10月第19次P代会所写的50页长的报告”，不知所据，聊备一说）。19代关于修改P纲的决议说以斯大林为首的委员会修改纲领，而沈志华说“我在俄国档案里发现了一个材料，是1947年2月起草的苏共19大党纲，提倡加大对农业和轻工业投资，强调提高人民生活水平，在许多方面与后来的20大报告十分相似（<a href=\"https://link.zhihu.com/?target=http%3A//www.chinanews.com/cul/2013/11-26/5545498.shtml\" data-icon-type=\"link\" data-original-url=\"http://www.chinanews.com/cul/2013/11-26/5545498.shtml\" class=\"external\">链接</a>）”47年有了草案为什么不在52年会上通过，而要继续“以斯大林同志的著作《苏联社义经济问题》中的基本原理为指导原则”修改，也是值得注意的 。不过暂未在现有的中文&#34;档案选编&#34;《文选》等中里寻获这份47年版草案，或者斯大林的相关意见和批示乃至起草稿，谨在这此求教于大方之家了。",
                "foldType": "raw",
                "ownText": "关于联共19代的文件问题，文件汇编本身有，就是没找到电子版，回头可以整理马林科夫的报告文本(高度评价了《苏联社义经济问题》，涉及对某类人的批评，不过似没有斯在16日全会上那样直接点莫洛托夫和米高扬)等（关于起草者，路易斯·斯特朗说“斯大林最后发表的著作是他为1952年10月第19次P代会所写的50页长的报告”，不知所据，聊备一说）。19代关于修改P纲的决议说以斯大林为首的委员会修改纲领，而沈志华说“我在俄国档案里发现了一个材料，是1947年2月起草的苏共19大党纲，提倡加大对农业和轻工业投资，强调提高人民生活水平，在许多方面与后来的20大报告十分相似（<a href=\"https://link.zhihu.com/?target=http%3A//www.chinanews.com/cul/2013/11-26/5545498.shtml\" data-icon-type=\"link\" data-original-url=\"http://www.chinanews.com/cul/2013/11-26/5545498.shtml\" class=\"external\">链接</a>）”47年有了草案为什么不在52年会上通过，而要继续“以斯大林同志的著作《苏联社义经济问题》中的基本原理为指导原则”修改，也是值得注意的 。不过暂未在现有的中文&#34;档案选编&#34;《文选》等中里寻获这份47年版草案，或者斯大林的相关意见和批示乃至起草稿，谨在这此求教于大方之家了。",
                "type": "text",
                "textLinkType": "none"
            }
        ],
        "excerptTitle": "关于联共19代的文件问题，文件汇编本身有…",
        "contentHtml": "<div>关于联共19代的文件问题，文件汇编本身有，就是没找到电子版，回头可以整理马林科夫的报告文本(高度评价了《苏联社义经济问题》，涉及对某类人的批评，不过似没有斯在16日全会上那样直接点莫洛托夫和米高扬)等（关于起草者，路易斯·斯特朗说“斯大林最后发表的著作是他为1952年10月第19次P代会所写的50页长的报告”，不知所据，聊备一说）。19代关于修改P纲的决议说以斯大林为首的委员会修改纲领，而沈志华说“我在俄国档案里发现了一个材料，是1947年2月起草的苏共19大党纲，提倡加大对农业和轻工业投资，强调提高人民生活水平，在许多方面与后来的20大报告十分相似（<a href=\"https://link.zhihu.com/?target=http%3A//www.chinanews.com/cul/2013/11-26/5545498.shtml\" data-icon-type=\"link\" data-original-url=\"http://www.chinanews.com/cul/2013/11-26/5545498.shtml\" class=\"external\">链接</a>）”47年有了草案为什么不在52年会上通过，而要继续“以斯大林同志的著作《苏联社义经济问题》中的基本原理为指导原则”修改，也是值得注意的 。不过暂未在现有的中文&#34;档案选编&#34;《文选》等中里寻获这份47年版草案，或者斯大林的相关意见和批示乃至起草稿，谨在这此求教于大方之家了。</div>",
        "virtuals": {
            "isLiked": false,
            "isFavorited": false
        },
        "reactionRelation": {
            "like": 0,
            "vote": 0
        },
        "topReactions": {
            "like": 24
        },
        "comments": [],
        "author": "gong-ge-cheng-52",
        "likers": [],
        "tags": [],
        "tagSpecials": {},
        "topics": null,
        "questions": null,
        "reactionInstruction": {},
        "regulateInfo": {
            "isRegulating": false
        },
        "longThreshold": [
            {
                "width": 1,
                "height": 3
            },
            {
                "width": 3,
                "height": 1
            }
        ]
    },
    "1328040159162245120": {
        "id": "1328040159162245120",
        "type": "pin",
        "state": "normal",
        "url": "https://www.zhihu.com/pin/1328040159162245120",
        "viewPermission": "all",
        "sourcePinId": 1328036586530504700,
        "created": 1609409447,
        "updated": 1609409447,
        "isDeleted": false,
        "selfCreate": false,
        "commentPermission": "all",
        "canTop": false,
        "isTop": false,
        "isAdminCloseRepin": false,
        "adminClosedComment": false,
        "meetReactionGuideConditions": false,
        "likeCount": 0,
        "commentCount": 0,
        "repinCount": 0,
        "reactionCount": 28,
        "favoriteCount": 0,
        "pageViewCount": null,
        "content": [
            {
                "content": "可参考吴焱金《四十三年 望中犹记》中《七·二〇后J人道歉，罪证被毁》一节",
                "foldType": "raw",
                "ownText": "可参考吴焱金《四十三年 望中犹记》中《七·二〇后J人道歉，罪证被毁》一节",
                "type": "text",
                "textLinkType": "none"
            }
        ],
        "excerptTitle": "可参考吴焱金《四十三年 望中犹记》中《…",
        "contentHtml": "<div>可参考吴焱金《四十三年 望中犹记》中《七·二〇后J人道歉，罪证被毁》一节</div>",
        "virtuals": {
            "isLiked": false,
            "isFavorited": false,
            "reactionType": "like"
        },
        "reactionRelation": {
            "like": 0,
            "vote": 0
        },
        "topReactions": {
            "like": 28
        },
        "comments": [],
        "author": "gong-ge-cheng-52",
        "likers": [],
        "tags": [],
        "tagSpecials": {},
        "topics": null,
        "questions": null,
        "originPin": {
            "id": "1328036586530504704",
            "type": "pin",
            "state": "normal",
            "url": "https://www.zhihu.com/pin/1328036586530504704",
            "viewPermission": "all",
            "sourcePinId": 0,
            "created": 1609408595,
            "updated": 1609408595,
            "isDeleted": false,
            "selfCreate": false,
            "commentPermission": "all",
            "canTop": false,
            "isTop": false,
            "isAdminCloseRepin": false,
            "adminClosedComment": false,
            "meetReactionGuideConditions": false,
            "likeCount": 0,
            "commentCount": 7,
            "repinCount": 2,
            "reactionCount": 48,
            "favoriteCount": 1,
            "pageViewCount": null,
            "content": [
                {
                    "content": "&#34;百公馆&#34;牺牲烈士遗像(部分)",
                    "foldType": "raw",
                    "ownText": "&#34;百公馆&#34;牺牲烈士遗像(部分)",
                    "type": "text",
                    "textLinkType": "none"
                },
                {
                    "url": "https://pic4.zhimg.com/80/v2-285a099f15fe10361f4c1be5dcec0141_qhd.jpg",
                    "originalUrl": "https://pic4.zhimg.com/80/v2-285a099f15fe10361f4c1be5dcec0141_qhd.jpg",
                    "isWatermark": false,
                    "watermarkUrl": "https://pic1.zhimg.com/80/v2-53f7b357190012754adcaf0e6d5fa266_qhd.jpg",
                    "thumbnail": "",
                    "width": 1024,
                    "height": 768,
                    "type": "image",
                    "isGif": false,
                    "isLong": false
                },
                {
                    "url": "https://pic1.zhimg.com/80/v2-28a6974eb372fc9cb9f1473a9105b0bc_qhd.jpg",
                    "originalUrl": "https://pic1.zhimg.com/80/v2-28a6974eb372fc9cb9f1473a9105b0bc_qhd.jpg",
                    "isWatermark": false,
                    "watermarkUrl": "https://pic2.zhimg.com/80/v2-5f33596857fbaf3db10d38816f91ecaf_qhd.jpg",
                    "thumbnail": "",
                    "width": 1024,
                    "height": 768,
                    "type": "image",
                    "isGif": false,
                    "isLong": false
                },
                {
                    "url": "https://pica.zhimg.com/80/v2-06385bb12d6cebcedd327a2795e81ce8_qhd.jpg",
                    "originalUrl": "https://pica.zhimg.com/80/v2-06385bb12d6cebcedd327a2795e81ce8_qhd.jpg",
                    "isWatermark": false,
                    "watermarkUrl": "https://pic1.zhimg.com/80/v2-15aa1df93edec8c4f72c1a1607b263b8_qhd.jpg",
                    "thumbnail": "",
                    "width": 1024,
                    "height": 768,
                    "type": "image",
                    "isGif": false,
                    "isLong": false
                }
            ],
            "excerptTitle": "\"百公馆\"牺牲烈士遗像(部分)",
            "contentHtml": "<div>&#34;百公馆&#34;牺牲烈士遗像(部分)</div><img src=\"https://pic2.zhimg.com/50/v2-285a099f15fe10361f4c1be5dcec0141_b.jpg\" data-rawwidth=\"1024\" data-rawheight=\"768\" class=\"origin_image zh-lightbox-thumb\" width=\"1024\" data-original=\"https://pic2.zhimg.com/50/v2-285a099f15fe10361f4c1be5dcec0141_r.jpg\"><img src=\"https://pic1.zhimg.com/50/v2-28a6974eb372fc9cb9f1473a9105b0bc_b.jpg\" data-rawwidth=\"1024\" data-rawheight=\"768\" class=\"origin_image zh-lightbox-thumb\" width=\"1024\" data-original=\"https://pic1.zhimg.com/50/v2-28a6974eb372fc9cb9f1473a9105b0bc_r.jpg\"><img src=\"https://pic1.zhimg.com/50/v2-06385bb12d6cebcedd327a2795e81ce8_b.jpg\" data-rawwidth=\"1024\" data-rawheight=\"768\" class=\"origin_image zh-lightbox-thumb\" width=\"1024\" data-original=\"https://pic1.zhimg.com/50/v2-06385bb12d6cebcedd327a2795e81ce8_r.jpg\">",
            "virtuals": {
                "isLiked": false,
                "isFavorited": false,
                "reactionType": "like"
            },
            "reactionRelation": {
                "like": 0,
                "vote": 0
            },
            "topReactions": {
                "like": 48
            },
            "comments": [],
            "author": {
                "id": "9153a8432830007569bb6715585cdb1b",
                "name": "龚格晟",
                "avatarUrl": "https://picx.zhimg.com/50/v2-dd6ca6351985316ea857e2e6d2db1347_l.jpg",
                "gender": 1,
                "type": "people",
                "headline": "MЛㄇ。有事缠身",
                "urlToken": "gong-ge-cheng-52",
                "userType": "people",
                "url": "/people/9153a8432830007569bb6715585cdb1b",
                "vipInfo": {
                    "isVip": false
                },
                "exposedMedal": {
                    "medalId": "972477022068568064",
                    "medalName": "备受瞩目",
                    "description": "被 1000 个人关注",
                    "miniAvatarUrl": "https://pic2.zhimg.com/50/v2-6da117205088242db9cd82e48b28640d_b.jpg",
                    "avatarUrl": "https://pic2.zhimg.com/50/v2-6da117205088242db9cd82e48b28640d_b.jpg",
                    "medalAvatarFrame": ""
                },
                "isOrg": false,
                "isAdvertiser": false,
                "isFollowing": true,
                "isFollowed": true,
                "isBlocking": false,
                "isBlocked": false,
                "badgeV2": {
                    "detailBadges": null,
                    "mergedBadges": [],
                    "title": ""
                },
                "reactionCount": 0,
                "followerCount": 2930
            },
            "likers": [],
            "tags": [],
            "tagSpecials": {},
            "topics": null,
            "questions": null,
            "reactionInstruction": {},
            "regulateInfo": {
                "isRegulating": false
            },
            "longThreshold": [
                {
                    "width": 1,
                    "height": 3
                },
                {
                    "width": 3,
                    "height": 1
                }
            ]
        },
        "repin": {
            "id": "1328036586530504704",
            "type": "pin",
            "state": "normal",
            "url": "https://www.zhihu.com/pin/1328036586530504704",
            "viewPermission": "all",
            "sourcePinId": 0,
            "created": 1609408595,
            "updated": 1609408595,
            "isDeleted": false,
            "selfCreate": false,
            "commentPermission": "all",
            "canTop": false,
            "isTop": false,
            "isAdminCloseRepin": false,
            "adminClosedComment": false,
            "meetReactionGuideConditions": false,
            "likeCount": 0,
            "commentCount": 7,
            "repinCount": 2,
            "reactionCount": 48,
            "favoriteCount": 1,
            "pageViewCount": null,
            "content": [
                {
                    "content": "&#34;百公馆&#34;牺牲烈士遗像(部分)",
                    "foldType": "raw",
                    "ownText": "&#34;百公馆&#34;牺牲烈士遗像(部分)",
                    "type": "text",
                    "textLinkType": "none"
                },
                {
                    "url": "https://pic4.zhimg.com/80/v2-285a099f15fe10361f4c1be5dcec0141_qhd.jpg",
                    "originalUrl": "https://pic4.zhimg.com/80/v2-285a099f15fe10361f4c1be5dcec0141_qhd.jpg",
                    "isWatermark": false,
                    "watermarkUrl": "https://pic1.zhimg.com/80/v2-53f7b357190012754adcaf0e6d5fa266_qhd.jpg",
                    "thumbnail": "",
                    "width": 1024,
                    "height": 768,
                    "type": "image",
                    "isGif": false,
                    "isLong": false
                },
                {
                    "url": "https://pic1.zhimg.com/80/v2-28a6974eb372fc9cb9f1473a9105b0bc_qhd.jpg",
                    "originalUrl": "https://pic1.zhimg.com/80/v2-28a6974eb372fc9cb9f1473a9105b0bc_qhd.jpg",
                    "isWatermark": false,
                    "watermarkUrl": "https://pic2.zhimg.com/80/v2-5f33596857fbaf3db10d38816f91ecaf_qhd.jpg",
                    "thumbnail": "",
                    "width": 1024,
                    "height": 768,
                    "type": "image",
                    "isGif": false,
                    "isLong": false
                },
                {
                    "url": "https://pica.zhimg.com/80/v2-06385bb12d6cebcedd327a2795e81ce8_qhd.jpg",
                    "originalUrl": "https://pica.zhimg.com/80/v2-06385bb12d6cebcedd327a2795e81ce8_qhd.jpg",
                    "isWatermark": false,
                    "watermarkUrl": "https://pic1.zhimg.com/80/v2-15aa1df93edec8c4f72c1a1607b263b8_qhd.jpg",
                    "thumbnail": "",
                    "width": 1024,
                    "height": 768,
                    "type": "image",
                    "isGif": false,
                    "isLong": false
                }
            ],
            "excerptTitle": "\"百公馆\"牺牲烈士遗像(部分)",
            "contentHtml": "<div>&#34;百公馆&#34;牺牲烈士遗像(部分)</div><img src=\"https://pic2.zhimg.com/50/v2-285a099f15fe10361f4c1be5dcec0141_b.jpg\" data-rawwidth=\"1024\" data-rawheight=\"768\" class=\"origin_image zh-lightbox-thumb\" width=\"1024\" data-original=\"https://pic2.zhimg.com/50/v2-285a099f15fe10361f4c1be5dcec0141_r.jpg\"><img src=\"https://pic1.zhimg.com/50/v2-28a6974eb372fc9cb9f1473a9105b0bc_b.jpg\" data-rawwidth=\"1024\" data-rawheight=\"768\" class=\"origin_image zh-lightbox-thumb\" width=\"1024\" data-original=\"https://pic1.zhimg.com/50/v2-28a6974eb372fc9cb9f1473a9105b0bc_r.jpg\"><img src=\"https://pic1.zhimg.com/50/v2-06385bb12d6cebcedd327a2795e81ce8_b.jpg\" data-rawwidth=\"1024\" data-rawheight=\"768\" class=\"origin_image zh-lightbox-thumb\" width=\"1024\" data-original=\"https://pic1.zhimg.com/50/v2-06385bb12d6cebcedd327a2795e81ce8_r.jpg\">",
            "virtuals": {
                "isLiked": false,
                "isFavorited": false,
                "reactionType": "like"
            },
            "reactionRelation": {
                "like": 0,
                "vote": 0
            },
            "topReactions": {
                "like": 48
            },
            "comments": [],
            "author": {
                "id": "9153a8432830007569bb6715585cdb1b",
                "name": "龚格晟",
                "avatarUrl": "https://picx.zhimg.com/50/v2-dd6ca6351985316ea857e2e6d2db1347_l.jpg",
                "gender": 1,
                "type": "people",
                "headline": "MЛㄇ。有事缠身",
                "urlToken": "gong-ge-cheng-52",
                "userType": "people",
                "url": "/people/9153a8432830007569bb6715585cdb1b",
                "vipInfo": {
                    "isVip": false
                },
                "exposedMedal": {
                    "medalId": "972477022068568064",
                    "medalName": "备受瞩目",
                    "description": "被 1000 个人关注",
                    "miniAvatarUrl": "https://pic2.zhimg.com/50/v2-6da117205088242db9cd82e48b28640d_b.jpg",
                    "avatarUrl": "https://pic2.zhimg.com/50/v2-6da117205088242db9cd82e48b28640d_b.jpg",
                    "medalAvatarFrame": ""
                },
                "isOrg": false,
                "isAdvertiser": false,
                "isFollowing": true,
                "isFollowed": true,
                "isBlocking": false,
                "isBlocked": false,
                "badgeV2": {
                    "detailBadges": null,
                    "mergedBadges": [],
                    "title": ""
                },
                "reactionCount": 0,
                "followerCount": 2930
            },
            "likers": [],
            "tags": [],
            "tagSpecials": {},
            "topics": null,
            "questions": null,
            "reactionInstruction": {},
            "regulateInfo": {
                "isRegulating": false
            },
            "longThreshold": [
                {
                    "width": 1,
                    "height": 3
                },
                {
                    "width": 3,
                    "height": 1
                }
            ]
        },
        "reactionInstruction": {},
        "regulateInfo": {
            "isRegulating": false
        },
        "longThreshold": [
            {
                "width": 1,
                "height": 3
            },
            {
                "width": 3,
                "height": 1
            }
        ]
    },
    "1328036586530504704": {
        "id": "1328036586530504704",
        "type": "pin",
        "state": "normal",
        "url": "https://www.zhihu.com/pin/1328036586530504704",
        "viewPermission": "all",
        "sourcePinId": 0,
        "created": 1609408595,
        "updated": 1609408595,
        "isDeleted": false,
        "selfCreate": false,
        "commentPermission": "all",
        "canTop": false,
        "isTop": false,
        "isAdminCloseRepin": false,
        "adminClosedComment": false,
        "meetReactionGuideConditions": false,
        "likeCount": 0,
        "commentCount": 7,
        "repinCount": 2,
        "reactionCount": 48,
        "favoriteCount": 1,
        "pageViewCount": null,
        "content": [
            {
                "content": "&#34;百公馆&#34;牺牲烈士遗像(部分)",
                "foldType": "raw",
                "ownText": "&#34;百公馆&#34;牺牲烈士遗像(部分)",
                "type": "text",
                "textLinkType": "none"
            },
            {
                "url": "https://pic4.zhimg.com/80/v2-285a099f15fe10361f4c1be5dcec0141_qhd.jpg",
                "originalUrl": "https://pic4.zhimg.com/80/v2-285a099f15fe10361f4c1be5dcec0141_qhd.jpg",
                "isWatermark": false,
                "watermarkUrl": "https://pic1.zhimg.com/80/v2-53f7b357190012754adcaf0e6d5fa266_qhd.jpg",
                "thumbnail": "",
                "width": 1024,
                "height": 768,
                "type": "image",
                "isGif": false,
                "isLong": false
            },
            {
                "url": "https://pic1.zhimg.com/80/v2-28a6974eb372fc9cb9f1473a9105b0bc_qhd.jpg",
                "originalUrl": "https://pic1.zhimg.com/80/v2-28a6974eb372fc9cb9f1473a9105b0bc_qhd.jpg",
                "isWatermark": false,
                "watermarkUrl": "https://pic2.zhimg.com/80/v2-5f33596857fbaf3db10d38816f91ecaf_qhd.jpg",
                "thumbnail": "",
                "width": 1024,
                "height": 768,
                "type": "image",
                "isGif": false,
                "isLong": false
            },
            {
                "url": "https://pica.zhimg.com/80/v2-06385bb12d6cebcedd327a2795e81ce8_qhd.jpg",
                "originalUrl": "https://pica.zhimg.com/80/v2-06385bb12d6cebcedd327a2795e81ce8_qhd.jpg",
                "isWatermark": false,
                "watermarkUrl": "https://pic1.zhimg.com/80/v2-15aa1df93edec8c4f72c1a1607b263b8_qhd.jpg",
                "thumbnail": "",
                "width": 1024,
                "height": 768,
                "type": "image",
                "isGif": false,
                "isLong": false
            }
        ],
        "excerptTitle": "\"百公馆\"牺牲烈士遗像(部分)",
        "contentHtml": "<div>&#34;百公馆&#34;牺牲烈士遗像(部分)</div><img src=\"https://pic2.zhimg.com/50/v2-285a099f15fe10361f4c1be5dcec0141_b.jpg\" data-rawwidth=\"1024\" data-rawheight=\"768\" class=\"origin_image zh-lightbox-thumb\" width=\"1024\" data-original=\"https://pic2.zhimg.com/50/v2-285a099f15fe10361f4c1be5dcec0141_r.jpg\"><img src=\"https://pic1.zhimg.com/50/v2-28a6974eb372fc9cb9f1473a9105b0bc_b.jpg\" data-rawwidth=\"1024\" data-rawheight=\"768\" class=\"origin_image zh-lightbox-thumb\" width=\"1024\" data-original=\"https://pic1.zhimg.com/50/v2-28a6974eb372fc9cb9f1473a9105b0bc_r.jpg\"><img src=\"https://pic1.zhimg.com/50/v2-06385bb12d6cebcedd327a2795e81ce8_b.jpg\" data-rawwidth=\"1024\" data-rawheight=\"768\" class=\"origin_image zh-lightbox-thumb\" width=\"1024\" data-original=\"https://pic1.zhimg.com/50/v2-06385bb12d6cebcedd327a2795e81ce8_r.jpg\">",
        "virtuals": {
            "isLiked": false,
            "isFavorited": false,
            "reactionType": "like"
        },
        "reactionRelation": {
            "like": 0,
            "vote": 0
        },
        "topReactions": {
            "like": 48
        },
        "comments": [],
        "author": "gong-ge-cheng-52",
        "likers": [],
        "tags": [],
        "tagSpecials": {},
        "topics": null,
        "questions": null,
        "reactionInstruction": {},
        "regulateInfo": {
            "isRegulating": false
        },
        "longThreshold": [
            {
                "width": 1,
                "height": 3
            },
            {
                "width": 3,
                "height": 1
            }
        ]
    }
}